####
#
# OBJ File Generated by Meshlab
#
####
# Object launcher_foot.obj
#
# Vertices: 209
# Faces: 334
#
####
mtllib ./launcher_foot.obj.mtl

vn -0.000007 2.896649 -1.843416
v 0.000050 0.355700 1.118750 0.749020 0.749020 0.749020
vn -2.357213 -1.168218 -2.207672
v -0.080949 0.216000 1.106250 0.749020 0.749020 0.749020
vn -2.354915 1.540456 -1.965286
v -0.080949 0.309100 1.114550 0.749020 0.749020 0.749020
vn 0.000154 -2.522027 -2.327972
v 0.000050 0.169400 1.102050 0.749020 0.749020 0.749020
vn 2.357045 -1.168338 -2.207419
v 0.081050 0.216000 1.106250 0.749020 0.749020 0.749020
vn 2.354907 1.540459 -1.965280
v 0.081050 0.309100 1.114550 0.749020 0.749020 0.749020
vn 0.006932 -1.585255 2.751916
v 0.000050 1.080800 0.673050 0.749020 0.749020 0.749020
vn -1.402488 -0.224246 -0.834899
v -0.015649 1.001900 0.661950 0.749020 0.749020 0.749020
vn 0.001793 0.365499 1.361956
v 0.000050 1.010000 0.692050 0.749020 0.749020 0.749020
vn -2.158549 0.260370 -1.837363
v -0.015649 1.081600 0.640550 0.749020 0.749020 0.749020
vn -2.159912 1.461434 -1.145012
v -0.015649 1.108600 0.656150 0.749020 0.749020 0.749020
vn 0.006912 -2.744304 -1.587253
v 0.000050 1.145300 0.913850 0.749020 0.749020 0.749020
vn -2.159937 1.840039 0.261095
v -0.015649 1.177900 0.914650 0.749020 0.749020 0.749020
vn 2.162045 1.465881 -1.148215
v 0.015650 1.108600 0.656150 0.749020 0.749020 0.749020
vn 2.162060 1.845483 0.261647
v 0.015650 1.177900 0.914650 0.749020 0.749020 0.749020
vn 2.161976 1.148103 1.467807
v 0.015650 1.162300 0.941650 0.749020 0.749020 0.749020
vn 1.406271 0.223472 0.838201
v 0.015650 1.082600 0.962950 0.749020 0.749020 0.749020
vn 0.001790 -0.365210 -1.360887
v 0.000050 1.074500 0.932850 0.749020 0.749020 0.749020
vn -2.159823 1.144782 1.463340
v -0.015649 1.162300 0.941650 0.749020 0.749020 0.749020
vn 1.404277 -0.225171 -0.838343
v 0.015650 1.001900 0.661950 0.749020 0.749020 0.749020
vn 2.160709 0.261016 -1.842898
v 0.015650 1.081600 0.640550 0.749020 0.749020 0.749020
vn -2.215055 -0.003202 -2.810456
v 0.085351 -0.286700 -1.048750 0.749020 0.749020 0.749020
vn 1.838921 -2.456451 -1.397122
v 0.167350 -0.339200 -1.022450 0.749020 0.749020 0.749020
vn -1.866393 -2.252018 -1.140517
v 0.085351 -0.339200 -1.022450 0.749020 0.749020 0.749020
vn 2.214569 -0.001914 -2.809813
v 0.167350 -0.286700 -1.048750 0.749020 0.749020 0.749020
vn -2.205479 2.247769 -1.675309
v 0.085351 -0.234100 -1.022550 0.749020 0.749020 0.749020
vn 2.167966 2.455077 -2.076261
v 0.167350 -0.234100 -1.022450 0.749020 0.749020 0.749020
vn 3.124410 2.886373 -0.819024
v 0.409550 -0.035400 0.109850 0.749020 0.749020 0.749020
vn 1.780228 4.631124 0.699938
v -0.341549 0.029700 0.457850 0.749020 0.749020 0.749020
vn -1.780229 4.631125 0.699938
v 0.341550 0.029700 0.457850 0.749020 0.749020 0.749020
vn 1.383950 1.543460 -0.291772
v 0.409550 0.264900 1.701950 0.749020 0.749020 0.749020
vn -1.383949 1.543456 -0.291794
v 0.341550 0.264900 1.701950 0.749020 0.749020 0.749020
vn 1.383949 1.543456 -0.291794
v -0.341549 0.264900 1.701950 0.749020 0.749020 0.749020
vn -1.383950 1.543459 -0.291772
v -0.409550 0.264900 1.701950 0.749020 0.749020 0.749020
vn -3.124410 2.886369 -0.819025
v -0.409550 -0.035400 0.109850 0.749020 0.749020 0.749020
vn -1.484543 4.642081 -2.365627
v 0.085351 -0.206700 -0.858850 0.749020 0.749020 0.749020
vn 2.205479 2.247769 -1.675309
v -0.085350 -0.234100 -1.022550 0.749020 0.749020 0.749020
vn -2.167965 2.455078 -2.076262
v -0.167349 -0.234100 -1.022450 0.749020 0.749020 0.749020
vn 1.484543 4.642081 -2.365627
v -0.085350 -0.206700 -0.858850 0.749020 0.749020 0.749020
vn 1.866393 -2.252018 -1.140517
v -0.085350 -0.339200 -1.022450 0.749020 0.749020 0.749020
vn 1.725935 -4.644374 -0.764636
v -0.085350 -0.311300 -0.858750 0.749020 0.749020 0.749020
vn -1.838921 -2.456451 -1.397123
v -0.167349 -0.339200 -1.022450 0.749020 0.749020 0.749020
vn -3.087406 -2.886827 0.159330
v -0.409550 -0.141800 0.109850 0.749020 0.749020 0.749020
vn 3.087406 -2.886827 0.159332
v 0.409550 -0.141800 0.109850 0.749020 0.749020 0.749020
vn -1.725935 -4.644374 -0.764636
v 0.085351 -0.311300 -0.858750 0.749020 0.749020 0.749020
vn -1.458043 -4.633367 2.425528
v 0.341550 -0.076600 0.457850 0.749020 0.749020 0.749020
vn 1.750340 -1.545537 0.280577
v 0.409550 0.149200 1.701950 0.749020 0.749020 0.749020
vn -1.750339 -1.545547 0.280511
v 0.341550 0.149200 1.701950 0.749020 0.749020 0.749020
vn 1.458042 -4.633367 2.425528
v -0.341549 -0.076600 0.457850 0.749020 0.749020 0.749020
vn -1.750340 -1.545536 0.280577
v -0.409550 0.149200 1.701950 0.749020 0.749020 0.749020
vn 1.750339 -1.545547 0.280511
v -0.341549 0.149200 1.701950 0.749020 0.749020 0.749020
vn 3.730668 -0.914738 2.858997
v 0.087850 0.356200 -0.855050 0.749020 0.749020 0.749020
vn 2.343764 -0.574567 2.837333
v 0.087850 0.450300 -0.790850 0.749020 0.749020 0.749020
vn -1.476364 0.102359 3.970772
v 0.034350 0.450300 -0.790850 0.749020 0.749020 0.749020
vn -3.730668 -0.914739 2.858997
v -0.087850 0.356200 -0.855050 0.749020 0.749020 0.749020
vn 1.476364 0.102359 3.970772
v -0.034350 0.450300 -0.790850 0.749020 0.749020 0.749020
vn -2.343764 -0.574567 2.837334
v -0.087850 0.450300 -0.790850 0.749020 0.749020 0.749020
vn -1.580299 -0.029823 -1.580024
v -0.074150 -1.116800 -1.021450 0.749020 0.749020 0.749020
vn -1.580300 -0.029823 1.580024
v -0.074150 -1.116800 -0.869150 0.749020 0.749020 0.749020
vn -2.475014 0.934693 -2.801470
v -0.087850 0.356200 -1.035550 0.749020 0.749020 0.749020
vn -2.055967 2.528339 -0.913933
v -0.087850 0.544400 -0.885850 0.749020 0.749020 0.749020
vn -1.966820 1.851148 1.847070
v -0.087850 0.528600 -0.806650 0.749020 0.749020 0.749020
vn 0.006958 -1.587470 2.751134
v 0.000050 0.836700 -0.217550 0.749020 0.749020 0.749020
vn -1.401579 -0.223478 -0.835645
v -0.015649 0.757800 -0.228750 0.749020 0.749020 0.749020
vn 0.001795 0.363976 1.363473
v 0.000050 0.765900 -0.198650 0.749020 0.749020 0.749020
vn -2.159563 0.261558 -1.837363
v -0.015649 0.837500 -0.250050 0.749020 0.749020 0.749020
vn -2.160009 1.461391 -1.145152
v -0.015649 0.864500 -0.234450 0.749020 0.749020 0.749020
vn 0.006955 -2.746380 -1.595116
v 0.000050 0.901200 0.023250 0.749020 0.749020 0.749020
vn -2.157272 1.838751 0.264242
v -0.015649 0.933800 0.023950 0.749020 0.749020 0.749020
vn 2.162128 1.465828 -1.148298
v 0.015650 0.864500 -0.234450 0.749020 0.749020 0.749020
vn 2.159380 1.844151 0.264754
v 0.015650 0.933800 0.023950 0.749020 0.749020 0.749020
vn 2.164014 1.145121 1.466278
v 0.015650 0.918100 0.050950 0.749020 0.749020 0.749020
vn 1.402398 0.225234 0.838564
v 0.015650 0.838400 0.072350 0.749020 0.749020 0.749020
vn 0.001798 -0.366100 -1.364199
v 0.000050 0.830400 0.042250 0.749020 0.749020 0.749020
vn -2.161842 1.141790 1.461793
v -0.015649 0.918100 0.050950 0.749020 0.749020 0.749020
vn 1.403366 -0.224398 -0.839089
v 0.015650 0.757800 -0.228750 0.749020 0.749020 0.749020
vn 2.161725 0.262207 -1.842899
v 0.015650 0.837500 -0.250050 0.749020 0.749020 0.749020
vn 1.570801 2.217954 -0.124524
v 0.201650 -0.248500 -0.985050 0.749020 0.749020 0.749020
vn -1.570792 0.124523 2.217944
v -0.201650 -0.279600 -0.950250 0.749020 0.749020 0.749020
vn 1.570792 0.124523 2.217943
v 0.201650 -0.279600 -0.950250 0.749020 0.749020 0.749020
vn -1.570801 2.217954 -0.124524
v -0.201650 -0.248500 -0.985050 0.749020 0.749020 0.749020
vn 1.570792 -0.124523 -2.217943
v 0.201650 -0.283300 -1.016150 0.749020 0.749020 0.749020
vn -1.570792 -0.124523 -2.217944
v -0.201650 -0.283300 -1.016150 0.749020 0.749020 0.749020
vn 1.570801 -2.217954 0.124524
v 0.201650 -0.314400 -0.981350 0.749020 0.749020 0.749020
vn -1.570801 -2.217954 0.124524
v -0.201650 -0.314400 -0.981350 0.749020 0.749020 0.749020
vn -1.056345 -1.367477 -0.797874
v -0.186550 0.196500 -0.994550 0.749020 0.749020 0.749020
vn -2.482036 0.962532 -2.812140
v -0.186550 0.407200 -0.994550 0.749020 0.749020 0.749020
vn 0.911239 2.533329 -4.382936
v -0.134250 0.407200 -0.994550 0.749020 0.749020 0.749020
vn 1.056345 -1.367477 -0.797875
v 0.186551 0.196500 -0.994550 0.749020 0.749020 0.749020
vn -0.911239 2.533329 -4.382936
v 0.134250 0.407200 -0.994550 0.749020 0.749020 0.749020
vn 2.482036 0.962532 -2.812140
v 0.186551 0.407200 -0.994550 0.749020 0.749020 0.749020
vn 3.128277 2.835905 -1.024606
v 0.514551 1.086000 0.952550 0.749020 0.749020 0.749020
vn -1.310618 1.517929 -0.404092
v -0.514450 1.285500 1.701950 0.749020 0.749020 0.749020
vn 1.310618 1.517144 -0.403883
v 0.514551 1.285500 1.701950 0.749020 0.749020 0.749020
vn -3.128380 2.837929 -1.025067
v -0.514450 1.086000 0.952550 0.749020 0.749020 0.749020
vn -2.613899 2.906771 -3.447585
v -0.134250 0.658400 -0.740350 0.749020 0.749020 0.749020
vn 2.613899 2.906770 -3.447591
v 0.134250 0.658400 -0.740350 0.749020 0.749020 0.749020
vn -2.354686 -1.355091 -0.121150
v -0.080949 0.175100 1.562750 0.749020 0.749020 0.749020
vn -2.356999 1.355098 0.121113
v -0.080949 0.268300 1.571050 0.749020 0.749020 0.749020
vn -0.000007 2.708912 0.242111
v 0.000050 0.314900 1.575250 0.749020 0.749020 0.749020
vn 2.356991 1.355102 0.121113
v 0.081050 0.268300 1.571050 0.749020 0.749020 0.749020
vn 2.354518 -1.355164 -0.121416
v 0.081050 0.175100 1.562750 0.749020 0.749020 0.749020
vn 0.000154 -2.711692 -0.242618
v 0.000050 0.128600 1.558550 0.749020 0.749020 0.749020
vn -1.404478 0.222548 0.834754
v -0.015649 1.082600 0.962950 0.749020 0.749020 0.749020
vn -2.214569 -0.001914 -2.809813
v -0.167349 -0.286700 -1.048750 0.749020 0.749020 0.749020
vn 2.215055 -0.003202 -2.810456
v -0.085350 -0.286700 -1.048750 0.749020 0.749020 0.749020
vn -1.806981 -0.609683 0.000020
v -0.795550 -1.285500 -0.945250 0.749020 0.749020 0.749020
vn -1.461536 -0.609366 -1.061787
v -0.643650 -1.285500 -1.412950 0.749020 0.749020 0.749020
vn -0.558152 -0.609335 -1.718112
v -0.245850 -1.285500 -1.701950 0.749020 0.749020 0.749020
vn 0.558148 -0.609338 -1.718118
v 0.245850 -1.285500 -1.701950 0.749020 0.749020 0.749020
vn 1.461543 -0.609382 -1.061822
v 0.643651 -1.285500 -1.412950 0.749020 0.749020 0.749020
vn 1.461534 -0.609383 1.061844
v 0.643651 -1.285500 -0.477650 0.749020 0.749020 0.749020
vn 0.558152 -0.609337 1.718114
v 0.245850 -1.285500 -0.188650 0.749020 0.749020 0.749020
vn -0.558149 -0.609340 1.718120
v -0.245850 -1.285500 -0.188650 0.749020 0.749020 0.749020
vn -1.461552 -0.609413 1.061898
v -0.643650 -1.285500 -0.477650 0.749020 0.749020 0.749020
vn 1.806983 -0.609686 0.000088
v 0.795550 -1.285500 -0.945250 0.749020 0.749020 0.749020
vn 0.001052 -2.707107 -0.242303
v 0.000050 0.200500 1.108750 0.749020 0.749020 0.749020
vn -2.356614 -1.355693 -0.121373
v -0.053649 0.231400 1.111450 0.749020 0.749020 0.749020
vn 0.001053 -2.709710 -0.242536
v 0.000050 0.373900 -0.828050 0.749020 0.749020 0.749020
vn -2.355432 -1.356381 -0.121372
v -0.053649 0.404700 -0.825250 0.749020 0.749020 0.749020
vn -2.355428 1.356380 0.121372
v -0.053649 0.293100 1.116950 0.749020 0.749020 0.749020
vn -2.354047 1.355161 0.121263
v -0.053649 0.466400 -0.819750 0.749020 0.749020 0.749020
vn 0.001088 2.709697 0.242469
v 0.000050 0.323900 1.119750 0.749020 0.749020 0.749020
vn 0.001090 2.712138 0.242688
v 0.000050 0.497200 -0.816950 0.749020 0.749020 0.749020
vn 2.356520 1.355757 0.121316
v 0.053650 0.293100 1.116950 0.749020 0.749020 0.749020
vn 2.355133 1.354536 0.121207
v 0.053650 0.466400 -0.819750 0.749020 0.749020 0.749020
vn 2.357739 -1.355053 -0.121253
v 0.053650 0.231400 1.111450 0.749020 0.749020 0.749020
vn 2.356559 -1.355730 -0.121376
v 0.053650 0.404700 -0.825250 0.749020 0.749020 0.749020
vn 2.475014 0.934694 -2.801472
v 0.087850 0.356200 -1.035550 0.749020 0.749020 0.749020
vn 1.580299 -0.029821 -1.580023
v 0.074151 -1.116800 -1.021450 0.749020 0.749020 0.749020
vn 1.580300 -0.029822 1.580024
v 0.074151 -1.116800 -0.869150 0.749020 0.749020 0.749020
vn -0.717786 4.470584 -3.869981
v 0.034350 0.430600 -0.978350 0.749020 0.749020 0.749020
vn -2.056401 2.531215 -0.911612
v 0.034350 0.544400 -0.885850 0.749020 0.749020 0.749020
vn -1.966820 1.851148 1.847070
v 0.034350 0.528600 -0.806650 0.749020 0.749020 0.749020
vn 1.966820 1.851147 1.847070
v -0.034350 0.528600 -0.806650 0.749020 0.749020 0.749020
vn 2.056401 2.531216 -0.911612
v -0.034350 0.544400 -0.885850 0.749020 0.749020 0.749020
vn 0.717786 4.470585 -3.869982
v -0.034350 0.430600 -0.978350 0.749020 0.749020 0.749020
vn 2.055967 2.528339 -0.913933
v 0.087850 0.544400 -0.885850 0.749020 0.749020 0.749020
vn 1.966820 1.851147 1.847070
v 0.087850 0.528600 -0.806650 0.749020 0.749020 0.749020
vn -1.400609 0.224310 0.835121
v -0.015649 0.838400 0.072350 0.749020 0.749020 0.749020
vn -0.945368 0.919614 -1.273465
v -0.101349 -1.115400 -1.097550 0.749020 0.749020 0.749020
vn -0.945369 0.919613 1.273464
v -0.101349 -1.115400 -0.793050 0.749020 0.749020 0.749020
vn -2.196224 2.490410 -1.273464
v -0.101349 -1.049900 -1.050250 0.749020 0.749020 0.749020
vn -2.196224 2.490410 1.273465
v -0.101349 -1.049900 -0.840350 0.749020 0.749020 0.749020
vn 2.196224 2.490410 1.273464
v -0.074150 -1.049900 -0.840350 0.749020 0.749020 0.749020
vn 2.196224 2.490410 -1.273465
v -0.074150 -1.049900 -1.050250 0.749020 0.749020 0.749020
vn 0.945369 0.919614 1.273465
v -0.074150 -1.115400 -0.793050 0.749020 0.749020 0.749020
vn 0.945368 0.919613 -1.273464
v -0.074150 -1.115400 -1.097550 0.749020 0.749020 0.749020
vn -0.945368 0.919614 -1.273465
v 0.074151 -1.115400 -1.097550 0.749020 0.749020 0.749020
vn -0.945369 0.919613 1.273464
v 0.074151 -1.115400 -0.793050 0.749020 0.749020 0.749020
vn -2.196224 2.490410 -1.273464
v 0.074151 -1.049900 -1.050250 0.749020 0.749020 0.749020
vn -2.196224 2.490410 1.273465
v 0.074151 -1.049900 -0.840350 0.749020 0.749020 0.749020
vn 2.196224 2.490410 1.273464
v 0.101350 -1.049900 -0.840350 0.749020 0.749020 0.749020
vn 2.196224 2.490410 -1.273465
v 0.101350 -1.049900 -1.050250 0.749020 0.749020 0.749020
vn 0.945369 0.919614 1.273465
v 0.101350 -1.115400 -0.793050 0.749020 0.749020 0.749020
vn 0.945368 0.919613 -1.273464
v 0.101350 -1.115400 -1.097550 0.749020 0.749020 0.749020
vn -1.570796 1.570796 1.570796
v 0.134250 0.551900 -0.789850 0.749020 0.749020 0.749020
vn -1.570796 1.570796 4.712389
v 0.134250 0.407200 -0.789850 0.749020 0.749020 0.749020
vn 1.570796 1.570796 1.570796
v 0.186551 0.551900 -0.789850 0.749020 0.749020 0.749020
vn 2.085248 -1.367477 2.343718
v 0.186551 0.312200 -0.789850 0.749020 0.749020 0.749020
vn -2.230354 2.533329 -1.241343
v 0.134250 0.551900 -0.882350 0.749020 0.749020 0.749020
vn 2.230353 2.533329 -1.241343
v 0.186551 0.551900 -0.882350 0.749020 0.749020 0.749020
vn 1.570796 1.570796 1.570796
v -0.134250 0.551900 -0.789850 0.749020 0.749020 0.749020
vn -1.570796 1.570796 1.570796
v -0.186550 0.551900 -0.789850 0.749020 0.749020 0.749020
vn 1.570796 1.570796 4.712389
v -0.134250 0.407200 -0.789850 0.749020 0.749020 0.749020
vn -2.085248 -1.367477 2.343718
v -0.186550 0.312200 -0.789850 0.749020 0.749020 0.749020
vn 2.230354 2.533329 -1.241343
v -0.134250 0.551900 -0.882350 0.749020 0.749020 0.749020
vn -2.230353 2.533329 -1.241343
v -0.186550 0.551900 -0.882350 0.749020 0.749020 0.749020
vn 2.178169 5.044154 -1.582459
v 0.540150 -1.164100 -1.337750 0.749020 0.749020 0.749020
vn 0.831997 5.044420 -2.560381
v 0.206350 -1.164100 -1.580250 0.749020 0.749020 0.749020
vn 0.000054 6.201022 0.000053
v 0.000050 -1.089800 -0.945250 0.749020 0.749020 0.749020
vn 2.692597 5.043908 0.000182
v 0.667651 -1.164100 -0.945250 0.749020 0.749020 0.749020
vn 2.178177 5.044149 1.582514
v 0.540150 -1.164100 -0.552850 0.749020 0.749020 0.749020
vn 0.832022 5.044408 2.560419
v 0.206350 -1.164100 -0.310350 0.749020 0.749020 0.749020
vn -0.832013 5.044415 2.560405
v -0.206350 -1.164100 -0.310350 0.749020 0.749020 0.749020
vn -2.178098 5.044196 1.582532
v -0.540150 -1.164100 -0.552850 0.749020 0.749020 0.749020
vn -2.692545 5.043931 0.000039
v -0.667650 -1.164100 -0.945250 0.749020 0.749020 0.749020
vn -2.178200 5.044106 -1.582406
v -0.540150 -1.164100 -1.337750 0.749020 0.749020 0.749020
vn -0.832011 5.044415 -2.560366
v -0.206350 -1.164100 -1.580250 0.749020 0.749020 0.749020
vn -1.658663 0.994758 3.416601
v -0.198050 0.473600 -0.810850 0.749020 0.749020 0.749020
vn -3.853515 1.096832 0.000382
v -0.223150 0.481200 -0.854150 0.749020 0.749020 0.749020
vn -1.784696 -2.646867 1.880543
v -0.198050 0.422700 -0.827450 0.749020 0.749020 0.749020
vn -1.406923 4.018052 0.007445
v -0.198050 0.505100 -0.854150 0.749020 0.749020 0.749020
vn -1.674919 0.993088 -3.425908
v -0.198050 0.473600 -0.897450 0.749020 0.749020 0.749020
vn -1.783169 -2.642909 -1.881370
v -0.198050 0.422700 -0.880950 0.749020 0.749020 0.749020
vn 1.728362 -2.563700 1.961465
v 0.198150 0.422700 -0.827450 0.749020 0.749020 0.749020
vn 4.814307 0.168837 -0.097317
v 0.219450 0.462700 -0.857250 0.749020 0.749020 0.749020
vn 1.811453 1.142140 3.261702
v 0.198150 0.473600 -0.813950 0.749020 0.749020 0.749020
vn 1.702740 3.361428 -0.060238
v 0.198150 0.505100 -0.857250 0.749020 0.749020 0.749020
vn 1.757415 1.008568 -3.324706
v 0.198150 0.473600 -0.897450 0.749020 0.749020 0.749020
vn 1.751348 -2.715805 -1.953283
v 0.198150 0.422700 -0.880950 0.749020 0.749020 0.749020
vn -1.540835 -2.087582 -0.654961
v 0.088951 0.407600 -0.905050 0.749020 0.749020 0.749020
vn -2.067160 -1.381233 0.748062
v 0.088951 0.496800 -0.740350 0.749020 0.749020 0.749020
vn -1.829523 0.469257 -2.444825
v 0.088951 0.480100 -0.941550 0.749020 0.749020 0.749020
vn -0.845668 1.175606 -1.041802
v 0.088951 0.658400 -0.740350 0.749020 0.749020 0.749020
vn 3.362198 -3.111498 -0.673648
v 0.134250 0.496800 -0.740350 0.749020 0.749020 0.749020
vn 1.829523 0.469257 -2.444825
v 0.134250 0.480100 -0.941550 0.749020 0.749020 0.749020
vn 1.540835 -2.087582 -0.654961
v 0.134250 0.407600 -0.905050 0.749020 0.749020 0.749020
vn -1.540835 -2.087581 -0.654961
v -0.134250 0.407600 -0.905050 0.749020 0.749020 0.749020
vn -3.362198 -3.111498 -0.673647
v -0.134250 0.496800 -0.740350 0.749020 0.749020 0.749020
vn -1.829523 0.469257 -2.444825
v -0.134250 0.480100 -0.941550 0.749020 0.749020 0.749020
vn 0.845668 1.175606 -1.041802
v -0.088950 0.658400 -0.740350 0.749020 0.749020 0.749020
vn 2.067160 -1.381233 0.748062
v -0.088950 0.496800 -0.740350 0.749020 0.749020 0.749020
vn 1.829523 0.469257 -2.444825
v -0.088950 0.480100 -0.941550 0.749020 0.749020 0.749020
vn 1.540835 -2.087582 -0.654961
v -0.088950 0.407600 -0.905050 0.749020 0.749020 0.749020
vn -1.820119 -1.522227 0.387590
v -0.514450 1.118500 1.701950 0.749020 0.749020 0.749020
vn -3.090389 -2.829979 0.319344
v -0.514450 0.927000 0.949850 0.749020 0.749020 0.749020
vn 1.820119 -1.523325 0.387881
v 0.514451 1.118500 1.701950 0.749020 0.749020 0.749020
vn 3.090563 -2.831876 0.319684
v 0.514451 0.927000 0.949850 0.749020 0.749020 0.749020
# 209 vertices, 0 vertices normals


usemtl material_0
vt 0.052800 0.265600
vt 0.048400 0.258300
vt 0.048400 0.263200
f 1/1/1 2/2/2 3/3/3
vt 0.052800 0.255900
f 4/4/4 2/2/2 1/1/1
vt 0.057100 0.258300
f 4/4/4 1/1/1 5/5/5
vt 0.057100 0.263200
f 5/5/5 1/1/1 6/6/6
vt 0.136500 0.336400
vt 0.139900 0.338900
vt 0.140300 0.337400
f 7/7/7 8/8/8 9/9/9
vt 0.135700 0.338400
f 10/10/10 8/8/8 7/7/7
vt 0.134600 0.336900
f 7/7/7 11/11/11 10/10/10
vt 0.136500 0.323700
f 7/7/7 12/12/12 11/11/11
vt 0.134600 0.323200
f 11/11/11 12/12/12 13/13/13
vt 0.133100 0.336900
f 11/11/11 13/13/13 14/14/14
vt 0.133100 0.323200
f 14/14/14 13/13/13 15/15/15
vt 0.131200 0.336400
f 14/14/14 15/15/15 7/16/7
vt 0.131200 0.323700
f 7/16/7 15/15/15 12/17/12
vt 0.132100 0.321800
f 12/17/12 15/15/15 16/18/16
vt 0.127800 0.321300
f 16/18/16 17/19/17 12/17/12
vt 0.127600 0.323200
f 12/17/12 17/19/17 18/20/18
vt 0.134600 0.321800
vt 0.133100 0.321800
f 19/21/19 16/22/16 13/13/13
f 13/13/13 16/22/16 15/15/15
vt 0.127600 0.337400
vt 0.127800 0.338900
f 9/23/9 20/24/20 7/16/7
vt 0.132100 0.338400
f 7/16/7 20/24/20 21/25/21
f 7/16/7 21/25/21 14/14/14
vt 0.134600 0.338900
f 11/11/11 14/14/14 10/26/10
vt 0.133100 0.338900
f 10/26/10 14/14/14 21/27/21
vt 0.174600 0.250500
vt 0.170200 0.253400
vt 0.174600 0.253400
f 22/28/22 23/29/23 24/30/24
vt 0.170200 0.250500
f 25/31/25 23/29/23 22/28/22
vt 0.174600 0.247100
f 22/28/22 26/32/26 25/31/25
vt 0.170200 0.247100
f 25/31/25 26/32/26 27/33/27
vt 0.157600 0.187000
vt 0.197100 0.168000
vt 0.161100 0.168000
f 28/34/28 29/35/29 30/36/30
vt 0.157600 0.101600
f 30/36/30 31/37/31 28/34/28
vt 0.161100 0.101600
f 32/38/32 31/37/31 30/36/30
vt 0.197100 0.101600
vt 0.200700 0.101600
f 33/39/33 29/35/29 34/40/34
vt 0.200600 0.187000
f 34/40/34 29/35/29 35/41/35
f 35/41/35 29/35/29 28/34/28
vt 0.174600 0.238800
f 36/42/36 35/41/35 28/34/28
f 36/42/36 28/34/28 26/32/26
f 26/32/26 28/34/28 27/33/27
vt 0.183500 0.247100
vt 0.187900 0.247100
f 37/43/37 38/44/38 35/41/35
vt 0.183500 0.238800
f 39/45/39 37/43/37 35/41/35
f 39/45/39 35/41/35 36/42/36
f 40/32/40 41/42/41 42/33/42
f 41/42/41 43/34/43 42/33/42
f 43/34/43 41/42/41 44/41/44
f 44/41/44 41/42/41 45/45/45
f 45/45/45 23/44/23 44/41/44
f 24/43/24 23/44/23 45/45/45
f 46/35/46 47/40/47 48/39/48
f 44/41/44 47/40/47 46/35/46
f 46/35/46 43/34/43 44/41/44
f 49/36/49 43/34/43 46/35/46
f 43/34/43 49/36/49 50/37/50
f 50/37/50 49/36/49 51/38/51
vt 0.117900 0.015600
vt 0.111300 0.015600
vt 0.111300 0.018600
f 52/46/52 53/47/53 54/48/54
vt 0.117900 0.025900
f 54/48/54 55/49/55 52/46/52
vt 0.111300 0.022500
f 56/50/56 55/49/55 54/48/54
vt 0.111300 0.025900
f 57/51/57 55/49/55 56/50/56
vt 0.087900 0.036100
vt 0.003700 0.025900
vt 0.003700 0.036100
f 55/52/55 58/53/58 59/54/59
vt 0.087900 0.025900
f 60/55/60 58/53/58 55/52/55
vt 0.093300 0.039600
f 60/55/60 55/52/55 57/56/57
vt 0.098700 0.034200
f 60/55/60 57/56/57 61/57/61
vt 0.097800 0.038600
f 61/57/61 57/56/57 62/58/62
f 63/17/63 64/19/64 65/20/65
f 66/18/66 64/19/64 63/17/63
f 63/17/63 67/15/67 66/18/66
f 63/17/63 68/16/68 67/15/67
f 67/15/67 68/16/68 69/14/69
f 67/15/67 69/14/69 70/13/70
f 70/13/70 69/14/69 71/11/71
f 70/13/70 71/11/71 63/12/63
f 63/12/63 71/11/71 68/7/68
f 68/7/68 71/11/71 72/10/72
f 72/10/72 73/8/73 68/7/68
f 68/7/68 73/8/73 74/9/74
f 75/27/75 72/26/72 69/14/69
f 69/14/69 72/26/72 71/11/71
vt 0.140300 0.323200
vt 0.139900 0.321300
f 65/59/65 76/60/76 63/12/63
vt 0.135700 0.321800
f 63/12/63 76/60/76 77/61/77
f 63/12/63 77/61/77 70/13/70
f 67/15/67 70/13/70 66/22/66
f 66/22/66 70/13/70 77/21/77
vt 0.135500 0.320300
f 77/61/77 76/60/76 66/62/66
vt 0.139600 0.319800
f 66/62/66 76/60/76 64/63/64
vt 0.045500 0.314900
vt 0.048300 0.338900
vt 0.048300 0.314900
f 78/64/78 79/65/79 80/66/80
vt 0.045500 0.338900
f 81/67/81 79/65/79 78/64/78
vt 0.042700 0.314900
f 82/68/82 81/67/81 78/64/78
vt 0.042700 0.338900
f 83/69/83 81/67/81 82/68/82
vt 0.039900 0.314900
f 84/70/84 83/69/83 82/68/82
vt 0.039900 0.338900
f 85/71/85 83/69/83 84/70/84
vt 0.037100 0.314900
f 80/72/80 85/71/85 84/70/84
vt 0.037100 0.338900
f 79/73/79 85/71/85 80/72/80
vt 0.123200 0.305700
vt 0.123200 0.318400
vt 0.126200 0.318400
f 86/74/86 87/75/87 88/76/88
vt 0.145100 0.305700
f 88/76/88 89/77/89 86/74/86
vt 0.142100 0.318400
f 90/78/90 89/77/89 88/76/88
vt 0.145100 0.318400
f 90/78/90 91/79/91 89/77/89
vt 0.194800 0.419900
vt 0.142800 0.459500
vt 0.194800 0.459500
f 92/80/92 93/81/93 94/82/94
vt 0.142800 0.420400
f 95/83/95 93/81/93 92/80/92
vt 0.162000 0.332000
f 92/80/92 96/84/96 95/83/95
vt 0.175500 0.332000
f 97/85/97 96/84/96 92/80/92
vt 0.088200 0.157700
vt 0.093200 0.157700
vt 0.088200 0.132800
f 98/86/98 99/87/99 2/88/2
vt 0.093200 0.132800
f 2/88/2 99/87/99 3/89/3
vt 0.098300 0.157700
f 99/87/99 100/90/100 3/89/3
vt 0.098300 0.132800
f 3/89/3 100/90/100 1/91/1
vt 0.103300 0.157700
f 100/90/100 101/92/101 1/91/1
vt 0.103300 0.132800
f 1/91/1 101/92/101 6/93/6
vt 0.108300 0.157700
f 101/92/101 102/94/102 6/93/6
vt 0.108300 0.132800
f 6/93/6 102/94/102 5/95/5
vt 0.113300 0.157700
f 102/94/102 103/96/103 5/95/5
vt 0.113300 0.132800
f 5/95/5 103/96/103 4/97/4
vt 0.083200 0.157700
vt 0.083200 0.132800
f 103/98/103 98/86/98 4/99/4
f 4/99/4 98/86/98 2/88/2
f 19/61/19 104/60/104 16/62/16
f 16/62/16 104/60/104 17/63/17
f 18/59/18 104/60/104 12/12/12
f 12/12/12 104/60/104 19/61/19
f 12/12/12 19/61/19 13/13/13
vt 0.135500 0.339800
vt 0.139600 0.340800
f 21/100/21 20/101/20 10/10/10
f 10/10/10 20/101/20 8/8/8
vt 0.054200 0.159200
vt 0.055600 0.167500
vt 0.059800 0.159200
f 36/102/36 26/103/26 45/104/45
vt 0.058400 0.168900
f 26/103/26 22/105/22 45/104/45
vt 0.061200 0.167500
f 45/104/45 22/105/22 24/106/24
vt 0.259300 0.391600
vt 0.271700 0.457000
vt 0.265400 0.391600
f 32/107/32 30/108/30 48/109/48
vt 0.277300 0.457000
f 48/109/48 30/108/30 46/110/46
vt 0.141100 0.103000
vt 0.135400 0.105500
f 31/111/31 47/112/47 28/34/28
vt 0.152300 0.189500
f 28/34/28 47/112/47 44/113/44
f 28/34/28 44/113/44 27/33/27
vt 0.164900 0.249000
f 27/33/27 44/113/44 23/114/23
vt 0.168100 0.249000
f 27/33/27 23/114/23 25/115/25
vt 0.187900 0.250500
f 37/43/37 105/116/105 38/44/38
vt 0.183500 0.250500
f 106/117/106 105/116/105 37/43/37
vt 0.187900 0.253400
f 105/116/105 106/117/106 42/118/42
vt 0.183500 0.253400
f 42/118/42 106/117/106 40/119/40
vt 0.054200 0.149900
vt 0.059800 0.149900
vt 0.055700 0.141100
f 39/120/39 41/121/41 37/122/37
vt 0.058500 0.139600
f 37/122/37 41/121/41 106/123/106
vt 0.061200 0.141100
f 41/121/41 40/124/40 106/123/106
f 41/121/41 39/120/39 45/104/45
f 45/104/45 39/120/39 36/102/36
vt 0.259300 0.559100
vt 0.265400 0.559100
vt 0.271700 0.493200
f 33/125/33 51/126/51 29/127/29
vt 0.277300 0.493200
f 29/127/29 51/126/51 49/128/49
f 29/127/29 49/128/49 30/108/30
f 30/108/30 49/128/49 46/110/46
vt 0.217300 0.103000
vt 0.222900 0.105500
f 34/129/34 35/41/35 50/130/50
vt 0.205800 0.189500
f 50/130/50 35/41/35 43/131/43
f 38/44/38 43/131/43 35/41/35
vt 0.193100 0.249000
f 42/132/42 43/131/43 38/44/38
vt 0.190100 0.249000
f 38/44/38 105/133/105 42/132/42
vt 0.035300 0.269500
vt 0.040600 0.267600
vt 0.043900 0.263200
f 107/134/107 108/135/108 109/136/109
vt 0.043900 0.257800
vt 0.040600 0.252900
f 110/137/110 111/138/111 109/136/109
vt 0.030000 0.252900
f 109/136/109 111/138/111 112/139/112
vt 0.026800 0.257800
f 112/139/112 113/140/113 109/136/109
vt 0.026800 0.263200
f 109/136/109 113/140/113 114/141/114
f 109/136/109 114/141/114 107/134/107
vt 0.030000 0.267600
f 107/134/107 114/141/114 115/142/115
vt 0.035300 0.251500
f 112/139/112 111/138/111 116/143/116
vt 0.088300 0.388700
vt 0.091700 0.388700
vt 0.088400 0.284700
f 117/144/117 118/145/118 119/146/119
vt 0.091700 0.284700
f 119/146/119 118/145/118 120/147/120
vt 0.095000 0.388700
f 118/145/118 121/148/121 120/147/120
vt 0.095000 0.284700
f 120/147/120 121/148/121 122/149/122
vt 0.098300 0.388700
f 121/148/121 123/150/123 122/149/122
vt 0.098300 0.284700
f 122/149/122 123/150/123 124/151/124
vt 0.101600 0.388700
f 123/150/123 125/152/125 124/151/124
vt 0.101700 0.284700
f 124/151/124 125/152/125 126/153/126
vt 0.105000 0.388700
f 125/152/125 127/154/127 126/153/126
vt 0.105000 0.284700
f 126/153/126 127/154/127 128/155/128
vt 0.108300 0.388700
f 127/154/127 117/156/117 128/155/128
vt 0.108300 0.284700
f 128/155/128 117/156/117 119/157/119
vt 0.087900 0.015600
vt 0.003700 0.015600
f 129/158/129 130/159/130 60/55/60
f 60/55/60 130/159/130 58/53/58
vt 0.087900 0.045900
f 55/52/55 59/54/59 52/160/52
vt 0.003700 0.045900
f 52/160/52 59/54/59 131/161/131
vt 0.065700 0.258300
vt 0.065700 0.265100
vt 0.069200 0.262200
f 132/162/132 54/163/54 133/164/133
vt 0.068400 0.264600
f 133/164/133 54/163/54 134/165/134
vt 0.060700 0.264600
vt 0.063400 0.265100
vt 0.059800 0.262200
f 135/166/135 56/167/56 136/168/136
vt 0.063400 0.258300
f 136/168/136 56/167/56 137/169/137
vt 0.087900 0.005400
vt 0.003700 0.005400
f 130/159/130 52/170/52 131/171/131
f 129/158/129 52/170/52 130/159/130
vt 0.093100 0.001500
f 53/172/53 52/170/52 129/158/129
vt 0.098400 0.006800
f 138/173/138 53/172/53 129/158/129
vt 0.097500 0.002400
f 139/174/139 53/172/53 138/173/138
f 137/169/137 56/167/56 132/162/132
f 132/162/132 56/167/56 54/163/54
vt 0.106600 0.018600
f 54/48/54 53/47/53 134/175/134
vt 0.106600 0.015600
f 134/175/134 53/47/53 139/176/139
vt 0.102000 0.015600
f 139/176/139 138/177/138 134/175/134
vt 0.102000 0.018600
f 134/175/134 138/177/138 133/178/133
vt 0.102000 0.022500
vt 0.093600 0.022500
vt 0.102000 0.025900
f 136/179/136 137/180/137 61/181/61
f 61/181/61 137/180/137 60/55/60
f 137/180/137 129/158/129 60/55/60
vt 0.093600 0.018600
f 132/182/132 129/158/129 137/180/137
f 132/182/132 138/177/138 129/158/129
f 133/178/133 138/177/138 132/182/132
vt 0.106600 0.025900
vt 0.106600 0.022500
f 62/183/62 57/51/57 135/184/135
f 135/184/135 57/51/57 56/50/56
f 61/181/61 62/183/62 136/179/136
f 136/179/136 62/183/62 135/184/135
f 75/100/75 140/101/140 72/10/72
f 72/10/72 140/101/140 73/8/73
f 74/23/74 140/24/140 68/16/68
f 68/16/68 140/24/140 75/25/75
f 68/16/68 75/25/75 69/14/69
vt 0.039900 0.341300
f 85/71/85 79/185/79 83/69/83
vt 0.042600 0.341800
f 83/69/83 79/185/79 81/186/81
vt 0.042700 0.312000
f 82/68/82 78/187/78 84/70/84
vt 0.039900 0.312000
f 84/70/84 78/187/78 80/188/80
vt 0.038900 0.347200
vt 0.038900 0.362800
vt 0.042300 0.349600
f 141/189/141 142/190/142 143/191/143
vt 0.042300 0.360400
f 143/191/143 142/190/142 144/192/144
vt 0.043600 0.360400
f 144/192/144 145/193/145 143/191/143
vt 0.043600 0.349600
f 143/191/143 145/193/145 146/194/146
vt 0.047000 0.362800
f 145/193/145 147/195/147 146/194/146
vt 0.047000 0.347200
f 146/194/146 147/195/147 148/196/148
vt 0.042300 0.345700
vt 0.043600 0.345700
f 141/197/141 143/191/143 148/198/148
f 148/198/148 143/191/143 146/194/146
vt 0.042300 0.364300
f 144/192/144 142/199/142 145/193/145
vt 0.043600 0.364300
f 145/193/145 142/199/142 147/200/147
f 149/195/149 150/196/150 151/193/151
f 151/193/151 150/196/150 152/194/152
f 152/194/152 153/191/153 151/193/151
f 151/193/151 153/191/153 154/192/154
f 153/191/153 155/189/155 154/192/154
f 154/192/154 155/189/155 156/190/156
f 149/200/149 151/193/151 156/199/156
f 156/199/156 151/193/151 154/192/154
f 152/194/152 150/198/150 153/191/153
f 153/191/153 150/198/150 155/197/155
vt 0.142100 0.334500
vt 0.142100 0.342800
vt 0.145100 0.334500
f 157/201/157 158/202/158 159/203/159
vt 0.145100 0.348600
f 159/203/159 158/202/158 160/204/160
vt 0.142100 0.329100
vt 0.145100 0.329100
f 161/205/161 162/206/162 90/78/90
f 90/78/90 162/206/162 91/79/91
vt 0.049400 0.295900
vt 0.049400 0.290500
vt 0.040800 0.295900
f 157/207/157 161/208/161 158/209/158
vt 0.040800 0.284200
f 158/209/158 161/208/161 90/210/90
vt 0.126200 0.334500
vt 0.123200 0.334500
vt 0.126200 0.342800
f 163/211/163 164/212/164 165/213/165
vt 0.123200 0.348600
f 165/213/165 164/212/164 166/214/166
vt 0.024900 0.284200
vt 0.016300 0.290500
vt 0.024900 0.295900
f 88/215/88 167/216/167 165/217/165
vt 0.016300 0.295900
f 165/217/165 167/216/167 163/218/163
vt 0.123200 0.329100
vt 0.126200 0.329100
f 168/219/168 167/220/167 87/75/87
f 87/75/87 167/220/167 88/76/88
vt 0.123200 0.292000
vt 0.145100 0.292000
f 166/221/166 86/74/86 160/222/160
f 160/222/160 86/74/86 89/77/89
f 165/213/165 166/214/166 158/202/158
f 158/202/158 166/214/166 160/204/160
f 90/210/90 88/215/88 158/209/158
f 158/209/158 88/215/88 165/217/165
f 159/203/159 162/206/162 157/201/157
f 157/201/157 162/206/162 161/205/161
vt 0.111100 0.312500
f 86/74/86 166/223/166 87/75/87
vt 0.111100 0.326700
f 166/223/166 164/224/164 87/75/87
vt 0.116600 0.326700
f 87/75/87 164/224/164 168/225/168
vt 0.151700 0.326700
vt 0.157200 0.326700
f 162/226/162 159/227/159 91/79/91
vt 0.157200 0.312500
f 91/79/91 159/227/159 160/228/160
f 91/79/91 160/228/160 89/77/89
vt 0.099400 0.218300
vt 0.087900 0.233900
vt 0.118000 0.243700
f 169/229/169 170/230/170 171/231/171
vt 0.118000 0.211900
f 172/232/172 169/229/169 171/231/171
vt 0.136600 0.218300
f 173/233/173 172/232/172 171/231/171
vt 0.148100 0.233900
f 174/234/174 173/233/173 171/231/171
vt 0.148100 0.253400
f 175/235/175 174/234/174 171/231/171
vt 0.136500 0.269500
f 176/236/176 175/235/175 171/231/171
vt 0.117900 0.275400
f 177/237/177 176/236/176 171/231/171
vt 0.099400 0.269000
f 178/238/178 177/237/177 171/231/171
vt 0.087800 0.253400
f 179/239/179 178/238/178 171/231/171
f 170/230/170 179/239/179 171/231/171
vt 0.141500 0.275900
vt 0.156000 0.255900
f 115/240/115 114/241/114 176/236/176
f 177/237/177 115/240/115 176/236/176
vt 0.118000 0.283700
f 107/242/107 115/240/115 177/237/177
f 178/238/178 107/242/107 177/237/177
vt 0.094400 0.275900
f 108/243/108 107/242/107 178/238/178
f 179/239/179 108/243/108 178/238/178
vt 0.079900 0.255900
f 109/244/109 108/243/108 179/239/179
f 170/230/170 109/244/109 179/239/179
vt 0.079900 0.231400
f 110/245/110 109/244/109 170/230/170
f 169/229/169 110/245/110 170/230/170
vt 0.094400 0.211400
f 111/246/111 110/245/110 169/229/169
f 172/232/172 111/246/111 169/229/169
vt 0.117900 0.203600
f 116/247/116 111/246/111 172/232/172
f 173/233/173 116/247/116 172/232/172
vt 0.141500 0.211400
f 112/248/112 116/247/116 173/233/173
f 174/234/174 112/248/112 173/233/173
vt 0.156000 0.231400
f 113/249/113 112/248/112 174/234/174
f 175/235/175 113/249/113 174/234/174
f 114/241/114 113/249/113 175/235/175
f 176/236/176 114/241/114 175/235/175
f 168/219/168 164/212/164 167/220/167
f 167/220/167 164/212/164 163/211/163
vt 0.132100 0.404300
vt 0.132100 0.402300
vt 0.130000 0.402800
f 180/250/180 181/251/181 182/252/182
vt 0.134200 0.402800
f 183/253/183 181/251/181 180/250/180
vt 0.133500 0.400400
f 184/254/184 181/251/181 183/253/183
vt 0.130700 0.400400
f 185/255/185 181/251/181 184/254/184
f 182/252/182 181/251/181 185/255/185
f 186/253/186 187/251/187 188/250/188
f 188/250/188 187/251/187 189/252/189
f 189/252/189 187/251/187 190/255/190
f 190/255/190 187/251/187 191/254/191
f 191/254/191 187/251/187 186/253/186
vt 0.122400 0.378400
vt 0.122400 0.399400
vt 0.125200 0.378400
f 186/256/186 182/257/182 191/258/191
vt 0.125200 0.399400
f 191/258/191 182/257/182 185/259/185
vt 0.128100 0.378400
f 191/258/191 185/259/185 190/260/190
vt 0.128100 0.399400
f 190/260/190 185/259/185 184/261/184
vt 0.131000 0.378400
f 190/260/190 184/261/184 189/262/189
vt 0.131000 0.399400
f 189/262/189 184/261/184 183/263/183
vt 0.133800 0.378400
f 189/262/189 183/263/183 188/264/188
vt 0.133800 0.399400
f 188/264/188 183/263/183 180/265/180
vt 0.136700 0.378400
f 188/264/188 180/265/180 186/266/186
vt 0.136700 0.399400
f 186/266/186 180/265/180 182/267/182
vt 0.128500 0.365200
vt 0.139300 0.367700
vt 0.129800 0.360400
f 192/268/192 193/269/193 194/270/194
vt 0.145500 0.360400
f 194/270/194 193/269/193 195/271/195
vt 0.145500 0.357900
vt 0.139200 0.351100
vt 0.129800 0.357900
f 97/272/97 196/273/196 197/274/197
vt 0.128400 0.353500
f 197/274/197 196/273/196 198/275/198
vt 0.125000 0.360400
vt 0.125000 0.357900
f 192/276/192 194/270/194 198/277/198
f 198/277/198 194/270/194 197/274/197
vt 0.114100 0.360400
vt 0.114100 0.357900
f 193/278/193 192/276/192 196/279/196
f 196/279/196 192/276/192 198/277/198
f 194/270/194 195/271/195 197/274/197
f 197/274/197 195/271/195 97/272/97
f 199/275/199 200/273/200 201/274/201
f 201/274/201 200/273/200 96/272/96
f 202/271/202 203/269/203 204/270/204
f 204/270/204 203/269/203 205/268/205
f 199/277/199 201/274/201 205/276/205
f 205/276/205 201/274/201 204/270/204
f 200/279/200 199/277/199 203/278/203
f 203/278/203 199/277/199 205/276/205
f 201/274/201 96/272/96 204/270/204
f 204/270/204 96/272/96 202/271/202
vt 0.135300 0.458500
vt 0.127700 0.455100
f 93/280/93 95/83/95 206/281/206
vt 0.135700 0.416500
f 206/281/206 95/83/95 207/282/207
f 95/83/95 96/84/96 207/282/207
vt 0.154700 0.328600
f 207/282/207 96/84/96 200/283/200
vt 0.265400 0.430700
vt 0.249300 0.395000
vt 0.218100 0.452100
f 206/284/206 207/285/207 208/286/208
vt 0.201900 0.416500
f 208/286/208 207/285/207 209/287/209
vt 0.195300 0.322800
f 207/285/207 200/288/200 209/287/209
vt 0.182900 0.328600
f 209/287/209 200/288/200 196/289/196
vt 0.202400 0.458500
vt 0.210000 0.455100
f 94/290/94 208/291/208 92/80/92
f 92/80/92 208/291/208 209/287/209
f 92/80/92 209/287/209 97/85/97
f 97/85/97 209/287/209 196/289/196
vt 0.175500 0.323700
vt 0.162000 0.323700
f 196/292/196 200/293/200 97/85/97
f 97/85/97 200/293/200 96/84/96
# 334 faces, 293 coords texture

# End of File