####
#
# OBJ File Generated by Meshlab
#
####
# Object fringe2.obj
#
# Vertices: 336
# Faces: 448
#
####
mtllib ./fringe2.obj.mtl

vn 0.671335 -0.132576 0.729200
v 5.443692 -1.646481 -2.481921
vn 0.671335 -0.132576 0.729200
v 5.468916 -3.950954 -2.984893
vn 0.671335 -0.132576 0.729200
v 5.336551 -2.240594 -3.350009
vn 0.671335 -0.132576 0.729200
v 5.090695 -1.473067 -3.081865
vn 0.671335 -0.132576 0.729200
v 5.564967 -2.577543 -2.936290
vn 0.671335 -0.132576 0.729200
v 5.262665 -1.962658 -3.625583
vn 0.671335 -0.132576 0.729200
v 5.071162 -1.838754 -3.919822
vn 0.671335 -0.132576 0.729200
v 5.170960 -2.452248 -4.189606
vn 0.671335 -0.132576 0.729200
v 5.262665 -1.962658 -3.625583
vn 0.671335 -0.132576 0.729200
v -5.443692 -1.646482 -2.481920
vn 0.671335 -0.132576 0.729200
v -5.468916 -3.950954 -2.984891
vn 0.671335 -0.132576 0.729200
v -5.564967 -2.577543 -2.936288
vn 0.671335 -0.132576 0.729200
v -5.336552 -2.240594 -3.350008
vn 0.671335 -0.132576 0.729200
v -5.170960 -2.452248 -4.189605
vn 0.671335 -0.132576 0.729200
v -5.262665 -1.962658 -3.625582
vn 0.671335 -0.132576 0.729200
v -5.090695 -1.473068 -3.081864
vn 0.671335 -0.132576 0.729200
v -5.262665 -1.962658 -3.625582
vn 0.671335 -0.132576 0.729200
v -5.071163 -1.838754 -3.919821
vn 0.779131 0.626023 0.032409
v 3.505207 2.279454 -1.277998
vn 0.774062 0.632902 0.016228
v 3.597093 2.185577 -1.999631
vn 0.778246 0.627679 0.018774
v 3.687018 2.075484 -1.995276
vn 0.783172 0.620264 0.043755
v 3.632777 2.119665 -1.275190
vn -0.778987 0.626144 0.033527
v -3.632312 2.119647 -1.272942
vn -0.773984 0.632884 0.020147
v -3.693262 2.067805 -1.985942
vn -0.778075 0.627872 0.019396
v -3.590847 2.193192 -1.990286
vn -0.783184 0.620299 0.043036
v -3.501882 2.283028 -1.275719
vn 0.648093 0.758090 0.072633
v 3.386738 2.352634 -0.348522
vn 0.782870 0.619362 0.059197
v 3.517660 2.184685 -0.347961
vn -0.779892 0.610553 0.137816
v -3.517628 2.184687 -0.347951
vn -0.639710 0.758302 0.125497
v -3.386707 2.352634 -0.348507
vn -0.822941 0.513466 0.243147
v -4.169462 1.100888 0.420297
vn -0.850158 0.513269 0.117416
v -4.322444 1.156169 -0.344065
vn -0.683613 0.687783 0.244186
v -3.261133 2.262978 0.425170
vn 0.772436 0.603904 0.196576
v 3.517660 2.184685 -0.347961
vn 0.692845 0.681096 0.236799
v 3.261162 2.262981 0.425170
vn 0.857498 0.490577 0.155021
v 4.322477 1.156167 -0.344064
vn 0.825804 0.506140 0.248736
v 4.169494 1.100888 0.420298
vn -0.851653 0.520071 0.064914
v -4.446377 1.101593 -1.279896
vn -0.781943 0.621460 0.048503
v -3.644006 2.103702 -1.294611
vn 0.777653 0.627544 0.038004
v 3.649163 2.097579 -1.294619
vn 0.852980 0.516648 0.074162
v 4.446598 1.101447 -1.279894
vn -0.850926 0.522141 0.057389
v -4.538717 1.035946 -2.051775
vn -0.776496 0.629409 0.029961
v -3.765395 1.979546 -2.074627
vn 0.773046 0.634058 0.019215
v 3.784395 1.956343 -2.074634
vn 0.852219 0.520378 0.054129
v 4.538745 1.035942 -2.051774
vn -0.160953 0.984606 -0.068154
v -1.158975 3.697983 -1.263889
vn -0.158112 0.984989 -0.069257
v -1.174408 3.644096 -1.995045
vn -0.160259 0.984633 -0.069394
v -1.105174 3.655161 -1.995744
vn -0.163523 0.984240 -0.067314
v -1.069262 3.712699 -1.264465
vn -0.164814 0.986308 0.005794
v -1.122525 3.766014 -0.344141
vn -0.167064 0.982839 0.078216
v -1.017729 3.783669 -0.344507
vn -0.392735 0.896523 0.204953
v -1.068269 3.645146 0.432927
vn -0.156145 0.973832 0.165135
v -0.964254 3.663244 0.432697
vn 0.160585 0.984432 -0.071461
v 1.070562 3.718587 -1.264339
vn 0.157893 0.984379 -0.077900
v 1.104684 3.655240 -1.995658
vn 0.159854 0.984089 -0.077564
v 1.184283 3.642518 -1.995081
vn 0.163253 0.984362 -0.066177
v 1.161094 3.703758 -1.263834
vn 0.163883 0.984531 -0.061968
v 1.022926 3.784624 -0.344464
vn 0.166942 0.982609 0.081300
v 1.122323 3.767891 -0.344120
vn 0.158093 0.962658 0.219764
v 0.970507 3.662169 0.432708
vn 0.163202 0.972818 0.164290
v 1.022926 3.784624 -0.344464
vn 0.397629 0.887208 0.233993
v 1.068300 3.645147 0.432927
vn 0.020695 0.953351 0.301153
v 0.000007 3.661198 1.026033
vn 0.035936 0.979730 0.197072
v 0.000007 3.818689 0.436603
vn 0.310798 0.893023 0.325445
v 1.003168 3.496701 1.017145
vn 0.005590 0.999073 0.042674
v 0.000038 3.950954 -0.355466
vn 0.155543 0.973898 0.165317
v 1.014155 3.791078 -0.354923
vn -0.006801 0.997128 -0.075426
v 0.000178 3.892686 -1.327512
vn 0.151988 0.986210 -0.065489
v 1.024338 3.737232 -1.321970
vn 0.155534 0.986392 -0.053285
v 1.014155 3.791078 -0.354923
vn -0.050360 0.994053 -0.096549
v 0.000378 3.811726 -2.129145
vn 0.145439 0.984930 -0.093602
v 1.005212 3.669043 -2.119182
vn -0.157127 0.953260 0.258081
v -0.964254 3.663244 0.432697
vn -0.293879 0.903476 0.312036
v -1.003139 3.496700 1.017144
vn -0.153726 0.988073 0.008893
v -1.007074 3.792242 -0.354943
vn -0.147192 0.985986 -0.078519
v -1.016019 3.738523 -1.322021
vn -0.140898 0.986106 -0.087995
v -0.995993 3.670242 -2.119269
vn -0.534249 0.294896 0.792221
v -3.252009 -1.043426 3.425916
vn -0.518968 0.356946 0.776699
v -2.674247 -0.103470 3.459569
vn -0.493088 0.302468 0.815707
v -1.824925 -0.601546 4.163075
vn -0.506260 0.267082 0.819980
v -2.279976 -1.392802 4.139852
vn -0.411321 0.458336 0.787872
v -1.915345 0.707096 3.498279
vn -0.408432 0.434970 0.802487
v -1.231864 0.092133 4.189606
vn -0.268092 0.499967 0.823504
v -1.092753 1.267136 3.530555
vn -0.231261 0.521026 0.821615
v -0.600070 0.519811 4.084154
vn -0.177143 0.504913 0.844798
v -0.385290 1.546751 3.515635
vn -0.090877 0.490315 0.866794
v -0.117853 0.627112 3.996202
vn -0.019503 0.517848 0.855250
v 0.000009 1.630788 3.519509
vn -0.065139 0.439220 0.896015
v 0.000008 0.664382 3.995710
vn 0.122001 0.520594 0.845043
v 0.385348 1.546751 3.515632
vn 0.029448 0.457388 0.888779
v 0.117908 0.627113 3.996212
vn 0.272040 0.516842 0.811707
v 1.092799 1.267138 3.530556
vn 0.128258 0.497404 0.857985
v 0.600116 0.519821 4.084151
vn 0.428261 0.443742 0.787201
v 1.915395 0.707100 3.498279
vn 0.359019 0.453555 0.815716
v 1.231910 0.092137 4.189606
vn 0.508740 0.351074 0.786086
v 2.674298 -0.103467 3.459571
vn 0.476947 0.344179 0.808741
v 1.824977 -0.601543 4.163064
vn 0.563345 0.313875 0.764280
v 3.252064 -1.043421 3.425918
vn 0.507160 0.275745 0.816550
v 2.280031 -1.392798 4.139852
vn -0.634422 0.352732 0.687814
v -3.662409 -0.734529 2.918049
vn -0.592787 0.404158 0.696606
v -3.055216 0.318256 2.946876
vn -0.479338 0.493347 0.725840
v -2.259431 1.215141 2.976624
vn -0.347126 0.562233 0.750598
v -1.371646 1.880475 2.999458
vn -0.219683 0.604322 0.765855
v -0.567380 2.224255 3.011424
vn -0.006638 0.633027 0.774101
v 0.000007 2.323799 3.023684
vn 0.196402 0.606708 0.770280
v 0.567427 2.224255 3.011422
vn 0.348908 0.563956 0.748476
v 1.371687 1.880480 2.999459
vn 0.479899 0.494515 0.724674
v 2.259471 1.215146 2.976624
vn 0.591107 0.406108 0.696899
v 3.055263 0.318259 2.946876
vn 0.661648 0.357155 0.659289
v 3.662459 -0.734523 2.918050
vn -0.715063 0.382227 0.585309
v -3.968048 -0.526613 2.448694
vn -0.671872 0.441895 0.594405
v -3.346046 0.615459 2.475160
vn -0.549548 0.550232 0.628682
v -2.525871 1.582067 2.500386
vn -0.410482 0.639863 0.649677
v -1.597456 2.301376 2.520251
vn -0.251384 0.708388 0.659540
v -0.708929 2.708130 2.536407
vn -0.006941 0.746392 0.665470
v 0.000007 2.822826 2.552048
vn 0.236311 0.709369 0.664043
v 0.708970 2.708130 2.536407
vn 0.406920 0.642079 0.649732
v 1.597492 2.301380 2.520248
vn 0.546208 0.553380 0.628830
v 2.525908 1.582070 2.500386
vn 0.669246 0.445900 0.594377
v 3.346088 0.615461 2.475160
vn 0.745792 0.385858 0.543055
v 3.968091 -0.526610 2.448693
vn -0.784289 0.400264 0.474003
v -4.198211 -0.398997 1.969768
vn -0.733976 0.465821 0.494258
v -3.574223 0.813571 1.997368
vn -0.607650 0.596841 0.523968
v -2.736921 1.837679 2.020438
vn -0.458637 0.708700 0.536094
v -1.775878 2.602570 2.036817
vn -0.274609 0.798020 0.536427
v -0.822149 3.047887 2.050118
vn -0.006359 0.843313 0.537385
v 0.000006 3.185486 2.065232
vn 0.265268 0.800067 0.538076
v 0.822184 3.047889 2.050117
vn 0.453988 0.712681 0.534772
v 1.775910 2.602571 2.036816
vn 0.605324 0.602222 0.520491
v 2.736954 1.837686 2.020441
vn 0.732583 0.471450 0.490976
v 3.574260 0.813572 1.997369
vn 0.800528 0.394628 0.451024
v 4.198252 -0.398994 1.969768
vn -0.820054 0.398215 0.411019
v -4.407142 -0.326145 1.486636
vn -0.771459 0.473580 0.424940
v -3.786640 0.948482 1.510254
vn -0.646031 0.626520 0.436024
v -2.931563 2.025557 1.527400
vn -0.489403 0.757496 0.432070
v -1.934750 2.827257 1.540770
vn -0.289017 0.859788 0.420991
v -0.919324 3.304520 1.550191
vn -0.005329 0.909365 0.415966
v 0.000007 3.456738 1.563036
vn 0.279590 0.862137 0.422550
v 0.919356 3.304522 1.550190
vn 0.483979 0.761709 0.430771
v 1.934780 2.827261 1.540771
vn 0.642760 0.632853 0.431690
v 2.931596 2.025561 1.527400
vn 0.769695 0.481532 0.419161
v 3.786674 0.948484 1.510253
vn 0.832370 0.392483 0.391301
v 4.407180 -0.326144 1.486638
vn -0.847153 0.394738 0.355688
v -4.612286 -0.292255 0.973294
vn -0.802026 0.483956 0.350059
v -3.993794 1.037436 0.989484
vn -0.675350 0.653744 0.341353
v -3.113112 2.160263 1.001560
vn -0.510009 0.795064 0.328275
v -2.077502 2.994820 1.011179
vn 0.503400 0.798724 0.329589
v 2.077530 2.994821 1.011178
vn 0.670953 0.658821 0.340260
v 3.113141 2.160266 1.001560
vn 0.800333 0.491798 0.342931
v 3.993826 1.037439 0.989485
vn 0.858589 0.395030 0.326766
v 4.612322 -0.292254 0.973297
vn -0.873354 0.401824 0.275299
v -4.806739 -0.281848 0.415328
vn -0.526318 0.819506 0.226713
v -2.190127 3.125736 0.429847
vn 0.513277 0.826944 0.229588
v 2.190156 3.125740 0.429847
vn 0.880677 0.408211 0.240358
v 4.806776 -0.281848 0.415330
vn -0.892755 0.416514 0.171767
v -4.998839 -0.286764 -0.338859
vn -0.534407 0.840685 0.087509
v -2.287711 3.241092 -0.348049
vn -0.416194 0.908449 0.038771
v -1.128855 3.774090 -0.343740
vn 0.416507 0.903026 0.105196
v 1.128884 3.774090 -0.343739
vn 0.525679 0.846592 0.083329
v 2.287738 3.241092 -0.348048
vn 0.896591 0.422030 0.134219
v 4.998874 -0.286764 -0.338873
vn -0.900730 0.424833 0.090571
v -5.120742 -0.328006 -1.260247
vn -0.626774 0.779142 0.009541
v -3.475244 2.307418 -1.307824
vn -0.522453 0.852445 -0.019515
v -2.392606 3.175860 -1.299506
vn -0.413017 0.909536 -0.046484
v -1.202146 3.716972 -1.293929
vn 0.414862 0.909317 -0.032125
v 1.202177 3.716970 -1.293930
vn 0.530375 0.847564 -0.018397
v 2.392634 3.175860 -1.299336
vn 0.623595 0.781733 -0.004752
v 3.475296 2.307388 -1.297027
vn 0.900725 0.426388 0.083000
v 5.120773 -0.328006 -1.260261
vn -0.901384 0.426863 0.072762
v -5.201744 -0.367146 -2.021009
vn -0.622111 0.782653 -0.020790
v -3.503408 2.272177 -2.080145
vn -0.484556 0.873322 -0.050148
v -2.462614 3.091260 -2.101063
vn -0.412313 0.909011 -0.060797
v -1.281052 3.626104 -2.117415
vn 0.412570 0.908926 -0.060331
v 1.281082 3.626104 -2.117415
vn 0.557407 0.829555 -0.033710
v 2.462641 3.091259 -2.101063
vn 0.618555 0.785632 -0.013120
v 3.503399 2.272205 -2.078914
vn 0.901033 0.427402 0.073945
v 5.201770 -0.367144 -2.021008
vn -0.779131 -0.626023 -0.032409
v 3.505207 2.279454 -1.277998
vn -0.783172 -0.620264 -0.043755
v 3.632777 2.119665 -1.275190
vn -0.778246 -0.627679 -0.018774
v 3.687018 2.075484 -1.995276
vn -0.774062 -0.632902 -0.016228
v 3.597093 2.185577 -1.999631
vn 0.778987 -0.626144 -0.033527
v -3.632312 2.119647 -1.272942
vn 0.783184 -0.620299 -0.043036
v -3.501882 2.283028 -1.275719
vn 0.778075 -0.627872 -0.019396
v -3.590847 2.193192 -1.990286
vn 0.773984 -0.632884 -0.020147
v -3.693262 2.067805 -1.985942
vn -0.648093 -0.758090 -0.072633
v 3.386738 2.352634 -0.348522
vn -0.782870 -0.619362 -0.059197
v 3.517660 2.184685 -0.347961
vn 0.779892 -0.610553 -0.137816
v -3.517628 2.184687 -0.347951
vn 0.639710 -0.758302 -0.125497
v -3.386707 2.352634 -0.348507
vn 0.850158 -0.513269 -0.117416
v -4.322444 1.156169 -0.344065
vn 0.822941 -0.513466 -0.243147
v -4.169462 1.100888 0.420297
vn 0.683614 -0.687783 -0.244186
v -3.261133 2.262978 0.425170
vn -0.772436 -0.603904 -0.196576
v 3.517660 2.184685 -0.347961
vn -0.692845 -0.681096 -0.236799
v 3.261162 2.262981 0.425170
vn -0.857498 -0.490577 -0.155021
v 4.322477 1.156167 -0.344064
vn -0.825804 -0.506140 -0.248736
v 4.169494 1.100888 0.420298
vn 0.781943 -0.621460 -0.048503
v -3.644006 2.103702 -1.294611
vn 0.851653 -0.520071 -0.064914
v -4.446377 1.101593 -1.279896
vn -0.852980 -0.516648 -0.074162
v 4.446598 1.101447 -1.279894
vn -0.777653 -0.627544 -0.038004
v 3.649163 2.097579 -1.294619
vn 0.776496 -0.629409 -0.029961
v -3.765395 1.979546 -2.074627
vn 0.850926 -0.522141 -0.057389
v -4.538717 1.035946 -2.051775
vn -0.852219 -0.520378 -0.054129
v 4.538745 1.035942 -2.051774
vn -0.773046 -0.634058 -0.019215
v 3.784395 1.956343 -2.074634
vn 0.160953 -0.984606 0.068154
v -1.158975 3.697983 -1.263889
vn 0.163523 -0.984240 0.067314
v -1.069262 3.712699 -1.264465
vn 0.160259 -0.984633 0.069394
v -1.105174 3.655161 -1.995744
vn 0.158112 -0.984989 0.069257
v -1.174408 3.644096 -1.995045
vn 0.164814 -0.986308 -0.005794
v -1.122525 3.766014 -0.344141
vn 0.167064 -0.982839 -0.078216
v -1.017729 3.783669 -0.344507
vn 0.392735 -0.896523 -0.204953
v -1.068269 3.645146 0.432927
vn 0.156145 -0.973832 -0.165135
v -0.964254 3.663244 0.432697
vn -0.160585 -0.984432 0.071461
v 1.070562 3.718587 -1.264339
vn -0.163253 -0.984362 0.066177
v 1.161094 3.703758 -1.263834
vn -0.159854 -0.984089 0.077564
v 1.184283 3.642518 -1.995081
vn -0.157893 -0.984379 0.077900
v 1.104684 3.655240 -1.995658
vn -0.163883 -0.984531 0.061968
v 1.022926 3.784624 -0.344464
vn -0.166942 -0.982609 -0.081300
v 1.122323 3.767891 -0.344120
vn -0.158093 -0.962658 -0.219764
v 0.970507 3.662169 0.432708
vn -0.397629 -0.887208 -0.233993
v 1.068300 3.645147 0.432927
vn -0.163202 -0.972818 -0.164290
v 1.022926 3.784624 -0.344464
vn -0.035936 -0.979730 -0.197072
v 0.000007 3.818689 0.436603
vn -0.020695 -0.953351 -0.301153
v 0.000007 3.661198 1.026033
vn -0.310798 -0.893023 -0.325445
v 1.003168 3.496701 1.017145
vn -0.155543 -0.973898 -0.165317
v 1.014155 3.791078 -0.354923
vn -0.005590 -0.999073 -0.042674
v 0.000038 3.950954 -0.355466
vn -0.155534 -0.986392 0.053285
v 1.014155 3.791078 -0.354923
vn -0.151988 -0.986210 0.065489
v 1.024338 3.737232 -1.321970
vn 0.006801 -0.997128 0.075426
v 0.000178 3.892686 -1.327512
vn -0.145439 -0.984930 0.093602
v 1.005212 3.669043 -2.119182
vn 0.050360 -0.994053 0.096549
v 0.000378 3.811726 -2.129145
vn 0.157127 -0.953260 -0.258081
v -0.964254 3.663244 0.432697
vn 0.293879 -0.903476 -0.312036
v -1.003139 3.496700 1.017144
vn 0.153726 -0.988073 -0.008893
v -1.007074 3.792242 -0.354943
vn 0.147192 -0.985986 0.078519
v -1.016019 3.738523 -1.322021
vn 0.140898 -0.986106 0.087995
v -0.995993 3.670242 -2.119269
vn 0.534249 -0.294896 -0.792221
v -3.252009 -1.043426 3.425916
vn 0.506260 -0.267082 -0.819980
v -2.279976 -1.392802 4.139852
vn 0.493088 -0.302468 -0.815707
v -1.824925 -0.601546 4.163075
vn 0.518968 -0.356946 -0.776699
v -2.674247 -0.103470 3.459569
vn 0.408432 -0.434970 -0.802487
v -1.231864 0.092133 4.189606
vn 0.411321 -0.458336 -0.787872
v -1.915345 0.707096 3.498279
vn 0.231261 -0.521026 -0.821615
v -0.600070 0.519811 4.084154
vn 0.268092 -0.499967 -0.823504
v -1.092753 1.267136 3.530555
vn 0.090877 -0.490315 -0.866794
v -0.117853 0.627112 3.996202
vn 0.177143 -0.504913 -0.844798
v -0.385290 1.546751 3.515635
vn 0.065139 -0.439220 -0.896015
v 0.000008 0.664382 3.995710
vn 0.019503 -0.517848 -0.855250
v 0.000009 1.630788 3.519509
vn -0.029448 -0.457388 -0.888779
v 0.117908 0.627113 3.996212
vn -0.122001 -0.520594 -0.845043
v 0.385348 1.546751 3.515632
vn -0.128258 -0.497404 -0.857985
v 0.600116 0.519821 4.084151
vn -0.272040 -0.516842 -0.811707
v 1.092799 1.267138 3.530556
vn -0.359019 -0.453555 -0.815716
v 1.231910 0.092137 4.189606
vn -0.428261 -0.443742 -0.787201
v 1.915395 0.707100 3.498279
vn -0.476947 -0.344179 -0.808741
v 1.824977 -0.601543 4.163064
vn -0.508740 -0.351074 -0.786086
v 2.674298 -0.103467 3.459571
vn -0.507160 -0.275745 -0.816550
v 2.280031 -1.392798 4.139852
vn -0.563345 -0.313875 -0.764280
v 3.252064 -1.043421 3.425918
vn 0.634422 -0.352732 -0.687814
v -3.662409 -0.734529 2.918049
vn 0.592787 -0.404158 -0.696605
v -3.055216 0.318256 2.946876
vn 0.479338 -0.493347 -0.725840
v -2.259431 1.215141 2.976624
vn 0.347126 -0.562233 -0.750598
v -1.371646 1.880475 2.999458
vn 0.219683 -0.604322 -0.765855
v -0.567380 2.224255 3.011424
vn 0.006638 -0.633027 -0.774101
v 0.000007 2.323799 3.023684
vn -0.196402 -0.606708 -0.770280
v 0.567427 2.224255 3.011422
vn -0.348908 -0.563956 -0.748476
v 1.371687 1.880480 2.999459
vn -0.479899 -0.494515 -0.724674
v 2.259471 1.215146 2.976624
vn -0.591107 -0.406108 -0.696899
v 3.055263 0.318259 2.946876
vn -0.661648 -0.357155 -0.659289
v 3.662459 -0.734523 2.918050
vn 0.715063 -0.382227 -0.585309
v -3.968048 -0.526613 2.448694
vn 0.671872 -0.441895 -0.594405
v -3.346046 0.615459 2.475160
vn 0.549548 -0.550232 -0.628682
v -2.525871 1.582067 2.500386
vn 0.410482 -0.639863 -0.649677
v -1.597456 2.301376 2.520251
vn 0.251384 -0.708388 -0.659540
v -0.708929 2.708130 2.536407
vn 0.006941 -0.746392 -0.665470
v 0.000007 2.822826 2.552048
vn -0.236311 -0.709369 -0.664043
v 0.708970 2.708130 2.536407
vn -0.406919 -0.642079 -0.649732
v 1.597492 2.301380 2.520248
vn -0.546208 -0.553380 -0.628830
v 2.525908 1.582070 2.500386
vn -0.669246 -0.445900 -0.594377
v 3.346088 0.615461 2.475160
vn -0.745792 -0.385858 -0.543055
v 3.968091 -0.526610 2.448693
vn 0.784289 -0.400264 -0.474003
v -4.198211 -0.398997 1.969768
vn 0.733976 -0.465821 -0.494258
v -3.574223 0.813571 1.997368
vn 0.607650 -0.596841 -0.523968
v -2.736921 1.837679 2.020438
vn 0.458637 -0.708700 -0.536094
v -1.775878 2.602570 2.036817
vn 0.274609 -0.798020 -0.536427
v -0.822149 3.047887 2.050118
vn 0.006359 -0.843313 -0.537385
v 0.000006 3.185486 2.065232
vn -0.265268 -0.800067 -0.538076
v 0.822184 3.047889 2.050117
vn -0.453988 -0.712681 -0.534772
v 1.775910 2.602571 2.036816
vn -0.605324 -0.602222 -0.520491
v 2.736954 1.837686 2.020441
vn -0.732583 -0.471450 -0.490976
v 3.574260 0.813572 1.997369
vn -0.800528 -0.394628 -0.451024
v 4.198252 -0.398994 1.969768
vn 0.820054 -0.398215 -0.411019
v -4.407142 -0.326145 1.486636
vn 0.771459 -0.473579 -0.424940
v -3.786640 0.948482 1.510254
vn 0.646031 -0.626520 -0.436024
v -2.931563 2.025557 1.527400
vn 0.489403 -0.757496 -0.432070
v -1.934750 2.827257 1.540770
vn 0.289017 -0.859788 -0.420991
v -0.919324 3.304520 1.550191
vn 0.005329 -0.909365 -0.415966
v 0.000007 3.456738 1.563036
vn -0.279590 -0.862137 -0.422550
v 0.919356 3.304522 1.550190
vn -0.483979 -0.761709 -0.430771
v 1.934780 2.827261 1.540771
vn -0.642760 -0.632853 -0.431690
v 2.931596 2.025561 1.527400
vn -0.769695 -0.481532 -0.419161
v 3.786674 0.948484 1.510253
vn -0.832370 -0.392483 -0.391301
v 4.407180 -0.326144 1.486638
vn 0.847153 -0.394738 -0.355688
v -4.612286 -0.292255 0.973294
vn 0.802026 -0.483956 -0.350059
v -3.993794 1.037436 0.989484
vn 0.675350 -0.653744 -0.341354
v -3.113112 2.160263 1.001560
vn 0.510009 -0.795064 -0.328275
v -2.077502 2.994820 1.011179
vn -0.503400 -0.798724 -0.329588
v 2.077530 2.994821 1.011178
vn -0.670953 -0.658821 -0.340260
v 3.113141 2.160266 1.001560
vn -0.800333 -0.491798 -0.342931
v 3.993826 1.037439 0.989485
vn -0.858589 -0.395030 -0.326766
v 4.612322 -0.292254 0.973297
vn 0.873354 -0.401824 -0.275299
v -4.806739 -0.281848 0.415328
vn 0.526318 -0.819506 -0.226713
v -2.190127 3.125736 0.429847
vn -0.513277 -0.826944 -0.229588
v 2.190156 3.125740 0.429847
vn -0.880677 -0.408211 -0.240358
v 4.806776 -0.281848 0.415330
vn 0.892755 -0.416514 -0.171767
v -4.998839 -0.286764 -0.338859
vn 0.534407 -0.840685 -0.087509
v -2.287711 3.241092 -0.348049
vn 0.416194 -0.908449 -0.038771
v -1.128855 3.774090 -0.343740
vn -0.416507 -0.903026 -0.105196
v 1.128884 3.774090 -0.343739
vn -0.525679 -0.846592 -0.083329
v 2.287738 3.241092 -0.348048
vn -0.896591 -0.422030 -0.134219
v 4.998874 -0.286764 -0.338873
vn 0.900730 -0.424833 -0.090571
v -5.120742 -0.328006 -1.260247
vn 0.626774 -0.779142 -0.009541
v -3.475244 2.307418 -1.307824
vn 0.522453 -0.852445 0.019515
v -2.392606 3.175860 -1.299506
vn 0.413017 -0.909536 0.046484
v -1.202146 3.716972 -1.293929
vn -0.414862 -0.909317 0.032125
v 1.202177 3.716970 -1.293930
vn -0.530375 -0.847564 0.018397
v 2.392634 3.175860 -1.299336
vn -0.623595 -0.781733 0.004752
v 3.475296 2.307388 -1.297027
vn -0.900724 -0.426388 -0.083000
v 5.120773 -0.328006 -1.260261
vn 0.901384 -0.426863 -0.072762
v -5.201744 -0.367146 -2.021009
vn 0.622111 -0.782653 0.020790
v -3.503408 2.272177 -2.080145
vn 0.484555 -0.873322 0.050148
v -2.462614 3.091260 -2.101063
vn 0.412313 -0.909011 0.060797
v -1.281052 3.626104 -2.117415
vn -0.412570 -0.908926 0.060331
v 1.281082 3.626104 -2.117415
vn -0.557407 -0.829555 0.033710
v 2.462641 3.091259 -2.101063
vn -0.618555 -0.785632 0.013120
v 3.503399 2.272205 -2.078914
vn -0.901033 -0.427402 -0.073945
v 5.201770 -0.367144 -2.021008
# 336 vertices, 0 vertices normals


usemtl material_0
vt 0.904925 0.519075
vt 0.904930 0.566593
vt 0.912643 0.519074
f 20/1/20 19/2/19 21/3/21
vt 0.912391 0.566593
f 21/3/21 19/2/19 22/4/22
vt 0.612104 0.519093
vt 0.612361 0.566610
vt 0.619821 0.519093
f 24/5/24 23/6/23 25/7/25
vt 0.619823 0.566610
f 25/7/25 23/6/23 26/8/26
vt 0.904934 0.614112
f 19/2/19 27/9/27 22/4/22
vt 0.912024 0.614112
f 22/4/22 27/9/27 28/10/28
vt 0.612734 0.614128
f 23/6/23 29/11/29 26/8/26
vt 0.619824 0.614128
f 26/8/26 29/11/29 30/12/30
vt 0.572308 0.661647
vt 0.572307 0.614129
f 31/13/31 29/11/29 32/14/32
vt 0.619826 0.661646
f 33/15/33 30/12/30 29/11/29
f 33/15/33 29/11/29 31/13/31
vt 0.904937 0.661631
vt 0.912024 0.614112
f 35/16/35 34/17/34 27/9/27
vt 0.952457 0.661628
vt 0.952453 0.614108
f 37/18/37 36/19/36 34/17/34
f 37/18/37 34/17/34 35/16/35
vt 0.572305 0.566612
f 38/20/38 32/14/32 39/6/39
f 39/6/39 32/14/32 29/11/29
vt 0.912391 0.566593
vt 0.952448 0.566589
f 40/21/40 28/10/28 41/22/41
f 41/22/41 28/10/28 36/19/36
vt 0.572304 0.519094
f 42/23/42 38/20/38 43/5/43
f 43/5/43 38/20/38 39/6/39
vt 0.952444 0.519070
f 44/3/44 40/21/40 45/24/45
f 45/24/45 40/21/40 41/22/41
vt 0.714855 0.519089
vt 0.714858 0.566606
vt 0.719020 0.519089
f 47/25/47 46/26/46 48/27/48
vt 0.719176 0.566606
f 48/27/48 46/26/46 49/28/49
vt 0.714860 0.614124
f 46/26/46 50/29/50 49/28/49
vt 0.719387 0.614124
f 49/28/49 50/29/50 51/30/51
vt 0.714862 0.661642
f 50/29/50 52/31/52 51/30/51
vt 0.719440 0.661642
f 51/30/51 52/31/52 53/32/53
vt 0.806093 0.519083
vt 0.805910 0.566601
vt 0.809890 0.519083
f 55/33/55 54/34/54 56/35/56
vt 0.809893 0.566601
f 56/35/56 54/34/54 57/36/57
vt 0.805665 0.614119
f 54/34/54 58/37/58 57/36/57
vt 0.809896 0.614119
f 57/36/57 58/37/58 59/38/59
vt 0.805665 0.614119
vt 0.805596 0.661638
f 61/39/61 60/40/60 59/38/59
vt 0.809899 0.661637
f 59/38/59 60/40/60 62/41/62
vt 0.762383 0.709159
vt 0.762380 0.661640
f 63/42/63 60/40/60 64/43/64
vt 0.809902 0.709156
f 65/44/65 62/41/62 60/40/60
f 65/44/65 60/40/60 63/42/63
vt 0.762378 0.614122
f 66/45/66 64/43/64 67/39/67
f 67/39/67 64/43/64 60/40/60
vt 0.762375 0.566604
f 68/46/68 66/45/66 69/34/69
f 69/34/69 66/45/66 70/37/70
vt 0.762372 0.519086
f 71/47/71 68/46/68 72/33/72
f 72/33/72 68/46/68 69/34/69
vt 0.714864 0.709161
vt 0.719440 0.661642
f 74/48/74 73/49/73 52/31/52
f 63/42/63 64/43/64 73/49/73
f 63/42/63 73/49/73 74/48/74
vt 0.719387 0.614124
f 75/50/75 53/32/53 66/45/66
f 66/45/66 53/32/53 64/43/64
vt 0.719176 0.566606
f 76/51/76 75/50/75 68/46/68
f 68/46/68 75/50/75 66/45/66
f 77/27/77 76/51/76 71/47/71
f 71/47/71 76/51/76 68/46/68
vt 0.572313 0.946759
vt 0.524794 0.946759
vt 0.572314 0.994278
f 79/52/79 78/53/78 80/54/80
vt 0.524794 0.994278
f 80/54/80 78/53/78 81/55/81
vt 0.619833 0.946758
vt 0.619833 0.994277
f 82/56/82 79/52/79 83/57/83
f 83/57/83 79/52/79 80/54/80
vt 0.667352 0.946757
vt 0.667353 0.994277
f 84/58/84 82/56/82 85/59/85
f 85/59/85 82/56/82 83/57/83
vt 0.714871 0.946756
vt 0.714872 0.994276
f 86/60/86 84/58/84 87/61/87
f 87/61/87 84/58/84 85/59/85
vt 0.762391 0.946755
vt 0.762392 0.994275
f 88/62/88 86/60/86 89/63/89
f 89/63/89 86/60/86 87/61/87
vt 0.809911 0.946754
vt 0.809912 0.994274
f 90/64/90 88/62/88 91/65/91
f 91/65/91 88/62/88 89/63/89
vt 0.857431 0.946752
vt 0.857432 0.994272
f 92/66/92 90/64/90 93/67/93
f 93/67/93 90/64/90 91/65/91
vt 0.904951 0.946751
vt 0.904952 0.994271
f 94/68/94 92/66/92 95/69/95
f 95/69/95 92/66/92 93/67/93
vt 0.952471 0.946749
vt 0.952473 0.994269
f 96/70/96 94/68/94 97/71/97
f 97/71/97 94/68/94 95/69/95
vt 0.999991 0.946747
vt 0.999993 0.994268
f 98/72/98 96/70/96 99/73/99
f 99/73/99 96/70/96 97/71/97
vt 0.572313 0.899240
vt 0.524794 0.899240
f 101/74/101 100/75/100 79/52/79
f 79/52/79 100/75/100 78/53/78
vt 0.619832 0.899239
f 102/76/102 101/74/101 82/56/82
f 82/56/82 101/74/101 79/52/79
vt 0.667351 0.899238
f 103/77/103 102/76/102 84/58/84
f 84/58/84 102/76/102 82/56/82
vt 0.714870 0.899237
f 104/78/104 103/77/103 86/60/86
f 86/60/86 103/77/103 84/58/84
vt 0.762390 0.899236
f 105/79/105 104/78/104 88/62/88
f 88/62/88 104/78/104 86/60/86
vt 0.809909 0.899234
f 106/80/106 105/79/105 90/64/90
f 90/64/90 105/79/105 88/62/88
vt 0.857429 0.899232
f 107/81/107 106/80/106 92/66/92
f 92/66/92 106/80/106 90/64/90
vt 0.904949 0.899231
f 108/82/108 107/81/107 94/68/94
f 94/68/94 107/81/107 92/66/92
f 94/68/94 96/70/96 108/82/108
vt 0.952469 0.899229
f 108/82/108 96/70/96 109/83/109
f 96/70/96 98/72/98 109/83/109
vt 0.999990 0.899227
f 109/83/109 98/72/98 110/84/110
vt 0.572312 0.851721
vt 0.524793 0.851722
f 112/85/112 111/86/111 101/74/101
f 101/74/101 111/86/111 100/75/100
vt 0.619831 0.851720
f 113/87/113 112/85/112 102/76/102
f 102/76/102 112/85/112 101/74/101
vt 0.667350 0.851719
f 114/88/114 113/87/113 103/77/103
f 103/77/103 113/87/113 102/76/102
vt 0.714869 0.851717
f 115/89/115 114/88/114 104/78/104
f 104/78/104 114/88/114 103/77/103
vt 0.762388 0.851716
f 116/90/116 115/89/115 105/79/105
f 105/79/105 115/89/115 104/78/104
vt 0.809908 0.851714
f 117/91/117 116/90/116 106/80/106
f 106/80/106 116/90/116 105/79/105
vt 0.857427 0.851713
f 118/92/118 117/91/117 107/81/107
f 107/81/107 117/91/117 106/80/106
vt 0.904947 0.851711
f 119/93/119 118/92/118 108/82/108
f 108/82/108 118/92/118 107/81/107
vt 0.952467 0.851709
f 120/94/120 119/93/119 109/83/109
f 109/83/109 119/93/119 108/82/108
vt 0.999988 0.851707
f 121/95/121 120/94/120 110/84/110
f 110/84/110 120/94/120 109/83/109
vt 0.572311 0.804202
vt 0.524792 0.804203
f 123/96/123 122/97/122 112/85/112
f 112/85/112 122/97/122 111/86/111
vt 0.619830 0.804201
f 124/98/124 123/96/123 113/87/113
f 113/87/113 123/96/123 112/85/112
vt 0.667349 0.804200
f 125/99/125 124/98/124 114/88/114
f 114/88/114 124/98/124 113/87/113
vt 0.714867 0.804198
f 126/100/126 125/99/125 115/89/115
f 115/89/115 125/99/125 114/88/114
vt 0.762387 0.804197
f 127/101/127 126/100/126 116/90/116
f 116/90/116 126/100/126 115/89/115
vt 0.809906 0.804195
f 128/102/128 127/101/127 117/91/117
f 117/91/117 127/101/127 116/90/116
vt 0.857425 0.804193
f 129/103/129 128/102/128 118/92/118
f 118/92/118 128/102/128 117/91/117
vt 0.904945 0.804191
f 130/104/130 129/103/129 119/93/119
f 119/93/119 129/103/129 118/92/118
vt 0.952465 0.804188
f 131/105/131 130/104/130 120/94/120
f 120/94/120 130/104/130 119/93/119
vt 0.999986 0.804186
f 132/106/132 131/105/131 121/95/121
f 121/95/121 131/105/131 120/94/120
vt 0.572310 0.756684
vt 0.524791 0.756685
f 134/107/134 133/108/133 123/96/123
f 123/96/123 133/108/133 122/97/122
vt 0.619828 0.756682
f 135/109/135 134/107/134 124/98/124
f 124/98/124 134/107/134 123/96/123
vt 0.667347 0.756681
f 136/110/136 135/109/135 125/99/125
f 125/99/125 135/109/135 124/98/124
vt 0.714866 0.756679
f 137/111/137 136/110/136 126/100/126
f 126/100/126 136/110/136 125/99/125
vt 0.762385 0.756678
f 138/112/138 137/111/137 127/101/127
f 127/101/127 137/111/137 126/100/126
vt 0.809904 0.756675
f 139/113/139 138/112/138 128/102/128
f 128/102/128 138/112/138 127/101/127
vt 0.857423 0.756673
f 140/114/140 139/113/139 129/103/129
f 129/103/129 139/113/139 128/102/128
vt 0.904943 0.756671
f 141/115/141 140/114/140 130/104/130
f 130/104/130 140/114/140 129/103/129
vt 0.952463 0.756668
f 142/116/142 141/115/141 131/105/131
f 131/105/131 141/115/141 130/104/130
vt 0.999983 0.756665
f 143/117/143 142/116/142 132/106/132
f 132/106/132 142/116/142 131/105/131
vt 0.572309 0.709165
vt 0.524790 0.709166
f 145/118/145 144/119/144 134/107/134
f 134/107/134 144/119/144 133/108/133
vt 0.619827 0.709164
f 146/120/146 145/118/145 135/109/135
f 135/109/135 145/118/145 134/107/134
vt 0.667346 0.709162
f 147/121/147 146/120/146 136/110/136
f 136/110/136 146/120/146 135/109/135
f 74/48/74 147/121/147 137/111/137
f 137/111/137 147/121/147 136/110/136
f 63/42/63 74/48/74 138/112/138
f 138/112/138 74/48/74 137/111/137
f 65/44/65 63/42/63 139/113/139
f 139/113/139 63/42/63 138/112/138
vt 0.857421 0.709154
f 148/122/148 65/44/65 140/114/140
f 140/114/140 65/44/65 139/113/139
vt 0.904940 0.709151
f 149/123/149 148/122/148 141/115/141
f 141/115/141 148/122/148 140/114/140
vt 0.952460 0.709148
f 150/124/150 149/123/149 142/116/142
f 142/116/142 149/123/149 141/115/141
vt 0.999980 0.709145
f 151/125/151 150/124/150 143/117/143
f 143/117/143 150/124/150 142/116/142
vt 0.524790 0.661648
f 31/13/31 152/126/152 145/118/145
f 145/118/145 152/126/152 144/119/144
f 33/15/33 31/13/31 146/120/146
f 146/120/146 31/13/31 145/118/145
vt 0.667344 0.661644
f 153/127/153 33/15/33 147/121/147
f 147/121/147 33/15/33 146/120/146
f 52/31/52 153/127/153 74/48/74
f 74/48/74 153/127/153 147/121/147
vt 0.857418 0.661635
f 154/128/154 62/41/62 148/122/148
f 148/122/148 62/41/62 65/44/65
f 35/16/35 154/128/154 149/123/149
f 149/123/149 154/128/154 148/122/148
f 37/18/37 35/16/35 150/124/150
f 150/124/150 35/16/35 149/123/149
vt 0.999977 0.661624
f 155/129/155 37/18/37 151/125/151
f 151/125/151 37/18/37 150/124/150
vt 0.524789 0.614130
f 32/14/32 156/130/156 31/13/31
f 31/13/31 156/130/156 152/126/152
vt 0.667342 0.614126
f 157/131/157 30/12/30 153/127/153
f 153/127/153 30/12/30 33/15/33
f 158/29/158 157/131/157 52/31/52
f 52/31/52 157/131/157 153/127/153
vt 0.857415 0.614116
f 160/132/160 159/38/159 154/128/154
f 154/128/154 159/38/159 62/41/62
f 27/9/27 160/132/160 35/16/35
f 35/16/35 160/132/160 154/128/154
vt 0.999973 0.614104
f 161/133/161 36/19/36 155/129/155
f 155/129/155 36/19/36 37/18/37
vt 0.524788 0.566613
f 38/20/38 162/134/162 32/14/32
f 32/14/32 162/134/162 156/130/156
vt 0.667340 0.566608
f 164/135/164 163/8/163 157/131/157
f 157/131/157 163/8/163 30/12/30
f 165/26/165 164/135/164 158/29/158
f 158/29/158 164/135/164 157/131/157
vt 0.857411 0.566597
f 167/136/167 166/36/166 160/132/160
f 160/132/160 166/36/166 159/38/159
f 168/2/168 167/136/167 27/9/27
f 27/9/27 167/136/167 160/132/160
vt 0.999968 0.566584
f 169/137/169 41/22/41 161/133/161
f 161/133/161 41/22/41 36/19/36
vt 0.524787 0.519095
f 42/23/42 170/138/170 38/20/38
f 38/20/38 170/138/170 162/134/162
vt 0.667338 0.519091
f 172/139/172 171/7/171 164/135/164
f 164/135/164 171/7/171 163/8/163
f 173/25/173 172/139/172 165/26/165
f 165/26/165 172/139/172 164/135/164
vt 0.857407 0.519079
f 175/140/175 174/35/174 167/136/167
f 167/136/167 174/35/174 166/36/166
f 176/1/176 175/140/175 168/2/168
f 168/2/168 175/140/175 167/136/167
vt 0.999962 0.519065
f 177/141/177 45/24/45 169/137/169
f 169/137/169 45/24/45 41/22/41
f 179/4/179 178/2/178 180/3/180
f 180/3/180 178/2/178 181/1/181
f 183/8/183 182/6/182 184/7/184
f 184/7/184 182/6/182 185/5/185
f 187/10/187 186/9/186 179/4/179
f 179/4/179 186/9/186 178/2/178
f 189/12/189 188/11/188 183/8/183
f 183/8/183 188/11/188 182/6/182
f 190/14/190 188/11/188 191/13/191
f 188/11/188 189/12/189 192/15/192
f 191/13/191 188/11/188 192/15/192
f 186/9/186 193/17/193 194/16/194
f 193/17/193 195/19/195 196/18/196
f 194/16/194 193/17/193 196/18/196
f 188/11/188 190/14/190 197/6/197
f 197/6/197 190/14/190 198/20/198
f 195/19/195 187/10/187 199/22/199
f 199/22/199 187/10/187 200/21/200
f 197/6/197 198/20/198 201/5/201
f 201/5/201 198/20/198 202/23/202
f 199/22/199 200/21/200 203/24/203
f 203/24/203 200/21/200 204/3/204
f 206/28/206 205/26/205 207/27/207
f 207/27/207 205/26/205 208/25/208
f 210/30/210 209/29/209 206/28/206
f 206/28/206 209/29/209 205/26/205
f 212/32/212 211/31/211 210/30/210
f 210/30/210 211/31/211 209/29/209
f 214/36/214 213/34/213 215/35/215
f 215/35/215 213/34/213 216/33/216
f 218/38/218 217/37/217 214/36/214
f 214/36/214 217/37/217 213/34/213
f 220/41/220 219/40/219 218/38/218
f 218/38/218 219/40/219 221/39/221
f 222/43/222 219/40/219 223/42/223
f 219/40/219 220/41/220 224/44/224
f 223/42/223 219/40/219 224/44/224
f 219/40/219 222/43/222 225/39/225
f 225/39/225 222/43/222 226/45/226
f 227/37/227 226/45/226 228/34/228
f 228/34/228 226/45/226 229/46/229
f 228/34/228 229/46/229 230/33/230
f 230/33/230 229/46/229 231/47/231
f 211/31/211 232/49/232 233/48/233
f 232/49/232 222/43/222 223/42/223
f 233/48/233 232/49/232 223/42/223
f 222/43/222 212/32/212 226/45/226
f 226/45/226 212/32/212 234/50/234
f 226/45/226 234/50/234 229/46/229
f 229/46/229 234/50/234 235/51/235
f 229/46/229 235/51/235 231/47/231
f 231/47/231 235/51/235 236/27/236
f 238/55/238 237/53/237 239/54/239
f 239/54/239 237/53/237 240/52/240
f 239/54/239 240/52/240 241/57/241
f 241/57/241 240/52/240 242/56/242
f 241/57/241 242/56/242 243/59/243
f 243/59/243 242/56/242 244/58/244
f 243/59/243 244/58/244 245/61/245
f 245/61/245 244/58/244 246/60/246
f 245/61/245 246/60/246 247/63/247
f 247/63/247 246/60/246 248/62/248
f 247/63/247 248/62/248 249/65/249
f 249/65/249 248/62/248 250/64/250
f 249/65/249 250/64/250 251/67/251
f 251/67/251 250/64/250 252/66/252
f 251/67/251 252/66/252 253/69/253
f 253/69/253 252/66/252 254/68/254
f 253/69/253 254/68/254 255/71/255
f 255/71/255 254/68/254 256/70/256
f 255/71/255 256/70/256 257/73/257
f 257/73/257 256/70/256 258/72/258
f 237/53/237 259/75/259 240/52/240
f 240/52/240 259/75/259 260/74/260
f 240/52/240 260/74/260 242/56/242
f 242/56/242 260/74/260 261/76/261
f 242/56/242 261/76/261 244/58/244
f 244/58/244 261/76/261 262/77/262
f 244/58/244 262/77/262 246/60/246
f 246/60/246 262/77/262 263/78/263
f 246/60/246 263/78/263 248/62/248
f 248/62/248 263/78/263 264/79/264
f 248/62/248 264/79/264 250/64/250
f 250/64/250 264/79/264 265/80/265
f 250/64/250 265/80/265 252/66/252
f 252/66/252 265/80/265 266/81/266
f 252/66/252 266/81/266 254/68/254
f 254/68/254 266/81/266 267/82/267
f 268/83/268 256/70/256 267/82/267
f 267/82/267 256/70/256 254/68/254
f 269/84/269 258/72/258 268/83/268
f 268/83/268 258/72/258 256/70/256
f 259/75/259 270/86/270 260/74/260
f 260/74/260 270/86/270 271/85/271
f 260/74/260 271/85/271 261/76/261
f 261/76/261 271/85/271 272/87/272
f 261/76/261 272/87/272 262/77/262
f 262/77/262 272/87/272 273/88/273
f 262/77/262 273/88/273 263/78/263
f 263/78/263 273/88/273 274/89/274
f 263/78/263 274/89/274 264/79/264
f 264/79/264 274/89/274 275/90/275
f 264/79/264 275/90/275 265/80/265
f 265/80/265 275/90/275 276/91/276
f 265/80/265 276/91/276 266/81/266
f 266/81/266 276/91/276 277/92/277
f 266/81/266 277/92/277 267/82/267
f 267/82/267 277/92/277 278/93/278
f 267/82/267 278/93/278 268/83/268
f 268/83/268 278/93/278 279/94/279
f 268/83/268 279/94/279 269/84/269
f 269/84/269 279/94/279 280/95/280
f 270/86/270 281/97/281 271/85/271
f 271/85/271 281/97/281 282/96/282
f 271/85/271 282/96/282 272/87/272
f 272/87/272 282/96/282 283/98/283
f 272/87/272 283/98/283 273/88/273
f 273/88/273 283/98/283 284/99/284
f 273/88/273 284/99/284 274/89/274
f 274/89/274 284/99/284 285/100/285
f 274/89/274 285/100/285 275/90/275
f 275/90/275 285/100/285 286/101/286
f 275/90/275 286/101/286 276/91/276
f 276/91/276 286/101/286 287/102/287
f 276/91/276 287/102/287 277/92/277
f 277/92/277 287/102/287 288/103/288
f 277/92/277 288/103/288 278/93/278
f 278/93/278 288/103/288 289/104/289
f 278/93/278 289/104/289 279/94/279
f 279/94/279 289/104/289 290/105/290
f 279/94/279 290/105/290 280/95/280
f 280/95/280 290/105/290 291/106/291
f 281/97/281 292/108/292 282/96/282
f 282/96/282 292/108/292 293/107/293
f 282/96/282 293/107/293 283/98/283
f 283/98/283 293/107/293 294/109/294
f 283/98/283 294/109/294 284/99/284
f 284/99/284 294/109/294 295/110/295
f 284/99/284 295/110/295 285/100/285
f 285/100/285 295/110/295 296/111/296
f 285/100/285 296/111/296 286/101/286
f 286/101/286 296/111/296 297/112/297
f 286/101/286 297/112/297 287/102/287
f 287/102/287 297/112/297 298/113/298
f 287/102/287 298/113/298 288/103/288
f 288/103/288 298/113/298 299/114/299
f 288/103/288 299/114/299 289/104/289
f 289/104/289 299/114/299 300/115/300
f 289/104/289 300/115/300 290/105/290
f 290/105/290 300/115/300 301/116/301
f 290/105/290 301/116/301 291/106/291
f 291/106/291 301/116/301 302/117/302
f 292/108/292 303/119/303 293/107/293
f 293/107/293 303/119/303 304/118/304
f 293/107/293 304/118/304 294/109/294
f 294/109/294 304/118/304 305/120/305
f 294/109/294 305/120/305 295/110/295
f 295/110/295 305/120/305 306/121/306
f 295/110/295 306/121/306 296/111/296
f 296/111/296 306/121/306 233/48/233
f 296/111/296 233/48/233 297/112/297
f 297/112/297 233/48/233 223/42/223
f 297/112/297 223/42/223 298/113/298
f 298/113/298 223/42/223 224/44/224
f 298/113/298 224/44/224 299/114/299
f 299/114/299 224/44/224 307/122/307
f 299/114/299 307/122/307 300/115/300
f 300/115/300 307/122/307 308/123/308
f 300/115/300 308/123/308 301/116/301
f 301/116/301 308/123/308 309/124/309
f 301/116/301 309/124/309 302/117/302
f 302/117/302 309/124/309 310/125/310
f 303/119/303 311/126/311 304/118/304
f 304/118/304 311/126/311 191/13/191
f 304/118/304 191/13/191 305/120/305
f 305/120/305 191/13/191 192/15/192
f 305/120/305 192/15/192 306/121/306
f 306/121/306 192/15/192 312/127/312
f 306/121/306 312/127/312 233/48/233
f 233/48/233 312/127/312 211/31/211
f 224/44/224 220/41/220 307/122/307
f 307/122/307 220/41/220 313/128/313
f 307/122/307 313/128/313 308/123/308
f 308/123/308 313/128/313 194/16/194
f 308/123/308 194/16/194 309/124/309
f 309/124/309 194/16/194 196/18/196
f 309/124/309 196/18/196 310/125/310
f 310/125/310 196/18/196 314/129/314
f 311/126/311 315/130/315 191/13/191
f 191/13/191 315/130/315 190/14/190
f 192/15/192 189/12/189 312/127/312
f 312/127/312 189/12/189 316/131/316
f 312/127/312 316/131/316 211/31/211
f 211/31/211 316/131/316 317/29/317
f 220/41/220 318/38/318 313/128/313
f 313/128/313 318/38/318 319/132/319
f 313/128/313 319/132/319 194/16/194
f 194/16/194 319/132/319 186/9/186
f 196/18/196 195/19/195 314/129/314
f 314/129/314 195/19/195 320/133/320
f 315/130/315 321/134/321 190/14/190
f 190/14/190 321/134/321 198/20/198
f 189/12/189 322/8/322 316/131/316
f 316/131/316 322/8/322 323/135/323
f 316/131/316 323/135/323 317/29/317
f 317/29/317 323/135/323 324/26/324
f 318/38/318 325/36/325 319/132/319
f 319/132/319 325/36/325 326/136/326
f 319/132/319 326/136/326 186/9/186
f 186/9/186 326/136/326 327/2/327
f 195/19/195 199/22/199 320/133/320
f 320/133/320 199/22/199 328/137/328
f 321/134/321 329/138/329 198/20/198
f 198/20/198 329/138/329 202/23/202
f 322/8/322 330/7/330 323/135/323
f 323/135/323 330/7/330 331/139/331
f 323/135/323 331/139/331 324/26/324
f 324/26/324 331/139/331 332/25/332
f 325/36/325 333/35/333 326/136/326
f 326/136/326 333/35/333 334/140/334
f 326/136/326 334/140/334 327/2/327
f 327/2/327 334/140/334 335/1/335
f 199/22/199 203/24/203 328/137/328
f 328/137/328 203/24/203 336/141/336
# 448 faces, 141 coords texture

# End of File