
newmtl Material.000001
Ka 1 1 1
Kd 1 1 1
Ks 1 1 1
d 1
Ns 33

newmtl Material.0000bd
Ka 1 1 1
Kd 1 1 1
Ks 1 1 1
d 1
Ns 33

newmtl Material.00015b
Ka 1 1 1
Kd 1 1 1
Ks 1 1 1
d 1
Ns 33

newmtl Material.000465
Ka 1 1 1
Kd 1 1 1
Ks 1 1 1
d 1
Ns 33

newmtl Material.0005a6
Ka 1 1 1
Kd 1 1 1
Ks 1 1 1
d 1
Ns 33

newmtl Material.0007ea
Ka 1 1 1
Kd 1 1 1
Ks 1 1 1
d 1
Ns 33

newmtl Material.0009d9
Ka 1 1 1
Kd 1 1 1
Ks 1 1 1
d 1
Ns 33

newmtl Material.000a95
Ka 1 1 1
Kd 1 1 1
Ks 1 1 1
d 1
Ns 33
