####
#
# OBJ File Generated by Meshlab
#
####
# Object fungi.obj
#
# Vertices: 296
# Faces: 436
#
####
mtllib ./fungi.obj.mtl

vn -0.216507 0.352684 0.910351
v -0.000009 29.364090 6.265633
vn -0.513982 0.357016 0.779976
v -3.826844 29.446720 5.294456
vn -0.461164 0.584123 0.667929
v -5.238772 25.305300 6.846695
vn -0.185880 0.654914 0.732487
v -0.000008 25.798910 7.886290
vn -0.547532 0.790181 0.275359
v -9.777706 23.765280 4.477191
vn -0.249419 0.822136 0.511744
v -5.732912 24.214130 8.624497
vn -0.441478 0.437980 -0.783117
v -3.481122 28.350821 -4.352497
vn -0.182162 0.407727 -0.894749
v -0.000008 28.160530 -5.147930
vn -0.177586 0.598059 -0.781530
v -0.000008 24.272680 -8.018525
vn -0.305467 0.700830 -0.644614
v -4.671969 24.474140 -6.736904
vn -0.101232 0.685568 -0.720936
v -0.000008 19.928419 -11.715641
vn -0.187063 0.735632 -0.651040
v -6.057969 20.911789 -10.363891
vn -0.680350 0.634694 -0.366452
v -8.100498 24.764959 -2.291386
vn -0.854307 0.382423 -0.352010
v -5.923061 28.939199 -1.244477
vn -0.730843 0.680555 0.052087
v -8.341340 25.326200 2.849776
vn -0.880411 0.386680 0.274508
v -6.243394 29.312679 2.583293
vn -0.456848 0.814928 -0.356626
v -9.947953 22.088758 -6.416264
vn -0.507431 0.852822 -0.123320
v -11.509451 22.925549 -0.715980
vn -0.132770 0.770630 0.623299
v -0.000008 24.130091 9.949575
vn -0.215914 -0.288798 0.932725
v -0.000009 34.192570 4.691571
vn -0.346860 -0.379370 0.857768
v -2.954925 34.272018 4.032145
vn -0.512702 -0.704533 -0.490683
v -2.957005 33.258080 -3.399609
vn -0.190307 -0.777885 -0.598897
v -0.000009 33.156891 -3.970095
vn -0.796208 -0.590069 -0.133684
v -4.555110 33.825001 -0.878640
vn -0.771623 -0.473695 0.424513
v -4.844713 34.173920 2.064963
vn -0.216867 -0.142442 0.965753
v -0.000010 45.895458 22.502348
vn -0.225624 0.259107 0.939126
v -0.000011 57.462101 22.124239
vn -0.414839 0.229474 0.880483
v -10.968924 57.870689 19.402918
vn -0.455455 -0.290013 0.841697
v -12.083293 46.093819 19.983778
vn -0.201920 0.655779 0.727449
v -0.000012 67.670090 17.781126
vn -0.345878 0.545018 0.763756
v -9.305387 67.436653 15.641277
vn -0.247742 0.800797 0.545296
v -0.000012 73.750481 9.808067
vn -0.342238 0.811988 0.472809
v -7.828231 72.331802 8.838533
vn -0.325790 0.774288 0.542530
v -0.000013 79.460350 1.659063
vn -0.391001 0.797196 0.459996
v -6.089141 77.175812 1.262978
vn -0.444847 -0.074590 -0.892495
v -12.439962 46.647007 -21.096722
vn -0.445455 0.362902 -0.818457
v -11.872434 59.676479 -19.568003
vn -0.211333 0.235899 -0.948520
v -0.000011 59.636509 -22.156462
vn -0.227922 -0.097249 -0.968811
v -0.000010 46.521641 -24.010761
vn -0.357647 0.717755 -0.597425
v -9.717881 70.063164 -13.702992
vn -0.201299 0.608937 -0.767252
v -0.000012 70.238457 -16.456583
vn -0.346152 0.876229 -0.335263
v -7.363829 73.797478 -6.888096
vn -0.176686 0.879105 -0.442670
v -0.000013 75.127380 -7.523023
vn -0.246405 0.892091 -0.378759
v -0.000013 79.460350 1.659063
vn -0.481224 0.844307 -0.235734
v -6.089141 77.175812 1.262978
vn -0.684580 -0.728846 -0.011593
v -19.314892 38.135071 -1.141101
vn -0.990658 -0.124711 -0.055176
v -24.532122 46.373985 0.275572
vn -0.844339 -0.245622 -0.476195
v -21.526052 46.790127 -12.502592
vn -0.566122 -0.777888 -0.272756
v -16.413492 37.807495 -11.215002
vn -0.959128 0.280918 0.034025
v -23.247663 58.523888 0.357311
vn -0.848076 0.233840 -0.475484
v -20.423174 58.957127 -11.439183
vn -0.865727 -0.242515 0.437839
v -21.575623 46.366989 12.601528
vn -0.493268 -0.783993 0.376884
v -16.336823 38.231838 7.588961
vn -0.300479 -0.809458 0.504469
v -9.411194 38.453800 14.680588
vn -0.418908 -0.692380 -0.587474
v -10.388932 37.281601 -17.233442
vn -0.720879 0.591858 -0.360608
v -16.021093 68.691658 -8.085146
vn -0.787223 0.283882 0.547440
v -20.409204 58.129730 11.964848
vn -0.645464 0.565771 0.513108
v -16.298893 66.909286 9.322346
vn -0.786289 0.611171 0.090663
v -17.975683 67.681931 0.497906
vn -0.565628 0.814959 -0.126121
v -12.433125 71.316139 -4.641029
vn -0.591764 0.798284 0.112063
v -11.955436 72.240387 0.677438
vn -0.550164 0.805474 0.220297
v -12.869064 70.716637 6.519366
vn -0.154336 -0.746959 0.646709
v -0.000009 38.320099 16.940289
vn -0.230931 -0.957101 -0.175011
v -6.519063 34.097149 -7.450684
vn -0.311067 -0.949833 0.032476
v -10.123042 34.467548 -1.710399
vn -0.261530 -0.941996 0.210345
v -8.581556 34.414291 2.966066
vn -0.130554 -0.939499 0.316697
v -4.981188 34.415321 6.679241
vn -0.062169 -0.956828 0.283927
v -0.000009 34.460331 7.843575
vn -0.168440 -0.961281 -0.218097
v -0.000009 33.599609 -10.292521
vn -0.211587 -0.693645 -0.688540
v -0.000009 36.762100 -19.860342
vn -0.180311 0.200126 0.963036
v -0.000008 18.404169 13.201849
vn -0.457055 0.331343 0.825417
v -7.358636 18.462919 11.823699
vn -0.374206 -0.122230 0.919255
v -7.209591 11.626920 12.182589
vn -0.186003 -0.152088 0.970707
v -0.000007 11.968021 13.546179
vn -0.293024 -0.474963 0.829787
v -6.254633 5.800023 10.636740
vn -0.162701 -0.608288 0.776862
v -0.000007 5.822856 11.953680
vn -0.215907 -0.860451 0.461528
v -5.151471 2.630357 6.674443
vn -0.120412 -0.904379 0.409389
v -0.000006 2.342595 7.395668
vn -0.151891 -0.948336 0.278545
v -4.553202 1.230322 1.966839
vn -0.134166 -0.942642 0.305657
v -0.000006 0.586649 1.980358
vn -0.452082 0.217641 -0.865017
v -6.057969 20.911789 -10.363891
vn -0.213577 0.063199 -0.974880
v -0.000008 19.928419 -11.715641
vn -0.187454 0.191218 -0.963482
v -0.000007 12.578199 -14.517651
vn -0.459603 0.067467 -0.885558
v -7.967107 13.672379 -12.724161
vn -0.219646 -0.322236 -0.920826
v -0.000007 6.167737 -13.467320
vn -0.445569 -0.456340 -0.770209
v -7.704195 6.819255 -11.966340
vn -0.183030 -0.780059 -0.598338
v -0.000006 1.338123 -8.962183
vn -0.314265 -0.852041 -0.418646
v -6.616773 2.075835 -7.959581
vn -0.131727 -0.984470 -0.116046
v -0.000006 0.247004 -3.599552
vn -0.225494 -0.972925 -0.050689
v -5.511768 0.936694 -3.313037
vn -0.129173 -0.989213 0.069086
v -0.000006 0.586649 1.980358
vn -0.200709 -0.975225 0.093019
v -4.553202 1.230322 1.966839
vn -0.970529 0.240713 -0.011407
v -11.509451 22.925549 -0.715980
vn -0.876844 0.118804 -0.465866
v -9.947953 22.088758 -6.416264
vn -0.812493 0.274037 -0.514547
v -13.365430 15.186058 -7.289430
vn -0.978099 0.197925 -0.064404
v -14.759521 16.625587 -0.379771
vn -0.867855 -0.183333 -0.461755
v -13.357070 8.276888 -6.623243
vn -0.990902 -0.128434 0.040228
v -15.020220 9.411595 0.224736
vn -0.873742 0.308644 0.375917
v -13.029671 17.769850 6.971580
vn -0.781549 0.189099 0.594494
v -9.777706 23.765280 4.477191
vn -0.498215 -0.070410 0.864190
v -5.732912 24.214130 8.624497
vn -0.677753 -0.654149 -0.335769
v -11.333249 3.676522 -4.463133
vn -0.804147 -0.130418 0.579947
v -13.345790 10.913989 7.857175
vn -0.565748 -0.530185 0.631533
v -11.058350 5.464128 6.932035
vn -0.808057 -0.528507 -0.260239
v -12.126709 4.453557 -1.941833
vn -0.920541 -0.360096 0.151447
v -13.493900 6.060886 0.544641
vn -0.838784 -0.410533 0.357637
v -12.066279 5.317976 3.613802
vn -0.314802 -0.947400 -0.057724
v -9.510603 2.070268 -1.888605
vn -0.136574 -0.988523 0.064580
v -8.127086 2.099310 1.481838
vn -0.383482 -0.816144 0.432261
v -9.465863 3.217496 4.387529
vn -0.193159 -0.940903 0.278192
v -8.127086 2.099310 1.481838
vn 0.491395 -0.839816 -0.230737
v -8.961169 1.808718 1.498323
vn 0.028960 -0.771186 -0.635951
v -10.167919 1.751507 -0.795665
vn -0.670897 -0.347065 -0.655319
v -12.237609 3.048714 -0.859861
vn -0.997822 -0.058866 0.029768
v -13.283689 4.093846 0.905626
vn -0.678249 -0.121217 0.724765
v -12.211989 3.662406 3.063071
vn 0.085312 -0.537012 0.839250
v -10.105179 2.545142 3.345477
vn 0.576570 -0.547111 0.606825
v -8.961169 1.808718 1.498323
vn 0.556745 -0.770148 -0.311300
v -9.994658 0.481570 1.681167
vn 0.006354 -0.757584 -0.652707
v -10.973599 0.435306 0.267414
vn -0.692725 -0.420985 -0.585580
v -12.467889 0.964544 0.174612
vn -0.966130 -0.184190 0.180740
v -13.318059 1.467222 1.411814
vn -0.485555 -0.253788 0.836557
v -12.485119 1.386833 2.871232
vn 0.301541 -0.587679 0.750804
v -11.068639 0.895538 2.980577
vn 0.438303 -0.685973 0.580802
v -9.994658 0.481570 1.681167
vn -0.305716 -0.940603 0.147663
v -12.002289 0.073219 1.743545
vn -0.193704 0.297038 0.935012
v -0.000008 24.130091 9.949575
vn -0.415861 -0.123107 -0.901057
v -6.953537 27.466578 -10.801251
vn -0.251849 -0.115768 -0.960817
v -0.000008 25.912100 -12.436611
vn -0.952745 -0.300760 -0.042665
v -13.152462 27.952879 0.458096
vn -0.814093 -0.188801 -0.549188
v -11.197671 26.475338 -6.131528
vn -0.773344 -0.479468 0.414789
v -11.002701 27.026079 6.477683
vn -0.477226 -0.557127 0.679607
v -6.537597 28.255520 11.251169
vn -0.278767 -0.661439 0.696267
v -0.000008 26.251801 12.855539
vn 0.513982 0.357015 0.779976
v 3.826827 29.446720 5.294456
vn 0.216507 0.352684 0.910351
v -0.000009 29.364090 6.265633
vn 0.461164 0.584123 0.667929
v 5.238754 25.305300 6.846695
vn 0.185880 0.654914 0.732487
v -0.000008 25.798910 7.886290
vn 0.547531 0.790181 0.275359
v 9.777688 23.765282 4.477190
vn 0.249419 0.822136 0.511744
v 5.732894 24.214130 8.624496
vn 0.182162 0.407727 -0.894749
v -0.000008 28.160530 -5.147930
vn 0.441478 0.437980 -0.783117
v 3.481104 28.350821 -4.352495
vn 0.177586 0.598059 -0.781530
v -0.000008 24.272680 -8.018525
vn 0.305467 0.700831 -0.644614
v 4.671954 24.474140 -6.736904
vn 0.101232 0.685568 -0.720936
v -0.000008 19.928419 -11.715641
vn 0.187062 0.735632 -0.651040
v 6.057952 20.911791 -10.363891
vn 0.680350 0.634695 -0.366452
v 8.100481 24.764959 -2.291386
vn 0.854307 0.382424 -0.352010
v 5.923044 28.939199 -1.244477
vn 0.730843 0.680556 0.052087
v 8.341323 25.326200 2.849776
vn 0.880411 0.386680 0.274508
v 6.243377 29.312679 2.583294
vn 0.456847 0.814929 -0.356626
v 9.947949 22.088760 -6.416266
vn 0.507431 0.852823 -0.123320
v 11.509438 22.925552 -0.715980
vn 0.132770 0.770630 0.623299
v -0.000008 24.130091 9.949575
vn 0.215915 -0.288798 0.932725
v -0.000009 34.192570 4.691571
vn 0.346860 -0.379370 0.857768
v 2.954907 34.272030 4.032145
vn 0.512703 -0.704532 -0.490684
v 2.956987 33.258080 -3.399609
vn 0.190308 -0.777885 -0.598897
v -0.000009 33.156891 -3.970095
vn 0.796209 -0.590068 -0.133684
v 4.555090 33.825001 -0.878637
vn 0.771622 -0.473695 0.424514
v 4.844695 34.173920 2.064963
vn 0.225624 0.259107 0.939126
v -0.000011 57.462101 22.124239
vn 0.216867 -0.142442 0.965753
v -0.000010 45.895458 22.502348
vn 0.414839 0.229474 0.880483
v 10.968894 57.870689 19.402918
vn 0.455455 -0.290013 0.841697
v 12.083285 46.093822 19.983778
vn 0.201920 0.655779 0.727449
v -0.000012 67.670090 17.781126
vn 0.345878 0.545018 0.763756
v 9.305363 67.436653 15.641277
vn 0.247742 0.800797 0.545296
v -0.000012 73.750481 9.808067
vn 0.342238 0.811988 0.472809
v 7.828205 72.331802 8.838533
vn 0.325790 0.774288 0.542530
v -0.000013 79.460350 1.659063
vn 0.391001 0.797196 0.459996
v 6.089115 77.175812 1.262979
vn 0.445455 0.362902 -0.818457
v 11.872415 59.676479 -19.568003
vn 0.444847 -0.074590 -0.892495
v 12.439925 46.647011 -21.096722
vn 0.211333 0.235899 -0.948520
v -0.000011 59.636509 -22.156462
vn 0.227923 -0.097249 -0.968811
v -0.000010 46.521641 -24.010761
vn 0.357646 0.717755 -0.597425
v 9.717856 70.063164 -13.702992
vn 0.201299 0.608937 -0.767252
v -0.000012 70.238457 -16.456583
vn 0.346152 0.876229 -0.335263
v 7.363804 73.797478 -6.888096
vn 0.176686 0.879105 -0.442670
v -0.000013 75.127380 -7.523023
vn 0.246405 0.892091 -0.378759
v -0.000013 79.460350 1.659063
vn 0.481223 0.844307 -0.235733
v 6.089115 77.175812 1.262979
vn 0.990658 -0.124712 -0.055176
v 24.532104 46.373993 0.275570
vn 0.684580 -0.728846 -0.011593
v 19.314865 38.135071 -1.141101
vn 0.844339 -0.245622 -0.476195
v 21.526024 46.790131 -12.502592
vn 0.566122 -0.777888 -0.272755
v 16.413475 37.807499 -11.215002
vn 0.959128 0.280919 0.034025
v 23.247643 58.523895 0.357311
vn 0.848076 0.233840 -0.475485
v 20.423162 58.957130 -11.439183
vn 0.865727 -0.242515 0.437839
v 21.575615 46.366993 12.601528
vn 0.493268 -0.783993 0.376884
v 16.336803 38.231838 7.588962
vn 0.300479 -0.809458 0.504469
v 9.411173 38.453800 14.680588
vn 0.418909 -0.692380 -0.587474
v 10.388927 37.281601 -17.233442
vn 0.720878 0.591859 -0.360608
v 16.021072 68.691658 -8.085146
vn 0.787223 0.283883 0.547440
v 20.409182 58.129734 11.964848
vn 0.645464 0.565770 0.513108
v 16.298872 66.909286 9.322346
vn 0.786289 0.611171 0.090663
v 17.975653 67.681931 0.497906
vn 0.591764 0.798284 0.112063
v 11.955412 72.240387 0.677438
vn 0.565628 0.814959 -0.126120
v 12.433112 71.316139 -4.641029
vn 0.550164 0.805474 0.220297
v 12.869053 70.716637 6.519368
vn 0.154336 -0.746959 0.646709
v -0.000009 38.320099 16.940289
vn 0.230931 -0.957101 -0.175011
v 6.519045 34.097149 -7.450684
vn 0.311067 -0.949833 0.032476
v 10.123016 34.467548 -1.710399
vn 0.261530 -0.941996 0.210345
v 8.581537 34.414291 2.966064
vn 0.130554 -0.939499 0.316696
v 4.981170 34.415321 6.679241
vn 0.062169 -0.956829 0.283926
v -0.000009 34.460331 7.843575
vn 0.168440 -0.961281 -0.218097
v -0.000009 33.599609 -10.292521
vn 0.211587 -0.693645 -0.688540
v -0.000009 36.762100 -19.860342
vn 0.457056 0.331343 0.825416
v 7.358621 18.462921 11.823699
vn 0.180311 0.200126 0.963036
v -0.000008 18.404169 13.201849
vn 0.374208 -0.122236 0.919253
v 7.209578 11.626921 12.182589
vn 0.186003 -0.152088 0.970707
v -0.000007 11.968021 13.546179
vn 0.293046 -0.474961 0.829781
v 6.254620 5.800024 10.636740
vn 0.162702 -0.608288 0.776862
v -0.000007 5.822856 11.953680
vn 0.215923 -0.860440 0.461541
v 5.151459 2.630358 6.674444
vn 0.120412 -0.904379 0.409389
v -0.000006 2.342595 7.395668
vn 0.151862 -0.948340 0.278550
v 4.553188 1.230322 1.966839
vn 0.134166 -0.942642 0.305657
v -0.000006 0.586649 1.980358
vn 0.213577 0.063199 -0.974880
v -0.000008 19.928419 -11.715641
vn 0.452082 0.217640 -0.865017
v 6.057952 20.911791 -10.363891
vn 0.187454 0.191218 -0.963482
v -0.000007 12.578199 -14.517651
vn 0.459603 0.067468 -0.885558
v 7.967091 13.672380 -12.724161
vn 0.219646 -0.322236 -0.920826
v -0.000007 6.167737 -13.467320
vn 0.445567 -0.456334 -0.770214
v 7.704181 6.819257 -11.966340
vn 0.183030 -0.780059 -0.598337
v -0.000006 1.338123 -8.962183
vn 0.314249 -0.852043 -0.418653
v 6.616759 2.075837 -7.959581
vn 0.131727 -0.984470 -0.116046
v -0.000006 0.247004 -3.599552
vn 0.225459 -0.972932 -0.050713
v 5.511756 0.936695 -3.313037
vn 0.200637 -0.975241 0.093003
v 4.553188 1.230322 1.966839
vn 0.129173 -0.989213 0.069086
v -0.000006 0.586649 1.980358
vn 0.876844 0.118803 -0.465866
v 9.947949 22.088760 -6.416266
vn 0.970529 0.240713 -0.011406
v 11.509438 22.925552 -0.715980
vn 0.812493 0.274037 -0.514547
v 13.365398 15.186061 -7.289429
vn 0.978101 0.197917 -0.064397
v 14.759507 16.625591 -0.379772
vn 0.867860 -0.183320 -0.461749
v 13.357059 8.276891 -6.623243
vn 0.990902 -0.128430 0.040244
v 15.020018 9.411785 0.224842
vn 0.781549 0.189097 0.594494
v 9.777688 23.765282 4.477190
vn 0.873743 0.308642 0.375916
v 13.029637 17.769852 6.971581
vn 0.498215 -0.070410 0.864190
v 5.732894 24.214130 8.624496
vn 0.677759 -0.654124 -0.335804
v 11.333649 3.676289 -4.462988
vn 0.804142 -0.130440 0.579950
v 13.345778 10.913992 7.857172
vn 0.565769 -0.530192 0.631507
v 11.057958 5.464612 6.932037
vn 0.808148 -0.528426 -0.260122
v 12.127379 4.453913 -1.941390
vn 0.920522 -0.360107 0.151532
v 13.493608 6.061518 0.545085
vn 0.838765 -0.410549 0.357662
v 12.065819 5.318532 3.613946
vn 0.314762 -0.947409 -0.057795
v 9.511575 2.069950 -1.888604
vn 0.136475 -0.988540 0.064529
v 8.127469 2.098861 1.481590
vn 0.383551 -0.816074 0.432333
v 9.465575 3.217585 4.387557
vn 0.193152 -0.940883 0.278266
v 8.127469 2.098861 1.481590
vn -0.491062 -0.840004 -0.230765
v 8.961755 1.808375 1.498330
vn -0.028570 -0.771265 -0.635872
v 10.169259 1.751196 -0.795272
vn 0.671152 -0.346959 -0.655115
v 12.238509 3.049111 -0.859141
vn 0.997832 -0.058588 0.029971
v 13.283789 4.094835 0.906463
vn 0.678124 -0.120935 0.724930
v 12.211729 3.663305 3.063707
vn -0.085373 -0.536946 0.839286
v 10.105219 2.545313 3.345712
vn -0.576537 -0.547228 0.606751
v 8.961755 1.808375 1.498330
vn -0.556387 -0.770390 -0.311340
v 9.995847 0.481521 1.681686
vn -0.005935 -0.757671 -0.652609
v 10.975129 0.435413 0.268172
vn 0.693012 -0.420819 -0.585360
v 12.469249 0.965156 0.175659
vn 0.966152 -0.183827 0.180991
v 13.318959 1.468290 1.413000
vn 0.485436 -0.253507 0.836711
v 12.485699 1.387802 2.872229
vn -0.301528 -0.587684 0.750805
v 11.069349 0.896030 2.981297
vn -0.438212 -0.686047 0.580784
v 9.995847 0.481521 1.681686
vn 0.306008 -0.940477 0.147858
v 12.003609 0.073874 1.744596
vn 0.193704 0.297039 0.935012
v -0.000008 24.130091 9.949575
vn 0.415862 -0.123107 -0.901057
v 6.953520 27.466579 -10.801251
vn 0.251849 -0.115768 -0.960817
v -0.000008 25.912100 -12.436611
vn 0.952746 -0.300757 -0.042666
v 13.152436 27.952883 0.458095
vn 0.814093 -0.188799 -0.549189
v 11.197647 26.475349 -6.131529
vn 0.773344 -0.479468 0.414789
v 11.002687 27.026081 6.477687
vn 0.477226 -0.557127 0.679607
v 6.537579 28.255522 11.251169
vn 0.278767 -0.661439 0.696267
v -0.000008 26.251801 12.855539
vn 0.556601 0.135327 0.819684
v -6.057969 20.911789 -10.363891
vn 0.242150 0.106388 0.964388
v -0.000008 19.928419 -11.715641
vn 0.415861 0.123107 0.901057
v -6.953537 27.466578 -10.801251
vn 0.251849 0.115768 0.960817
v -0.000008 25.912100 -12.436611
vn 0.921762 0.369459 -0.117704
v -11.509451 22.925549 -0.715980
vn 0.904339 0.235374 0.356047
v -9.947953 22.088758 -6.416264
vn 0.952745 0.300760 0.042665
v -13.152462 27.952879 0.458096
vn 0.814093 0.188801 0.549188
v -11.197671 26.475338 -6.131528
vn 0.623017 0.546819 -0.559320
v -9.777706 23.765280 4.477191
vn 0.773344 0.479468 -0.414789
v -11.002701 27.026079 6.477683
vn 0.385448 0.622668 -0.680966
v -5.732912 24.214130 8.624497
vn 0.477226 0.557127 -0.679607
v -6.537597 28.255520 11.251169
vn 0.146535 0.798922 -0.583311
v -0.000008 24.130091 9.949575
vn 0.278767 0.661439 -0.696267
v -0.000008 26.251801 12.855539
vn -0.242150 0.106388 0.964388
v -0.000008 19.928419 -11.715641
vn -0.556601 0.135326 0.819684
v 6.057952 20.911791 -10.363891
vn -0.415862 0.123107 0.901057
v 6.953520 27.466579 -10.801251
vn -0.251849 0.115768 0.960817
v -0.000008 25.912100 -12.436611
vn -0.904340 0.235371 0.356048
v 9.947949 22.088760 -6.416266
vn -0.921763 0.369458 -0.117704
v 11.509438 22.925552 -0.715980
vn -0.952746 0.300757 0.042666
v 13.152436 27.952883 0.458095
vn -0.814093 0.188799 0.549189
v 11.197647 26.475349 -6.131529
vn -0.623017 0.546820 -0.559320
v 9.777688 23.765282 4.477190
vn -0.773344 0.479468 -0.414789
v 11.002687 27.026081 6.477687
vn -0.385449 0.622668 -0.680966
v 5.732894 24.214130 8.624496
vn -0.477226 0.557127 -0.679607
v 6.537579 28.255522 11.251169
vn -0.146536 0.798922 -0.583311
v -0.000008 24.130091 9.949575
vn -0.278767 0.661439 -0.696267
v -0.000008 26.251801 12.855539
# 296 vertices, 0 vertices normals


usemtl material_0
vt 0.706253 0.090872
vt 0.689709 0.090891
vt 0.740233 0.052796
f 1/1/1 2/2/2 3/3/3
vt 0.775112 0.052798
f 3/3/3 4/4/4 1/1/1
vt 0.749163 0.038585
vt 0.767617 0.038594
f 3/3/3 5/5/5 6/6/6
vt 0.470387 0.090617
vt 0.397061 0.090761
vt 0.313219 0.052788
f 7/7/7 8/8/8 9/9/9
vt 0.414163 0.052767
f 9/9/9 10/10/10 7/7/7
vt 0.271759 0.038367
f 10/10/10 9/9/9 11/11/11
vt 0.379576 0.038377
f 11/11/11 12/12/12 10/10/10
vt 0.522347 0.052783
f 7/7/7 10/10/10 13/13/13
vt 0.542761 0.090487
f 13/13/13 14/14/14 7/7/7
vt 0.658854 0.052796
f 14/14/14 13/13/13 15/15/15
vt 0.632133 0.090766
f 15/15/15 16/16/16 14/14/14
f 16/16/16 15/15/15 3/3/3
f 3/3/3 2/2/2 16/16/16
vt 0.511856 0.038437
f 15/15/15 13/13/13 17/17/17
vt 0.651181 0.038569
f 17/17/17 18/18/18 15/15/15
f 17/17/17 13/13/13 10/10/10
f 10/10/10 12/12/12 17/17/17
f 15/15/15 18/18/18 5/5/5
f 5/5/5 3/3/3 15/15/15
vt 0.811279 0.038586
f 6/6/6 19/19/19 4/4/4
f 4/4/4 3/3/3 6/6/6
vt 0.705996 0.119499
vt 0.692333 0.120211
f 1/1/1 20/20/20 21/21/21
f 21/21/21 2/2/2 1/1/1
vt 0.471785 0.115458
vt 0.397061 0.113335
f 7/7/7 22/22/22 23/23/23
f 23/23/23 8/8/8 7/7/7
vt 0.546515 0.118368
f 14/14/14 24/24/24 22/22/22
f 22/22/22 7/7/7 14/14/14
vt 0.627007 0.120103
f 16/16/16 25/25/25 24/24/24
f 24/24/24 14/14/14 16/16/16
f 2/2/2 21/21/21 25/25/25
f 25/25/25 16/16/16 2/2/2
vt 0.986818 0.290969
vt 0.990893 0.362628
vt 0.859063 0.364581
f 26/26/26 27/27/27 28/28/28
vt 0.843632 0.290009
f 28/28/28 29/29/29 26/26/26
vt 0.937920 0.438593
vt 0.819461 0.434729
f 27/27/27 30/30/30 31/31/31
f 31/31/31 28/28/28 27/27/27
vt 0.841741 0.496007
vt 0.766067 0.480164
f 30/30/30 32/32/32 33/33/33
f 33/33/33 31/31/31 30/30/30
vt 0.758206 0.568546
vt 0.694396 0.547595
f 32/32/32 34/34/34 35/35/35
f 35/35/35 33/33/33 32/32/32
vt 0.183970 0.290699
vt 0.192533 0.370378
vt 0.037619 0.375208
f 36/36/36 37/37/37 38/38/38
vt 0.018602 0.295001
f 38/38/38 39/39/39 36/36/36
vt 0.226551 0.442464
vt 0.086204 0.444153
f 37/37/37 40/40/40 41/41/41
f 41/41/41 38/38/38 37/37/37
vt 0.252813 0.483869
vt 0.155224 0.492283
f 40/40/40 42/42/42 43/43/43
f 43/43/43 41/41/41 40/40/40
vt 0.243837 0.568558
f 44/44/44 43/43/43 42/42/42
vt 0.291310 0.548608
f 42/42/42 45/45/45 44/44/44
vt 0.519662 0.218051
vt 0.530120 0.287124
vt 0.354678 0.289931
f 46/46/46 47/47/47 48/48/48
vt 0.370412 0.218096
f 48/48/48 49/49/49 46/46/46
vt 0.523951 0.369411
vt 0.359792 0.369412
f 47/47/47 50/50/50 51/51/51
f 51/51/51 48/48/48 47/47/47
vt 0.692453 0.290014
f 52/52/52 47/47/47 46/46/46
vt 0.669217 0.217976
f 46/46/46 53/53/53 52/52/52
vt 0.807618 0.217984
f 53/53/53 54/54/54 29/29/29
f 29/29/29 52/52/52 53/53/53
vt 0.212064 0.218047
f 48/48/48 36/36/36 55/55/55
f 55/55/55 49/49/49 48/48/48
f 36/36/36 48/48/48 51/51/51
f 51/51/51 37/37/37 36/36/36
vt 0.387485 0.442622
f 37/37/37 51/51/51 56/56/56
f 56/56/56 40/40/40 37/37/37
vt 0.687253 0.367479
f 52/52/52 57/57/57 50/50/50
f 50/50/50 47/47/47 52/52/52
f 29/29/29 28/28/28 57/57/57
f 57/57/57 52/52/52 29/29/29
vt 0.676872 0.438120
f 28/28/28 31/31/31 58/58/58
f 58/58/58 57/57/57 28/28/28
vt 0.522682 0.443458
f 50/50/50 59/59/59 56/56/56
f 56/56/56 51/51/51 50/50/50
f 57/57/57 58/58/58 59/59/59
f 59/59/59 50/50/50 57/57/57
vt 0.367611 0.476175
vt 0.504373 0.503760
f 60/60/60 61/61/61 45/45/45
f 45/45/45 42/42/42 60/60/60
f 58/58/58 31/31/31 33/33/33
vt 0.667131 0.471318
f 33/33/33 62/62/62 58/58/58
f 56/56/56 60/60/60 42/42/42
f 42/42/42 40/40/40 56/56/56
f 61/61/61 62/62/62 33/33/33
f 33/33/33 35/35/35 61/61/61
f 60/60/60 56/56/56 59/59/59
f 59/59/59 61/61/61 60/60/60
f 62/62/62 61/61/61 59/59/59
f 59/59/59 58/58/58 62/62/62
vt 0.956257 0.217971
f 29/29/29 54/54/54 63/63/63
f 63/63/63 26/26/26 29/29/29
vt 0.376881 0.153806
f 46/46/46 49/49/49 64/64/64
vt 0.504046 0.157911
f 64/64/64 65/65/65 46/46/46
f 53/53/53 46/46/46 65/65/65
vt 0.601546 0.160689
f 65/65/65 66/66/66 53/53/53
f 54/54/54 53/53/53 66/66/66
vt 0.682062 0.154593
f 66/66/66 67/67/67 54/54/54
f 49/49/49 55/55/55 64/64/64
f 63/63/63 54/54/54 67/67/67
vt 0.803700 0.151211
f 67/67/67 68/68/68 63/63/63
f 65/65/65 64/64/64 22/22/22
f 22/22/22 24/24/24 65/65/65
f 66/66/66 65/65/65 24/24/24
f 24/24/24 25/25/25 66/66/66
f 67/67/67 66/66/66 25/25/25
f 25/25/25 21/21/21 67/67/67
f 68/68/68 67/67/67 21/21/21
f 21/21/21 20/20/20 68/68/68
f 23/23/23 22/22/22 64/64/64
vt 0.164970 0.152966
f 64/64/64 69/69/69 23/23/23
vt 0.050553 0.218053
f 64/64/64 55/55/55 70/70/70
f 70/70/70 69/69/69 64/64/64
f 70/70/70 55/55/55 36/36/36
f 36/36/36 39/39/39 70/70/70
vt 0.030717 0.852561
vt 0.189348 0.854497
vt 0.184855 0.781976
f 71/71/71 72/72/72 73/73/73
vt 0.033229 0.784338
f 73/73/73 74/74/74 71/71/71
vt 0.168451 0.716850
f 74/74/74 73/73/73 75/75/75
vt 0.035687 0.717567
f 75/75/75 76/76/76 74/74/74
vt 0.156443 0.685050
f 76/76/76 75/75/75 77/77/77
vt 0.036921 0.684054
f 77/77/77 78/78/78 76/76/76
vt 0.143761 0.666126
f 78/78/78 77/77/77 79/79/79
vt 0.037616 0.665174
f 79/79/79 80/80/80 78/78/78
vt 0.808237 0.889214
vt 0.983902 0.878788
vt 0.986957 0.795791
f 81/81/81 82/82/82 83/83/83
vt 0.800758 0.805852
f 83/83/83 84/84/84 81/81/81
vt 0.989081 0.738128
f 84/84/84 83/83/83 85/85/85
vt 0.809311 0.733257
f 85/85/85 86/86/86 84/84/84
vt 0.990394 0.702457
f 86/86/86 85/85/85 87/87/87
vt 0.834810 0.701171
f 87/87/87 88/88/88 86/86/86
vt 0.990782 0.691921
f 88/88/88 87/87/87 89/89/89
vt 0.859901 0.690852
f 89/89/89 90/90/90 88/88/88
vt 0.991474 0.673115
vt 0.878093 0.672249
f 91/91/91 92/92/92 90/90/90
f 90/90/90 89/89/89 91/91/91
vt 0.492502 0.902869
vt 0.682753 0.894115
vt 0.644703 0.821820
f 93/93/93 94/94/94 95/95/95
vt 0.494961 0.836090
f 95/95/95 96/96/96 93/93/93
vt 0.647586 0.748585
f 96/96/96 95/95/95 97/97/97
vt 0.497776 0.759623
f 97/97/97 98/98/98 96/96/96
vt 0.349923 0.846661
vt 0.327110 0.911859
f 99/99/99 100/100/100 93/93/93
f 93/93/93 96/96/96 99/99/99
f 100/100/100 99/99/99 72/72/72
vt 0.160932 0.915243
f 72/72/72 101/101/101 100/100/100
f 95/95/95 94/94/94 81/81/81
f 81/81/81 84/84/84 95/95/95
f 84/84/84 86/86/86 97/97/97
f 97/97/97 95/95/95 84/84/84
vt 0.673754 0.709013
f 86/86/86 88/88/88 102/102/102
f 102/102/102 97/97/97 86/86/86
f 99/99/99 96/96/96 98/98/98
vt 0.343074 0.773911
f 98/98/98 103/103/103 99/99/99
f 72/72/72 99/99/99 103/103/103
f 103/103/103 73/73/73 72/72/72
vt 0.320778 0.717756
f 73/73/73 103/103/103 104/104/104
f 104/104/104 75/75/75 73/73/73
f 98/98/98 97/97/97 102/102/102
vt 0.580933 0.715137
f 98/98/98 102/102/102 105/105/105
vt 0.499084 0.724112
f 98/98/98 105/105/105 106/106/106
f 103/103/103 98/98/98 106/106/106
vt 0.435284 0.717157
f 103/103/103 106/106/106 107/107/107
f 103/103/103 107/107/107 104/104/104
vt 0.672083 0.698530
f 108/108/108 90/90/90 92/92/92
vt 0.730991 0.688669
f 92/92/92 109/109/109 108/108/108
vt 0.315158 0.700868
f 104/104/104 110/110/110 77/77/77
f 77/77/77 75/75/75 104/104/104
f 102/102/102 88/88/88 90/90/90
f 90/90/90 108/108/108 102/102/102
vt 0.285830 0.684984
f 111/111/111 79/79/79 77/77/77
f 77/77/77 110/110/110 111/111/111
f 110/110/110 104/104/104 107/107/107
f 105/105/105 102/102/102 108/108/108
vt 0.671841 0.674303
f 108/108/108 109/109/109 112/112/112
vt 0.627289 0.683103
f 112/112/112 113/113/113 108/108/108
f 105/105/105 108/108/108 113/113/113
vt 0.569428 0.692754
f 113/113/113 114/114/114 105/105/105
vt 0.499985 0.699633
f 107/107/107 106/106/106 115/115/115
vt 0.439325 0.696006
f 115/115/115 116/116/116 107/107/107
vt 0.354572 0.684902
f 111/111/111 110/110/110 117/117/117
vt 0.331037 0.671485
f 117/117/117 118/118/118 111/111/111
f 110/110/110 107/107/107 116/116/116
f 116/116/116 117/117/117 110/110/110
f 106/106/106 105/105/105 114/114/114
f 114/114/114 115/115/115 106/106/106
vt 0.639948 0.653016
f 113/113/113 112/112/112 119/119/119
vt 0.604117 0.656605
f 119/119/119 120/120/120 113/113/113
f 114/114/114 113/113/113 120/120/120
vt 0.551725 0.658882
f 120/120/120 121/121/121 114/114/114
vt 0.501358 0.662347
f 116/116/116 115/115/115 122/122/122
vt 0.446689 0.662494
f 122/122/122 123/123/123 116/116/116
vt 0.386366 0.656779
f 118/118/118 117/117/117 124/124/124
vt 0.354929 0.650683
f 124/124/124 125/125/125 118/118/118
f 117/117/117 116/116/116 123/123/123
f 123/123/123 124/124/124 117/117/117
f 115/115/115 114/114/114 121/121/121
f 121/121/121 122/122/122 115/115/115
vt 0.500851 0.637962
f 120/120/120 119/119/119 126/126/126
f 121/121/121 120/120/120 126/126/126
f 123/123/123 122/122/122 126/126/126
f 125/125/125 124/124/124 126/126/126
f 124/124/124 123/123/123 126/126/126
f 122/122/122 121/121/121 126/126/126
vt 0.028482 0.913255
f 72/72/72 71/71/71 127/127/127
f 127/127/127 101/101/101 72/72/72
vt 0.818034 0.952257
f 82/82/82 81/81/81 128/128/128
vt 0.981753 0.937130
f 128/128/128 129/129/129 82/82/82
vt 0.490540 0.956158
f 94/94/94 93/93/93 130/130/130
vt 0.653065 0.940381
f 130/130/130 131/131/131 94/94/94
vt 0.340496 0.946545
f 93/93/93 100/100/100 132/132/132
f 132/132/132 130/130/130 93/93/93
vt 0.203426 0.958447
f 100/100/100 101/101/101 133/133/133
f 133/133/133 132/132/132 100/100/100
f 81/81/81 94/94/94 131/131/131
f 131/131/131 128/128/128 81/81/81
vt 0.027654 0.935746
f 101/101/101 127/127/127 134/134/134
f 134/134/134 133/133/133 101/101/101
f 135/2/135 136/1/136 137/3/137
f 138/4/138 137/3/137 136/1/136
f 139/5/139 137/3/137 140/6/140
f 141/8/141 142/7/142 143/9/143
f 144/10/144 143/9/143 142/7/142
f 143/9/143 144/10/144 145/11/145
f 146/12/146 145/11/145 144/10/144
f 144/10/144 142/7/142 147/13/147
f 148/14/148 147/13/147 142/7/142
f 147/13/147 148/14/148 149/15/149
f 150/16/150 149/15/149 148/14/148
f 149/15/149 150/16/150 137/3/137
f 135/2/135 137/3/137 150/16/150
f 147/13/147 149/15/149 151/17/151
f 152/18/152 151/17/151 149/15/149
f 147/13/147 151/17/151 144/10/144
f 146/12/146 144/10/144 151/17/151
f 152/18/152 149/15/149 139/5/139
f 137/3/137 139/5/139 149/15/149
f 153/19/153 140/6/140 138/4/138
f 137/3/137 138/4/138 140/6/140
f 154/20/154 136/1/136 155/21/155
f 135/2/135 155/21/155 136/1/136
f 156/22/156 142/7/142 157/23/157
f 141/8/141 157/23/157 142/7/142
f 158/24/158 148/14/148 156/22/156
f 142/7/142 156/22/156 148/14/148
f 159/25/159 150/16/150 158/24/158
f 148/14/148 158/24/158 150/16/150
f 155/21/155 135/2/135 159/25/159
f 150/16/150 159/25/159 135/2/135
f 160/27/160 161/26/161 162/28/162
f 163/29/163 162/28/162 161/26/161
f 164/30/164 160/27/160 165/31/165
f 162/28/162 165/31/165 160/27/160
f 166/32/166 164/30/164 167/33/167
f 165/31/165 167/33/167 164/30/164
f 168/34/168 166/32/166 169/35/169
f 167/33/167 169/35/169 166/32/166
f 170/37/170 171/36/171 172/38/172
f 173/39/173 172/38/172 171/36/171
f 174/40/174 170/37/170 175/41/175
f 172/38/172 175/41/175 170/37/170
f 176/42/176 174/40/174 177/43/177
f 175/41/175 177/43/177 174/40/174
f 177/43/177 178/44/178 176/42/176
f 179/45/179 176/42/176 178/44/178
f 180/47/180 181/46/181 182/48/182
f 183/49/183 182/48/182 181/46/181
f 184/50/184 180/47/180 185/51/185
f 182/48/182 185/51/185 180/47/180
f 180/47/180 186/52/186 181/46/181
f 187/53/187 181/46/181 186/52/186
f 188/54/188 187/53/187 163/29/163
f 186/52/186 163/29/163 187/53/187
f 171/36/171 182/48/182 189/55/189
f 183/49/183 189/55/189 182/48/182
f 182/48/182 171/36/171 185/51/185
f 170/37/170 185/51/185 171/36/171
f 185/51/185 170/37/170 190/56/190
f 174/40/174 190/56/190 170/37/170
f 191/57/191 186/52/186 184/50/184
f 180/47/180 184/50/184 186/52/186
f 162/28/162 163/29/163 191/57/191
f 186/52/186 191/57/191 163/29/163
f 165/31/165 162/28/162 192/58/192
f 191/57/191 192/58/192 162/28/162
f 193/59/193 184/50/184 190/56/190
f 185/51/185 190/56/190 184/50/184
f 192/58/192 191/57/191 193/59/193
f 184/50/184 193/59/193 191/57/191
f 194/61/194 195/60/195 179/45/179
f 176/42/176 179/45/179 195/60/195
f 165/31/165 192/58/192 167/33/167
f 196/62/196 167/33/167 192/58/192
f 195/60/195 190/56/190 176/42/176
f 174/40/174 176/42/176 190/56/190
f 196/62/196 194/61/194 167/33/167
f 169/35/169 167/33/167 194/61/194
f 190/56/190 195/60/195 193/59/193
f 194/61/194 193/59/193 195/60/195
f 194/61/194 196/62/196 193/59/193
f 192/58/192 193/59/193 196/62/196
f 188/54/188 163/29/163 197/63/197
f 161/26/161 197/63/197 163/29/163
f 183/49/183 181/46/181 198/64/198
f 199/65/199 198/64/198 181/46/181
f 181/46/181 187/53/187 199/65/199
f 200/66/200 199/65/199 187/53/187
f 187/53/187 188/54/188 200/66/200
f 201/67/201 200/66/200 188/54/188
f 189/55/189 183/49/183 198/64/198
f 188/54/188 197/63/197 201/67/201
f 202/68/202 201/67/201 197/63/197
f 198/64/198 199/65/199 156/22/156
f 158/24/158 156/22/156 199/65/199
f 199/65/199 200/66/200 158/24/158
f 159/25/159 158/24/158 200/66/200
f 200/66/200 201/67/201 159/25/159
f 155/21/155 159/25/159 201/67/201
f 201/67/201 202/68/202 155/21/155
f 154/20/154 155/21/155 202/68/202
f 156/22/156 157/23/157 198/64/198
f 203/69/203 198/64/198 157/23/157
f 189/55/189 198/64/198 204/70/204
f 203/69/203 204/70/204 198/64/198
f 189/55/189 204/70/204 171/36/171
f 173/39/173 171/36/171 204/70/204
f 205/72/205 206/71/206 207/73/207
f 208/74/208 207/73/207 206/71/206
f 207/73/207 208/74/208 209/75/209
f 210/76/210 209/75/209 208/74/208
f 209/75/209 210/76/210 211/77/211
f 212/78/212 211/77/211 210/76/210
f 211/77/211 212/78/212 213/79/213
f 214/80/214 213/79/213 212/78/212
f 215/82/215 216/81/216 217/83/217
f 218/84/218 217/83/217 216/81/216
f 217/83/217 218/84/218 219/85/219
f 220/86/220 219/85/219 218/84/218
f 219/85/219 220/86/220 221/87/221
f 222/88/222 221/87/221 220/86/220
f 221/87/221 222/88/222 223/89/223
f 224/90/224 223/89/223 222/88/222
f 225/92/225 226/91/226 224/90/224
f 223/89/223 224/90/224 226/91/226
f 227/94/227 228/93/228 229/95/229
f 230/96/230 229/95/229 228/93/228
f 229/95/229 230/96/230 231/97/231
f 232/98/232 231/97/231 230/96/230
f 233/100/233 234/99/234 228/93/228
f 230/96/230 228/93/228 234/99/234
f 234/99/234 233/100/233 205/72/205
f 235/101/235 205/72/205 233/100/233
f 227/94/227 229/95/229 216/81/216
f 218/84/218 216/81/216 229/95/229
f 220/86/220 218/84/218 231/97/231
f 229/95/229 231/97/231 218/84/218
f 222/88/222 220/86/220 236/102/236
f 231/97/231 236/102/236 220/86/220
f 230/96/230 234/99/234 232/98/232
f 237/103/237 232/98/232 234/99/234
f 234/99/234 205/72/205 237/103/237
f 207/73/207 237/103/237 205/72/205
f 237/103/237 207/73/207 238/104/238
f 209/75/209 238/104/238 207/73/207
f 231/97/231 232/98/232 236/102/236
f 236/102/236 232/98/232 239/105/239
f 239/105/239 232/98/232 240/106/240
f 232/98/232 237/103/237 240/106/240
f 240/106/240 237/103/237 241/107/241
f 241/107/241 237/103/237 238/104/238
f 224/90/224 242/108/242 225/92/225
f 243/109/243 225/92/225 242/108/242
f 244/110/244 238/104/238 211/77/211
f 209/75/209 211/77/211 238/104/238
f 222/88/222 236/102/236 224/90/224
f 242/108/242 224/90/224 236/102/236
f 213/79/213 245/111/245 211/77/211
f 244/110/244 211/77/211 245/111/245
f 238/104/238 244/110/244 241/107/241
f 236/102/236 239/105/239 242/108/242
f 243/109/243 242/108/242 246/112/246
f 247/113/247 246/112/246 242/108/242
f 242/108/242 239/105/239 247/113/247
f 248/114/248 247/113/247 239/105/239
f 240/106/240 241/107/241 249/115/249
f 250/116/250 249/115/249 241/107/241
f 244/110/244 245/111/245 251/117/251
f 252/118/252 251/117/251 245/111/245
f 241/107/241 244/110/244 250/116/250
f 251/117/251 250/116/250 244/110/244
f 239/105/239 240/106/240 248/114/248
f 249/115/249 248/114/248 240/106/240
f 246/112/246 247/113/247 253/119/253
f 254/120/254 253/119/253 247/113/247
f 247/113/247 248/114/248 254/120/254
f 255/121/255 254/120/254 248/114/248
f 249/115/249 250/116/250 256/122/256
f 257/123/257 256/122/256 250/116/250
f 251/117/251 252/118/252 258/124/258
f 259/125/259 258/124/258 252/118/252
f 250/116/250 251/117/251 257/123/257
f 258/124/258 257/123/257 251/117/251
f 248/114/248 249/115/249 255/121/255
f 256/122/256 255/121/255 249/115/249
f 253/119/253 254/120/254 260/126/260
f 254/120/254 255/121/255 260/126/260
f 256/122/256 257/123/257 260/126/260
f 258/124/258 259/125/259 260/126/260
f 257/123/257 258/124/258 260/126/260
f 255/121/255 256/122/256 260/126/260
f 206/71/206 205/72/205 261/127/261
f 235/101/235 261/127/261 205/72/205
f 216/81/216 215/82/215 262/128/262
f 263/129/263 262/128/262 215/82/215
f 228/93/228 227/94/227 264/130/264
f 265/131/265 264/130/264 227/94/227
f 233/100/233 228/93/228 266/132/266
f 264/130/264 266/132/266 228/93/228
f 235/101/235 233/100/233 267/133/267
f 266/132/266 267/133/267 233/100/233
f 227/94/227 216/81/216 265/131/265
f 262/128/262 265/131/265 216/81/216
f 261/127/261 235/101/235 268/134/268
f 267/133/267 268/134/268 235/101/235
f 269/81/269 270/82/270 271/128/271
f 272/129/272 271/128/271 270/82/270
f 273/93/273 274/94/274 275/130/275
f 276/131/276 275/130/275 274/94/274
f 277/100/277 273/93/273 278/132/278
f 275/130/275 278/132/278 273/93/273
f 279/101/279 277/100/277 280/133/280
f 278/132/278 280/133/280 277/100/277
f 274/94/274 269/81/269 276/131/276
f 271/128/271 276/131/276 269/81/269
f 281/127/281 279/101/279 282/134/282
f 280/133/280 282/134/282 279/101/279
f 283/82/283 284/81/284 285/128/285
f 285/128/285 286/129/286 283/82/283
f 287/94/287 288/93/288 289/130/289
f 289/130/289 290/131/290 287/94/287
f 288/93/288 291/100/291 292/132/292
f 292/132/292 289/130/289 288/93/288
f 291/100/291 293/101/293 294/133/294
f 294/133/294 292/132/292 291/100/291
f 284/81/284 287/94/287 290/131/290
f 290/131/290 285/128/285 284/81/284
f 293/101/293 295/127/295 296/134/296
f 296/134/296 294/133/294 293/101/293
# 436 faces, 134 coords texture

# End of File