####
#
# OBJ File Generated by Meshlab
#
####
# Object shoulder.obj
#
# Vertices: 377
# Faces: 329
#
####
mtllib ./shoulder.obj.mtl

vn -2.646533 1.200358 -0.383400
v -0.686400 0.224400 -0.666600 0.752941 0.752941 0.752941
vn -2.323728 1.633974 -0.454285
v -0.673200 0.224400 -0.785400 0.752941 0.752941 0.752941
vn -2.846829 0.371370 -0.559233
v -0.699600 0.105600 -0.798600 0.752941 0.752941 0.752941
vn -2.828162 -0.071962 -0.679988
v -0.726000 0.092400 -0.693000 0.752941 0.752941 0.752941
vn -1.681359 2.313845 -0.614161
v -0.594000 0.330000 -0.666600 0.752941 0.752941 0.752941
vn -1.315683 2.563442 -0.709250
v -0.580800 0.303600 -0.772200 0.752941 0.752941 0.752941
vn -0.604181 2.774251 -0.699430
v -0.462000 0.369600 -0.693000 0.752941 0.752941 0.752941
vn -0.133861 2.793802 -0.779431
v -0.475200 0.343200 -0.798600 0.752941 0.752941 0.752941
vn 0.798025 2.556065 -1.104808
v -0.316800 0.343200 -0.732600 0.752941 0.752941 0.752941
vn 1.236818 2.350729 -1.214189
v -0.369600 0.316800 -0.825000 0.752941 0.752941 0.752941
vn 1.874785 1.763445 -1.388582
v -0.224400 0.237600 -0.772200 0.752941 0.752941 0.752941
vn -2.616654 -0.986675 -0.846033
v -0.673200 0.000000 -0.825000 0.752941 0.752941 0.752941
vn -0.761415 0.523656 -2.821215
v -0.277200 0.237600 -0.851400 0.752941 0.752941 0.752941
vn 2.309752 0.093929 -1.743251
v -0.250800 0.132000 -0.891000 0.752941 0.752941 0.752941
vn 2.376276 0.596455 -1.586562
v -0.184800 0.105600 -0.798600 0.752941 0.752941 0.752941
vn 1.745151 -1.124308 -2.097291
v -0.290400 0.013200 -0.904200 0.752941 0.752941 0.752941
vn 2.051942 -0.756946 -1.968932
v -0.224400 -0.026400 -0.825000 0.752941 0.752941 0.752941
vn 0.783621 -2.002998 -1.984302
v -0.369600 -0.066000 -0.904200 0.752941 0.752941 0.752941
vn 1.108832 -1.699893 -2.087814
v -0.316800 -0.132000 -0.825000 0.752941 0.752941 0.752941
vn -0.467346 -2.347140 -1.622152
v -0.475200 -0.105600 -0.891000 0.752941 0.752941 0.752941
vn -0.040618 -2.305670 -1.770917
v -0.462000 -0.171600 -0.798600 0.752941 0.752941 0.752941
vn -1.416542 -2.136334 -1.413281
v -0.594000 -0.132000 -0.772200 0.752941 0.752941 0.752941
vn -1.794512 -1.946204 -1.257628
v -0.594000 -0.079200 -0.851400 0.752941 0.752941 0.752941
vn -2.396929 -1.382093 -0.965665
v -0.686400 -0.039600 -0.732600 0.752941 0.752941 0.752941
vn 1.114048 -0.859732 4.786714
v -0.316800 0.343200 -0.732600 0.752941 0.752941 0.752941
vn 0.787140 -0.657017 2.811486
v -0.594000 0.330000 -0.666600 0.752941 0.752941 0.752941
vn 1.116521 -1.163144 4.722961
v -0.726000 0.092400 -0.693000 0.752941 0.752941 0.752941
vn 0.315735 -0.276268 0.907737
v -0.686400 0.224400 -0.666600 0.752941 0.752941 0.752941
vn 0.751006 -0.568530 2.830425
v -0.184800 0.105600 -0.798600 0.752941 0.752941 0.752941
vn 1.037883 -0.913275 4.776958
v -0.316800 -0.132000 -0.825000 0.752941 0.752941 0.752941
vn 0.289600 -0.103429 0.951543
v -0.224400 0.237600 -0.772200 0.752941 0.752941 0.752941
vn 0.544734 -0.495624 2.893999
v -0.594000 -0.132000 -0.772200 0.752941 0.752941 0.752941
vn 0.235702 -0.145046 0.960940
v -0.462000 0.369600 -0.693000 0.752941 0.752941 0.752941
vn 0.315735 -0.276268 0.907738
v -0.224400 -0.026400 -0.825000 0.752941 0.752941 0.752941
vn 0.187021 -0.031171 0.981861
v -0.462000 -0.171600 -0.798600 0.752941 0.752941 0.752941
vn 0.175629 -0.234171 0.956200
v -0.686400 -0.039600 -0.732600 0.752941 0.752941 0.752941
vn -0.404232 3.671738 -0.122606
v -0.343200 0.950400 -0.112200 0.752941 0.752941 0.752941
vn -0.098650 1.793865 0.843067
v -0.396000 0.844800 0.204600 0.752941 0.752941 0.752941
vn 0.411520 5.826135 3.435009
v -0.184800 0.831600 0.257400 0.752941 0.752941 0.752941
vn 0.316275 3.472533 -0.087279
v -0.132000 0.990000 -0.099000 0.752941 0.752941 0.752941
vn -0.408980 0.496584 -1.891596
v -0.673200 0.237600 -0.679800 0.752941 0.752941 0.752941
vn -0.837381 2.364382 -7.508116
v -0.316800 0.330000 -0.732600 0.752941 0.752941 0.752941
vn -0.475129 0.606260 -2.896275
v -0.567600 0.092400 -0.732600 0.752941 0.752941 0.752941
vn -0.295454 0.764356 -1.809467
v -0.541200 0.462000 -0.640200 0.752941 0.752941 0.752941
vn 0.041288 2.872725 2.735056
v -0.462000 0.739200 0.363000 0.752941 0.752941 0.752941
vn 0.455803 5.586010 -3.824272
v -0.171600 0.844800 -0.389400 0.752941 0.752941 0.752941
vn -0.326478 2.324229 -3.183208
v -0.448800 0.673200 -0.534600 0.752941 0.752941 0.752941
vn 1.120199 7.247115 -0.010996
v 0.105600 0.897600 -0.099000 0.752941 0.752941 0.752941
vn 0.241117 0.864181 1.748342
v -0.778800 0.303600 0.719400 0.752941 0.752941 0.752941
vn 0.024535 1.196502 1.601327
v -0.871200 0.475200 0.600600 0.752941 0.752941 0.752941
vn -0.363188 0.567060 -2.919918
v -0.277200 0.039600 -0.785400 0.752941 0.752941 0.752941
vn 0.814871 3.558227 5.802230
v -0.435600 0.501600 0.574200 0.752941 0.752941 0.752941
vn 0.077204 1.289014 1.524941
v -0.594000 0.620399 0.481800 0.752941 0.752941 0.752941
vn 0.812091 3.406064 4.768124
v -0.277200 0.646800 0.442200 0.752941 0.752941 0.752941
vn -0.142110 1.647211 -1.065826
v -0.369600 0.844800 -0.363000 0.752941 0.752941 0.752941
vn 0.233838 3.800744 -5.694955
v -0.105600 0.567600 -0.640200 0.752941 0.752941 0.752941
vn 1.183022 2.368128 6.426612
v -0.198000 0.250800 0.613800 0.752941 0.752941 0.752941
vn 0.338045 4.567459 -3.506285
v 0.039600 0.765600 -0.415800 0.752941 0.752941 0.752941
vn 0.356396 1.068615 2.774160
v 0.250800 0.330000 0.508200 0.752941 0.752941 0.752941
vn 0.197238 0.577536 1.896763
v 0.039600 0.039600 0.653400 0.752941 0.752941 0.752941
vn 0.569974 2.244386 4.388990
v 0.000000 0.501600 0.468600 0.752941 0.752941 0.752941
vn 0.512744 5.015998 4.388860
v 0.105600 0.752400 0.283800 0.752941 0.752941 0.752941
vn 0.040156 2.778540 1.110094
v 0.488400 0.818400 0.125400 0.752941 0.752941 0.752941
vn -0.066189 2.803194 -1.003537
v 0.501600 0.844800 -0.297000 0.752941 0.752941 0.752941
vn 0.022736 1.387589 2.625619
v 0.343200 0.514800 0.442200 0.752941 0.752941 0.752941
vn 0.010708 0.321254 0.946933
v -0.250800 -0.633600 0.904200 0.752941 0.752941 0.752941
vn 0.026993 0.809792 1.819323
v -0.396000 -0.356400 0.811800 0.752941 0.752941 0.752941
vn -0.187292 2.751283 -1.074526
v 0.501600 0.844800 -0.297000 0.752941 0.752941 0.752941
vn -0.018191 0.884525 -0.466138
v 0.805200 0.858000 -0.283800 0.752941 0.752941 0.752941
vn 0.056906 2.688455 -0.504492
v 0.778800 0.739200 -0.508200 0.752941 0.752941 0.752941
vn -0.056995 2.299273 -0.896950
v 0.475200 0.752400 -0.481800 0.752941 0.752941 0.752941
vn 0.026993 0.809792 1.819323
v 0.000000 -0.369600 0.811800 0.752941 0.752941 0.752941
vn 0.075097 0.909502 0.408859
v 0.818400 0.765600 -0.574200 0.752941 0.752941 0.752941
vn 0.054913 -0.315750 -0.947252
v 0.805200 0.897600 -0.297000 0.752941 0.752941 0.752941
vn 0.757360 1.364915 -3.478484
v 0.132000 0.277200 -0.745800 0.752941 0.752941 0.752941
vn 0.673123 0.893236 -1.545058
v 0.356400 0.039600 -0.785400 0.752941 0.752941 0.752941
vn -0.275013 0.521358 -2.815847
v 0.132000 -0.105600 -0.864600 0.752941 0.752941 0.752941
vn -0.399584 0.189613 -2.869783
v -0.092400 0.132000 -0.785400 0.752941 0.752941 0.752941
vn -0.424281 1.495260 -2.470885
v 0.369600 0.541200 -0.587400 0.752941 0.752941 0.752941
vn -0.395788 0.375595 -0.838021
v 0.673200 0.448800 -0.772200 0.752941 0.752941 0.752941
vn -0.577811 1.080914 -2.567203
v 0.541200 0.250800 -0.798600 0.752941 0.752941 0.752941
vn -0.376343 -0.106706 -1.914977
v -0.066000 -0.198000 -0.772200 0.752941 0.752941 0.752941
vn 0.401932 0.889993 0.215321
v 0.660000 0.435600 -0.693000 0.752941 0.752941 0.752941
vn 0.636817 0.775276 -1.578538
v 0.356400 0.066000 -0.759000 0.752941 0.752941 0.752941
vn -0.074544 0.880678 -2.707801
v 0.277200 0.409200 -0.706200 0.752941 0.752941 0.752941
vn -0.308728 0.940090 0.144629
v 0.831600 0.910800 0.257400 0.752941 0.752941 0.752941
vn -0.796964 2.811663 0.130358
v 0.831600 0.963600 -0.085800 0.752941 0.752941 0.752941
vn -0.814764 3.641590 1.291622
v 0.488400 0.818400 0.125400 0.752941 0.752941 0.752941
vn -0.657337 2.843904 -0.175445
v 0.528000 0.884400 -0.085800 0.752941 0.752941 0.752941
vn -0.239062 0.136364 -2.967417
v -0.277200 0.039600 -0.785400 0.752941 0.752941 0.752941
vn -0.212587 0.089941 -0.972994
v -0.092400 -0.237600 -0.851400 0.752941 0.752941 0.752941
vn -0.258275 0.174790 -1.968340
v -0.290400 -0.277200 -0.811800 0.752941 0.752941 0.752941
vn -0.045688 0.084849 -0.995346
v -0.448800 -0.052800 -0.785400 0.752941 0.752941 0.752941
vn -0.246416 -0.366465 0.897208
v 0.805200 0.831600 0.217800 0.752941 0.752941 0.752941
vn -0.757396 2.907895 2.460459
v 0.686400 0.699600 0.415800 0.752941 0.752941 0.752941
vn -0.844694 1.608987 2.374340
v 0.343200 0.514800 0.442200 0.752941 0.752941 0.752941
vn -0.930260 1.327851 2.477316
v 0.607200 0.435600 0.600600 0.752941 0.752941 0.752941
vn -0.315520 1.438418 1.238885
v 0.435600 0.712800 0.336600 0.752941 0.752941 0.752941
vn -0.756251 -0.150938 2.496807
v 0.290400 -0.132000 0.745800 0.752941 0.752941 0.752941
vn -0.159908 0.413072 1.925608
v -0.198000 -0.198000 0.719400 0.752941 0.752941 0.752941
vn -0.061512 0.056591 0.996501
v -0.013200 -0.462000 0.745800 0.752941 0.752941 0.752941
vn -0.367743 0.970192 2.650848
v 0.250800 0.330000 0.508200 0.752941 0.752941 0.752941
vn 0.505774 0.773798 2.787708
v 0.039600 0.039600 0.653400 0.752941 0.752941 0.752941
vn 0.596343 0.564009 -0.571199
v 0.264000 -0.224401 0.627000 0.752941 0.752941 0.752941
vn 0.016285 0.488539 0.872390
v -0.198000 -0.198000 0.719400 0.752941 0.752941 0.752941
vn 0.604169 0.417318 1.858601
v 0.409200 0.092400 0.521400 0.752941 0.752941 0.752941
vn -0.313323 0.257703 0.914012
v 0.396000 0.132000 0.613800 0.752941 0.752941 0.752941
vn 0.641869 0.382869 -0.664391
v -0.013200 -0.462000 0.745800 0.752941 0.752941 0.752941
vn 0.511978 0.698602 2.858600
v -0.198000 -0.198000 0.719400 0.752941 0.752941 0.752941
vn 0.868730 1.069749 3.750985
v -0.607200 0.000000 0.772200 0.752941 0.752941 0.752941
vn 0.240575 0.246864 0.938713
v -0.396000 -0.356400 0.811800 0.752941 0.752941 0.752941
vn 0.277073 -0.057335 -2.928780
v 0.462000 -0.132000 -0.640200 0.752941 0.752941 0.752941
vn 0.361577 -0.141179 -1.814966
v 0.712800 -0.079200 -0.666600 0.752941 0.752941 0.752941
vn 0.640601 -0.289992 -2.763649
v 0.528000 -0.382800 -0.679800 0.752941 0.752941 0.752941
vn 0.490732 -0.262585 -0.830801
v 0.765600 -0.356400 -0.547800 0.752941 0.752941 0.752941
vn 0.606614 -0.341513 -1.873644
v 0.818400 -0.343200 -0.600600 0.752941 0.752941 0.752941
vn 0.705817 -0.580073 -2.839691
v 0.580800 -0.620400 -0.627000 0.752941 0.752941 0.752941
vn -0.215666 0.970495 -0.107833
v 0.673200 -0.079200 -0.587400 0.752941 0.752941 0.752941
vn 0.060137 -0.316691 -1.962225
v 0.871200 -0.660000 -0.587400 0.752941 0.752941 0.752941
vn 0.060137 -0.316691 -1.962225
v 0.620400 -0.871200 -0.561000 0.752941 0.752941 0.752941
vn -0.039066 -0.078132 -0.996177
v 0.858000 -0.990000 -0.561000 0.752941 0.752941 0.752941
vn 0.137691 -0.060584 -0.988621
v 0.382800 0.118800 -0.666600 0.752941 0.752941 0.752941
vn 0.406229 -0.178741 -1.944616
v 0.607200 0.198000 -0.640200 0.752941 0.752941 0.752941
vn 0.327590 -0.192700 -0.924960
v 0.818400 -0.660000 -0.534600 0.752941 0.752941 0.752941
vn -0.512115 0.177364 -1.922553
v -0.646800 0.224400 -0.653400 0.752941 0.752941 0.752941
vn -0.150083 0.744212 -2.862312
v -0.594000 0.316800 -0.653400 0.752941 0.752941 0.752941
vn -0.697772 1.068777 -6.703997
v -0.435600 0.118800 -0.719400 0.752941 0.752941 0.752941
vn -0.490194 0.007042 -1.936129
v -0.541200 0.026400 -0.693000 0.752941 0.752941 0.752941
vn 0.261474 0.890131 -2.851997
v -0.066000 0.132000 -0.679800 0.752941 0.752941 0.752941
vn -0.156063 0.452251 -5.811858
v -0.145200 -0.158401 -0.772200 0.752941 0.752941 0.752941
vn 0.172962 0.939333 -2.839507
v -0.316800 0.237600 -0.666600 0.752941 0.752941 0.752941
vn 0.482232 0.643929 -3.848026
v 0.184800 0.105600 -0.666600 0.752941 0.752941 0.752941
vn 0.919950 -0.170925 -6.700233
v 0.158400 -0.303600 -0.772200 0.752941 0.752941 0.752941
vn 0.026419 0.253624 -0.966942
v -0.514800 0.409200 -0.627000 0.752941 0.752941 0.752941
vn -0.580706 -0.229271 -2.928369
v -0.369600 -0.264000 -0.719400 0.752941 0.752941 0.752941
vn -0.241824 -0.572435 -2.925841
v -0.145200 -0.488400 -0.719400 0.752941 0.752941 0.752941
vn 0.237745 -0.764410 -2.884545
v 0.118800 -0.646800 -0.679800 0.752941 0.752941 0.752941
vn 0.567731 0.341733 -2.862326
v 0.462000 -0.132000 -0.640200 0.752941 0.752941 0.752941
vn 0.453046 -0.674296 -2.882816
v 0.580800 -0.620400 -0.627000 0.752941 0.752941 0.752941
vn 0.006836 -0.102547 -0.994705
v 0.382800 0.118800 -0.666600 0.752941 0.752941 0.752941
vn 0.485780 0.052649 -1.897992
v 0.528000 -0.382800 -0.679800 0.752941 0.752941 0.752941
vn 0.123590 -0.234246 -0.964290
v 0.620400 -0.871200 -0.561000 0.752941 0.752941 0.752941
vn 0.413306 4.035664 -3.760480
v -0.290400 0.633600 -0.429000 0.752941 0.752941 0.752941
vn 0.296496 3.736762 0.016936
v 0.026400 0.712800 -0.125400 0.752941 0.752941 0.752941
vn -0.000399 1.251727 -1.256509
v 0.026400 0.607200 -0.455400 0.752941 0.752941 0.752941
vn 0.780022 4.526612 -0.443212
v -0.290400 0.752400 -0.138600 0.752941 0.752941 0.752941
vn 0.165090 0.503726 -2.785795
v 0.026400 0.356400 -0.534600 0.752941 0.752941 0.752941
vn 0.970220 4.833719 4.154198
v -0.290400 0.594000 0.244200 0.752941 0.752941 0.752941
vn 1.206584 4.557357 -4.704393
v -0.514800 0.660000 -0.429000 0.752941 0.752941 0.752941
vn 0.562145 0.781489 -5.518111
v -0.316800 0.369600 -0.574200 0.752941 0.752941 0.752941
vn 0.218541 -2.875492 -0.792546
v -0.330000 0.105600 -0.521400 0.752941 0.752941 0.752941
vn 0.367888 -2.351215 -2.585054
v 0.026400 0.118800 -0.468600 0.752941 0.752941 0.752941
vn 0.135237 -3.788282 -1.268939
v -0.316800 -0.013200 -0.151800 0.752941 0.752941 0.752941
vn 0.035989 -0.935723 -0.350896
v 0.026400 0.000000 -0.151800 0.752941 0.752941 0.752941
vn 0.036607 -0.951786 0.304571
v 0.026400 0.000000 -0.151800 0.752941 0.752941 0.752941
vn 0.215445 -2.387168 1.467021
v 0.026400 0.105600 0.178200 0.752941 0.752941 0.752941
vn 0.461383 -2.789584 0.874923
v -0.316800 -0.013200 -0.151800 0.752941 0.752941 0.752941
vn 1.046420 -4.397176 4.748274
v -0.316800 0.105600 0.231000 0.752941 0.752941 0.752941
vn 0.453632 -0.213295 3.581438
v 0.026400 0.343200 0.310200 0.752941 0.752941 0.752941
vn 0.146798 -2.880004 -0.789038
v -0.646800 0.013200 -0.244200 0.752941 0.752941 0.752941
vn 0.490638 0.560319 -4.672274
v -0.554400 0.396000 -0.587400 0.752941 0.752941 0.752941
vn 0.800407 -2.371927 1.535823
v -0.673200 -0.092400 0.085800 0.752941 0.752941 0.752941
vn 0.649813 0.307894 4.444788
v -0.303600 0.356400 0.363000 0.752941 0.752941 0.752941
vn 0.052876 1.249495 1.269031
v 0.026400 0.594000 0.231000 0.752941 0.752941 0.752941
vn 1.182782 3.328062 4.353172
v -0.528000 0.646800 0.270600 0.752941 0.752941 0.752941
vn 0.128238 -0.975526 -0.178617
v -0.686400 0.066000 -0.561000 0.752941 0.752941 0.752941
vn 0.585694 1.757081 -0.062292
v -0.660000 0.858000 -0.138600 0.752941 0.752941 0.752941
vn 1.950386 6.130033 0.156528
v -0.501600 0.805200 -0.138600 0.752941 0.752941 0.752941
vn 0.832405 2.171082 -1.698384
v -0.673200 0.726000 -0.429000 0.752941 0.752941 0.752941
vn 0.427920 0.857789 -2.708190
v -0.726000 0.435600 -0.600600 0.752941 0.752941 0.752941
vn 0.777613 2.140532 1.617502
v -0.699600 0.712800 0.270600 0.752941 0.752941 0.752941
vn 0.587969 -0.509791 4.535087
v -0.567600 0.369600 0.389400 0.752941 0.752941 0.752941
vn 0.745984 0.075161 3.640820
v -0.752400 0.382800 0.415800 0.752941 0.752941 0.752941
vn 1.016832 -2.559656 3.977482
v -0.620400 0.079200 0.270600 0.752941 0.752941 0.752941
vn 0.612159 -1.023771 1.509290
v -0.805200 0.066000 0.336600 0.752941 0.752941 0.752941
vn -0.705504 -0.690167 -0.161039
v 0.066000 -0.052800 -0.099000 0.752941 0.752941 0.752941
vn -1.608898 -1.091676 -0.311605
v 0.026400 0.000000 -0.151800 0.752941 0.752941 0.752941
vn -0.903394 -0.401509 -0.150566
v 0.026400 0.118800 -0.468600 0.752941 0.752941 0.752941
vn 0.121495 1.812047 -2.340881
v 0.369600 0.541200 -0.587400 0.752941 0.752941 0.752941
vn -0.015397 0.930434 -2.848938
v 0.132000 0.277200 -0.745800 0.752941 0.752941 0.752941
vn -0.155918 1.385989 -1.306255
v 0.475200 0.752400 -0.481800 0.752941 0.752941 0.752941
vn 0.089287 0.934821 -1.725710
v 0.277200 0.409200 -0.706200 0.752941 0.752941 0.752941
vn -0.081421 0.427185 -1.947983
v -0.092400 0.132000 -0.785400 0.752941 0.752941 0.752941
vn -0.130659 0.242652 -0.961274
v -0.448800 -0.052800 -0.785400 0.752941 0.752941 0.752941
vn -0.044293 1.387875 1.317733
v 0.435600 0.712800 0.336600 0.752941 0.752941 0.752941
vn 0.056920 1.934566 0.113110
v 0.528000 0.884400 -0.085800 0.752941 0.752941 0.752941
vn 0.008945 -0.952594 -0.304114
v -0.673200 -0.092400 0.085800 0.752941 0.752941 0.752941
vn -0.841288 0.918408 -2.628779
v -0.673200 0.224400 -0.785400 0.752941 0.752941 0.752941
vn -1.128766 1.235226 -4.577531
v -0.475200 0.343200 -0.798600 0.752941 0.752941 0.752941
vn -1.172133 0.743181 -4.780488
v -0.673200 0.000000 -0.825000 0.752941 0.752941 0.752941
vn -0.228664 0.057167 -0.971825
v -0.369600 0.316800 -0.825000 0.752941 0.752941 0.752941
vn -0.395560 0.580154 -0.712007
v -0.580800 0.303600 -0.772200 0.752941 0.752941 0.752941
vn -0.278206 0.166925 -0.945906
v -0.699600 0.105600 -0.798600 0.752941 0.752941 0.752941
vn 2.128869 1.470353 -1.350284
v -0.277200 0.237600 -0.851400 0.752941 0.752941 0.752941
vn -1.135378 1.063865 -4.726672
v -0.290400 0.013200 -0.904200 0.752941 0.752941 0.752941
vn -0.713675 0.405184 -2.866298
v -0.475200 -0.105600 -0.891000 0.752941 0.752941 0.752941
vn -0.400911 0.232107 -0.886226
v -0.250800 0.132000 -0.891000 0.752941 0.752941 0.752941
vn -0.192451 0.192451 -0.962250
v -0.369600 -0.066000 -0.904200 0.752941 0.752941 0.752941
vn -0.316227 0.000001 -0.948683
v -0.594000 -0.079200 -0.851400 0.752941 0.752941 0.752941
vn 0.054913 -0.315750 -0.947252
v 0.805200 0.858000 -0.283800 0.752941 0.752941 0.752941
vn 0.054913 -0.315750 -0.947252
v 0.501600 0.844800 -0.297000 0.752941 0.752941 0.752941
vn 0.401932 0.889993 0.215321
v 0.673200 0.448800 -0.772200 0.752941 0.752941 0.752941
vn 0.401932 0.889993 0.215321
v 0.369600 0.541200 -0.587400 0.752941 0.752941 0.752941
vn -0.285622 0.080997 -0.954913
v 0.356400 0.066000 -0.759000 0.752941 0.752941 0.752941
vn 0.660843 0.559633 -0.500097
v -0.277200 0.039600 -0.785400 0.752941 0.752941 0.752941
vn 0.660843 0.559633 -0.500097
v -0.066000 -0.198000 -0.772200 0.752941 0.752941 0.752941
vn 0.660843 0.559633 -0.500097
v -0.092400 -0.237600 -0.851400 0.752941 0.752941 0.752941
vn -0.246416 -0.366465 0.897208
v 0.831600 0.910800 0.257400 0.752941 0.752941 0.752941
vn -0.246416 -0.366465 0.897208
v 0.488400 0.818400 0.125400 0.752941 0.752941 0.752941
vn -0.249924 0.431935 -0.866585
v 0.475200 0.752400 -0.481800 0.752941 0.752941 0.752941
vn -0.249924 0.431935 -0.866585
v 0.818400 0.765600 -0.574200 0.752941 0.752941 0.752941
vn -0.382016 0.927278 -1.725181
v 0.660000 0.435600 -0.693000 0.752941 0.752941 0.752941
vn 0.596343 0.564009 -0.571199
v 0.039600 0.039600 0.653400 0.752941 0.752941 0.752941
vn 0.756251 0.150938 -2.496807
v 0.290400 -0.132000 0.745800 0.752941 0.752941 0.752941
vn 0.309847 0.169819 0.935498
v 0.264000 -0.224401 0.627000 0.752941 0.752941 0.752941
vn -0.829415 -0.546514 0.115732
v 0.396000 0.132000 0.613800 0.752941 0.752941 0.752941
vn -0.829415 -0.546514 0.115732
v 0.250800 0.330000 0.508200 0.752941 0.752941 0.752941
vn -0.829415 -0.546514 0.115732
v 0.409200 0.092400 0.521400 0.752941 0.752941 0.752941
vn 0.625585 -0.105669 -1.536781
v -0.198000 -0.198000 0.719400 0.752941 0.752941 0.752941
vn 0.641869 0.382869 -0.664391
v 0.000000 -0.369600 0.811800 0.752941 0.752941 0.752941
vn -0.412746 1.906302 -0.422585
v 0.805200 0.897600 -0.297000 0.752941 0.752941 0.752941
vn -0.215666 0.970495 -0.107833
v 0.712800 -0.079200 -0.666600 0.752941 0.752941 0.752941
vn -0.215666 0.970495 -0.107833
v 0.462000 -0.132000 -0.640200 0.752941 0.752941 0.752941
vn -0.158065 0.983516 0.087814
v 0.765600 -0.356400 -0.547800 0.752941 0.752941 0.752941
vn -0.158065 0.983516 0.087814
v 0.818400 -0.343200 -0.600600 0.752941 0.752941 0.752941
vn -0.158065 0.983516 0.087814
v 0.528000 -0.382800 -0.679800 0.752941 0.752941 0.752941
vn 0.268538 -0.118157 -0.955995
v 0.673200 -0.079200 -0.587400 0.752941 0.752941 0.752941
vn 0.118309 0.985904 0.118309
v 0.871200 -0.660000 -0.587400 0.752941 0.752941 0.752941
vn 0.118309 0.985904 0.118309
v 0.580800 -0.620400 -0.627000 0.752941 0.752941 0.752941
vn 0.118309 0.985904 0.118309
v 0.818400 -0.660000 -0.534600 0.752941 0.752941 0.752941
vn -0.241117 -0.864181 -1.748342
v -0.778800 0.303600 0.719400 0.752941 0.752941 0.752941
vn 0.404232 -3.671738 0.122606
v -0.343200 0.950400 -0.112200 0.752941 0.752941 0.752941
vn -0.316275 -3.472533 0.087279
v -0.132000 0.990000 -0.099000 0.752941 0.752941 0.752941
vn -0.411520 -5.826135 -3.435009
v -0.184800 0.831600 0.257400 0.752941 0.752941 0.752941
vn 0.098650 -1.793865 -0.843067
v -0.396000 0.844800 0.204600 0.752941 0.752941 0.752941
vn 0.837381 -2.364382 7.508116
v -0.316800 0.330000 -0.732600 0.752941 0.752941 0.752941
vn 0.408980 -0.496584 1.891596
v -0.673200 0.237600 -0.679800 0.752941 0.752941 0.752941
vn 0.475129 -0.606260 2.896275
v -0.567600 0.092400 -0.732600 0.752941 0.752941 0.752941
vn 0.295454 -0.764356 1.809467
v -0.541200 0.462000 -0.640200 0.752941 0.752941 0.752941
vn -0.041288 -2.872725 -2.735056
v -0.462000 0.739200 0.363000 0.752941 0.752941 0.752941
vn -0.455803 -5.586009 3.824272
v -0.171600 0.844800 -0.389400 0.752941 0.752941 0.752941
vn 0.326478 -2.324229 3.183208
v -0.448800 0.673200 -0.534600 0.752941 0.752941 0.752941
vn -1.120199 -7.247115 0.010996
v 0.105600 0.897600 -0.099000 0.752941 0.752941 0.752941
vn 0.363188 -0.567060 2.919918
v -0.277200 0.039600 -0.785400 0.752941 0.752941 0.752941
vn -0.024535 -1.196503 -1.601327
v -0.871200 0.475200 0.600600 0.752941 0.752941 0.752941
vn -0.814871 -3.558228 -5.802230
v -0.435600 0.501600 0.574200 0.752941 0.752941 0.752941
vn -0.077204 -1.289015 -1.524941
v -0.594000 0.620399 0.481800 0.752941 0.752941 0.752941
vn -0.812091 -3.406064 -4.768124
v -0.277200 0.646800 0.442200 0.752941 0.752941 0.752941
vn 0.142110 -1.647211 1.065826
v -0.369600 0.844800 -0.363000 0.752941 0.752941 0.752941
vn -0.233838 -3.800744 5.694955
v -0.105600 0.567600 -0.640200 0.752941 0.752941 0.752941
vn -1.183022 -2.368128 -6.426612
v -0.198000 0.250800 0.613800 0.752941 0.752941 0.752941
vn -0.569974 -2.244386 -4.388990
v 0.000000 0.501600 0.468600 0.752941 0.752941 0.752941
vn -0.512744 -5.015998 -4.388860
v 0.105600 0.752400 0.283800 0.752941 0.752941 0.752941
vn -0.338045 -4.567459 3.506286
v 0.039600 0.765600 -0.415800 0.752941 0.752941 0.752941
vn -0.356396 -1.068615 -2.774160
v 0.250800 0.330000 0.508200 0.752941 0.752941 0.752941
vn -0.197238 -0.577536 -1.896763
v 0.039600 0.039600 0.653400 0.752941 0.752941 0.752941
vn -0.868730 -1.069749 -3.750985
v -0.607200 0.000000 0.772200 0.752941 0.752941 0.752941
vn -0.040156 -2.778540 -1.110094
v 0.488400 0.818400 0.125400 0.752941 0.752941 0.752941
vn 0.066189 -2.803194 1.003538
v 0.501600 0.844800 -0.297000 0.752941 0.752941 0.752941
vn -0.271403 -0.451738 -1.919887
v -0.198000 -0.198000 0.719400 0.752941 0.752941 0.752941
vn -0.010708 -0.321254 -0.946933
v -0.250800 -0.633600 0.904200 0.752941 0.752941 0.752941
vn -0.026993 -0.809792 -1.819323
v -0.396000 -0.356400 0.811800 0.752941 0.752941 0.752941
vn 0.187292 -2.751283 1.074526
v 0.501600 0.844800 -0.297000 0.752941 0.752941 0.752941
vn 0.056995 -2.299273 0.896950
v 0.475200 0.752400 -0.481800 0.752941 0.752941 0.752941
vn -0.056906 -2.688455 0.504492
v 0.778800 0.739200 -0.508200 0.752941 0.752941 0.752941
vn 0.018191 -0.884525 0.466138
v 0.805200 0.858000 -0.283800 0.752941 0.752941 0.752941
vn -0.026993 -0.809792 -1.819323
v 0.000000 -0.369600 0.811800 0.752941 0.752941 0.752941
vn -0.075097 -0.909502 -0.408859
v 0.818400 0.765600 -0.574200 0.752941 0.752941 0.752941
vn -0.054913 0.315750 0.947252
v 0.805200 0.858000 -0.283800 0.752941 0.752941 0.752941
vn -0.054913 0.315750 0.947252
v 0.805200 0.897600 -0.297000 0.752941 0.752941 0.752941
vn -0.054913 0.315750 0.947252
v 0.501600 0.844800 -0.297000 0.752941 0.752941 0.752941
vn -0.757360 -1.364915 3.478484
v 0.132000 0.277200 -0.745800 0.752941 0.752941 0.752941
vn 0.399584 -0.189613 2.869783
v -0.092400 0.132000 -0.785400 0.752941 0.752941 0.752941
vn 0.275013 -0.521358 2.815847
v 0.132000 -0.105600 -0.864600 0.752941 0.752941 0.752941
vn -0.673123 -0.893236 1.545058
v 0.356400 0.039600 -0.785400 0.752941 0.752941 0.752941
vn 0.424281 -1.495260 2.470884
v 0.369600 0.541200 -0.587400 0.752941 0.752941 0.752941
vn 0.074544 -0.880678 2.707801
v 0.277200 0.409200 -0.706200 0.752941 0.752941 0.752941
vn 0.577811 -1.080914 2.567202
v 0.541200 0.250800 -0.798600 0.752941 0.752941 0.752941
vn -0.351195 -0.856274 2.533451
v 0.356400 0.066000 -0.759000 0.752941 0.752941 0.752941
vn 0.376343 0.106706 1.914977
v -0.066000 -0.198000 -0.772200 0.752941 0.752941 0.752941
vn 0.395788 -0.375595 0.838021
v 0.673200 0.448800 -0.772200 0.752941 0.752941 0.752941
vn 0.796964 -2.811663 -0.130359
v 0.831600 0.963600 -0.085800 0.752941 0.752941 0.752941
vn 0.308728 -0.940090 -0.144629
v 0.831600 0.910800 0.257400 0.752941 0.752941 0.752941
vn 0.814764 -3.641590 -1.291622
v 0.488400 0.818400 0.125400 0.752941 0.752941 0.752941
vn 0.657337 -2.843904 0.175445
v 0.528000 0.884400 -0.085800 0.752941 0.752941 0.752941
vn 0.239062 -0.136364 2.967417
v -0.277200 0.039600 -0.785400 0.752941 0.752941 0.752941
vn 0.045688 -0.084849 0.995346
v -0.448800 -0.052800 -0.785400 0.752941 0.752941 0.752941
vn 0.258275 -0.174790 1.968340
v -0.290400 -0.277200 -0.811800 0.752941 0.752941 0.752941
vn 0.212587 -0.089941 0.972994
v -0.092400 -0.237600 -0.851400 0.752941 0.752941 0.752941
vn -0.660843 -0.559633 0.500097
v -0.066000 -0.198000 -0.772200 0.752941 0.752941 0.752941
vn -0.660843 -0.559633 0.500097
v -0.277200 0.039600 -0.785400 0.752941 0.752941 0.752941
vn -0.660843 -0.559633 0.500097
v -0.092400 -0.237600 -0.851400 0.752941 0.752941 0.752941
vn 0.246416 0.366465 -0.897208
v 0.831600 0.910800 0.257400 0.752941 0.752941 0.752941
vn 0.246416 0.366465 -0.897208
v 0.805200 0.831600 0.217800 0.752941 0.752941 0.752941
vn 0.246416 0.366465 -0.897208
v 0.488400 0.818400 0.125400 0.752941 0.752941 0.752941
vn 0.844694 -1.608987 -2.374340
v 0.343200 0.514800 0.442200 0.752941 0.752941 0.752941
vn 0.757396 -2.907895 -2.460459
v 0.686400 0.699600 0.415800 0.752941 0.752941 0.752941
vn 0.930260 -1.327851 -2.477316
v 0.607200 0.435600 0.600600 0.752941 0.752941 0.752941
vn 0.315520 -1.438418 -1.238885
v 0.435600 0.712800 0.336600 0.752941 0.752941 0.752941
vn 0.159908 -0.413072 -1.925608
v -0.198000 -0.198000 0.719400 0.752941 0.752941 0.752941
vn 0.061512 -0.056591 -0.996501
v -0.013200 -0.462000 0.745800 0.752941 0.752941 0.752941
vn 0.367743 -0.970192 -2.650848
v 0.250800 0.330000 0.508200 0.752941 0.752941 0.752941
vn -0.505774 -0.773798 -2.787708
v 0.039600 0.039600 0.653400 0.752941 0.752941 0.752941
vn 0.249924 -0.431935 0.866585
v 0.818400 0.765600 -0.574200 0.752941 0.752941 0.752941
vn 0.249924 -0.431935 0.866585
v 0.475200 0.752400 -0.481800 0.752941 0.752941 0.752941
vn 0.382016 -0.927278 1.725181
v 0.660000 0.435600 -0.693000 0.752941 0.752941 0.752941
vn -0.604169 -0.417318 -1.858601
v 0.409200 0.092400 0.521400 0.752941 0.752941 0.752941
vn -0.309847 -0.169819 -0.935498
v 0.264000 -0.224401 0.627000 0.752941 0.752941 0.752941
vn 0.313323 -0.257703 -0.914012
v 0.396000 0.132000 0.613800 0.752941 0.752941 0.752941
vn 0.829415 0.546514 -0.115732
v 0.250800 0.330000 0.508200 0.752941 0.752941 0.752941
vn 0.829415 0.546514 -0.115732
v 0.396000 0.132000 0.613800 0.752941 0.752941 0.752941
vn 0.829415 0.546514 -0.115732
v 0.409200 0.092400 0.521400 0.752941 0.752941 0.752941
vn -0.641869 -0.382869 0.664391
v 0.000000 -0.369600 0.811800 0.752941 0.752941 0.752941
vn -0.641869 -0.382869 0.664391
v -0.198000 -0.198000 0.719400 0.752941 0.752941 0.752941
vn -0.641869 -0.382869 0.664391
v -0.013200 -0.462000 0.745800 0.752941 0.752941 0.752941
vn 0.412746 -1.906302 0.422585
v 0.805200 0.897600 -0.297000 0.752941 0.752941 0.752941
vn -0.240575 -0.246864 -0.938713
v -0.198000 -0.198000 0.719400 0.752941 0.752941 0.752941
vn -0.240575 -0.246864 -0.938713
v -0.396000 -0.356400 0.811800 0.752941 0.752941 0.752941
vn -0.490732 0.262585 0.830801
v 0.765600 -0.356400 -0.547800 0.752941 0.752941 0.752941
vn -0.361577 0.141179 1.814966
v 0.712800 -0.079200 -0.666600 0.752941 0.752941 0.752941
vn -0.640601 0.289992 2.763649
v 0.528000 -0.382800 -0.679800 0.752941 0.752941 0.752941
vn -0.277073 0.057335 2.928780
v 0.462000 -0.132000 -0.640200 0.752941 0.752941 0.752941
vn 0.215666 -0.970495 0.107833
v 0.712800 -0.079200 -0.666600 0.752941 0.752941 0.752941
vn 0.215666 -0.970495 0.107833
v 0.673200 -0.079200 -0.587400 0.752941 0.752941 0.752941
vn 0.215666 -0.970495 0.107833
v 0.462000 -0.132000 -0.640200 0.752941 0.752941 0.752941
vn 0.158065 -0.983516 -0.087814
v 0.818400 -0.343200 -0.600600 0.752941 0.752941 0.752941
vn 0.158065 -0.983516 -0.087814
v 0.765600 -0.356400 -0.547800 0.752941 0.752941 0.752941
vn 0.158065 -0.983516 -0.087814
v 0.528000 -0.382800 -0.679800 0.752941 0.752941 0.752941
vn -0.060137 0.316691 1.962225
v 0.871200 -0.660000 -0.587400 0.752941 0.752941 0.752941
vn -0.060137 0.316691 1.962225
v 0.620400 -0.871200 -0.561000 0.752941 0.752941 0.752941
vn 0.039066 0.078132 0.996177
v 0.858000 -0.990000 -0.561000 0.752941 0.752941 0.752941
vn -0.705817 0.580073 2.839691
v 0.580800 -0.620400 -0.627000 0.752941 0.752941 0.752941
vn -0.268538 0.118157 0.955995
v 0.673200 -0.079200 -0.587400 0.752941 0.752941 0.752941
vn -0.406229 0.178741 1.944616
v 0.607200 0.198000 -0.640200 0.752941 0.752941 0.752941
vn -0.137691 0.060584 0.988621
v 0.382800 0.118800 -0.666600 0.752941 0.752941 0.752941
vn -0.606614 0.341513 1.873644
v 0.818400 -0.343200 -0.600600 0.752941 0.752941 0.752941
vn -0.327590 0.192700 0.924960
v 0.818400 -0.660000 -0.534600 0.752941 0.752941 0.752941
vn 0.697772 -1.068777 6.703997
v -0.435600 0.118800 -0.719400 0.752941 0.752941 0.752941
vn 0.512116 -0.177364 1.922553
v -0.646800 0.224400 -0.653400 0.752941 0.752941 0.752941
vn 0.490194 -0.007042 1.936129
v -0.541200 0.026400 -0.693000 0.752941 0.752941 0.752941
vn -0.118308 -0.985904 -0.118308
v 0.580800 -0.620400 -0.627000 0.752941 0.752941 0.752941
vn -0.118308 -0.985904 -0.118308
v 0.871200 -0.660000 -0.587400 0.752941 0.752941 0.752941
vn -0.118308 -0.985904 -0.118308
v 0.818400 -0.660000 -0.534600 0.752941 0.752941 0.752941
vn 0.150083 -0.744212 2.862312
v -0.594000 0.316800 -0.653400 0.752941 0.752941 0.752941
vn -0.261474 -0.890131 2.851997
v -0.066000 0.132000 -0.679800 0.752941 0.752941 0.752941
vn 0.156063 -0.452251 5.811858
v -0.145200 -0.158401 -0.772200 0.752941 0.752941 0.752941
vn -0.172962 -0.939333 2.839507
v -0.316800 0.237600 -0.666600 0.752941 0.752941 0.752941
vn -0.482232 -0.643929 3.848026
v 0.184800 0.105600 -0.666600 0.752941 0.752941 0.752941
vn -0.919950 0.170925 6.700234
v 0.158400 -0.303600 -0.772200 0.752941 0.752941 0.752941
vn -0.026419 -0.253624 0.966942
v -0.514800 0.409200 -0.627000 0.752941 0.752941 0.752941
vn 0.580706 0.229271 2.928369
v -0.369600 -0.264000 -0.719400 0.752941 0.752941 0.752941
vn 0.241824 0.572435 2.925841
v -0.145200 -0.488400 -0.719400 0.752941 0.752941 0.752941
vn -0.237745 0.764410 2.884545
v 0.118800 -0.646800 -0.679800 0.752941 0.752941 0.752941
vn -0.567731 -0.341733 2.862326
v 0.462000 -0.132000 -0.640200 0.752941 0.752941 0.752941
vn -0.006836 0.102547 0.994705
v 0.382800 0.118800 -0.666600 0.752941 0.752941 0.752941
vn -0.485780 -0.052649 1.897992
v 0.528000 -0.382800 -0.679800 0.752941 0.752941 0.752941
vn -0.453046 0.674296 2.882816
v 0.580800 -0.620400 -0.627000 0.752941 0.752941 0.752941
vn -0.123590 0.234246 0.964290
v 0.620400 -0.871200 -0.561000 0.752941 0.752941 0.752941
vn 0.306892 -0.526845 -2.931659
v -0.330000 0.105600 -0.521400 0.752941 0.752941 0.752941
vn 0.176748 -0.228901 -1.977515
v -0.686400 0.066000 -0.561000 0.752941 0.752941 0.752941
vn -1.608898 -1.091676 -0.311605
v 0.066000 0.039600 -0.495000 0.752941 0.752941 0.752941
vn -0.173681 0.864319 0.472004
v 0.805200 0.831600 0.217800 0.752941 0.752941 0.752941
vn 0.173681 -0.864319 -0.472004
v 0.805200 0.831600 0.217800 0.752941 0.752941 0.752941
vn -0.121495 -1.812047 2.340881
v 0.369600 0.541200 -0.587400 0.752941 0.752941 0.752941
vn 0.015397 -0.930433 2.848938
v 0.132000 0.277200 -0.745800 0.752941 0.752941 0.752941
vn -0.022736 -1.387589 -2.625619
v 0.343200 0.514800 0.442200 0.752941 0.752941 0.752941
vn 0.155918 -1.385989 1.306255
v 0.475200 0.752400 -0.481800 0.752941 0.752941 0.752941
vn -0.089287 -0.934821 1.725710
v 0.277200 0.409200 -0.706200 0.752941 0.752941 0.752941
vn -0.401932 -0.889993 -0.215321
v 0.369600 0.541200 -0.587400 0.752941 0.752941 0.752941
vn -0.401932 -0.889993 -0.215321
v 0.673200 0.448800 -0.772200 0.752941 0.752941 0.752941
vn -0.401932 -0.889993 -0.215321
v 0.660000 0.435600 -0.693000 0.752941 0.752941 0.752941
vn 0.081421 -0.427185 1.947983
v -0.092400 0.132000 -0.785400 0.752941 0.752941 0.752941
vn 0.130659 -0.242652 0.961274
v -0.448800 -0.052800 -0.785400 0.752941 0.752941 0.752941
vn -0.596343 -0.564009 0.571199
v 0.039600 0.039600 0.653400 0.752941 0.752941 0.752941
vn -0.596343 -0.564009 0.571199
v 0.264000 -0.224401 0.627000 0.752941 0.752941 0.752941
vn 0.044293 -1.387875 -1.317733
v 0.435600 0.712800 0.336600 0.752941 0.752941 0.752941
vn -0.056920 -1.934566 -0.113110
v 0.528000 0.884400 -0.085800 0.752941 0.752941 0.752941
# 377 vertices, 0 vertices normals


usemtl material_0
vt 0.455322 0.182983
vt 0.449951 0.170898
vt 0.463623 0.162842
f 1/1/1 2/2/2 3/3/3
vt 0.474365 0.170532
f 1/1/1 3/3/3 4/4/4
vt 0.432617 0.184326
vt 0.434082 0.171143
f 5/5/5 6/6/6 2/2/2
f 1/1/1 5/5/5 2/2/2
vt 0.412354 0.174072
vt 0.420166 0.163330
f 7/7/7 8/8/8 6/6/6
f 5/5/5 7/7/7 6/6/6
vt 0.399902 0.155151
vt 0.412109 0.149658
f 8/8/8 9/9/9 10/10/10
f 8/8/8 7/7/7 9/9/9
vt 0.398682 0.132568
f 10/10/10 9/9/9 11/11/11
vt 0.471436 0.148926
f 4/4/4 3/3/3 12/12/12
f 188/2/188 189/8/189 190/12/190
vt 0.411865 0.133789
f 189/8/189 191/10/191 13/13/13
f 192/6/192 189/8/189 188/2/188
f 193/3/193 188/2/188 190/12/190
f 10/10/10 11/11/11 194/13/194
vt 0.419678 0.119934
vt 0.408936 0.112305
f 14/14/14 194/13/194 15/15/15
f 194/13/194 11/11/11 15/15/15
vt 0.433350 0.111877
vt 0.427734 0.099792
f 16/16/16 14/14/14 17/17/17
f 14/14/14 15/15/15 17/17/17
vt 0.449219 0.111633
vt 0.450439 0.098511
f 18/18/18 16/16/16 19/19/19
f 16/16/16 17/17/17 19/19/19
vt 0.462891 0.119446
vt 0.470703 0.108704
f 20/20/20 18/18/18 21/21/21
f 18/18/18 19/19/19 21/21/21
vt 0.483154 0.127563
f 22/22/22 20/20/20 21/21/21
f 190/12/190 195/16/195 196/20/196
f 189/8/189 13/13/13 195/16/195
f 13/13/13 197/14/197 195/16/195
f 195/16/195 198/18/198 196/20/196
vt 0.471191 0.133057
f 23/23/23 20/20/20 22/22/22
vt 0.484375 0.150269
f 24/24/24 12/12/12 23/23/23
f 24/24/24 23/23/23 22/22/22
f 4/4/4 12/12/12 24/24/24
f 199/23/199 190/12/190 196/20/196
vt 0.226563 0.923340
vt 0.216431 0.933594
vt 0.202759 0.929688
f 25/25/25 26/26/26 27/27/27
vt 0.209106 0.933594
f 26/26/26 28/28/28 27/27/27
vt 0.223022 0.909668
vt 0.209229 0.905762
f 29/29/29 25/25/25 30/30/30
vt 0.226685 0.916016
f 31/31/31 25/25/25 29/29/29
vt 0.199097 0.916016
f 30/30/30 27/27/27 32/32/32
f 25/25/25 27/27/27 30/30/30
vt 0.222900 0.929688
f 25/25/25 33/33/33 26/26/26
vt 0.216553 0.905762
f 34/34/34 29/29/29 30/30/30
vt 0.202759 0.909668
f 30/30/30 32/32/32 35/35/35
vt 0.199097 0.923340
f 27/27/27 36/36/36 32/32/32
vt 0.830566 0.556152
vt 0.793457 0.556152
vt 0.792969 0.511719
f 37/37/37 38/38/38 39/39/39
vt 0.830078 0.511719
f 40/40/40 37/37/37 39/39/39
vt 0.995117 0.556152
vt 0.955566 0.467285
vt 0.995117 0.467041
f 41/41/41 42/42/42 43/43/43
vt 0.955566 0.556152
f 44/44/44 42/42/42 41/41/41
vt 0.748535 0.556152
f 39/39/39 38/38/38 45/45/45
vt 0.876465 0.511719
f 37/37/37 40/40/40 46/46/46
vt 0.914063 0.556152
f 44/44/44 47/47/47 42/42/42
vt 0.830078 0.467041
f 48/48/48 40/40/40 39/39/39
vt 0.973633 0.421143
f 43/43/43 42/42/42 51/49/51
vt 0.711426 0.511719
vt 0.664063 0.556152
vt 0.664551 0.511230
f 52/50/52 50/51/50 49/52/49
vt 0.711914 0.556152
f 52/50/52 53/53/53 50/51/50
vt 0.749023 0.511719
f 39/39/39 45/45/45 54/54/54
vt 0.876953 0.556152
f 55/55/55 37/37/37 46/46/46
vt 0.914063 0.467041
f 47/47/47 56/56/56 42/42/42
f 45/45/45 53/53/53 52/50/52
f 54/54/54 45/45/45 52/50/52
vt 0.711426 0.467041
f 54/54/54 52/50/52 57/57/57
f 47/47/47 46/46/46 56/56/56
vt 0.876465 0.467041
f 46/46/46 58/58/58 56/56/56
f 55/55/55 46/46/46 47/47/47
vt 0.749023 0.420898
vt 0.711426 0.420654
f 59/59/59 57/57/57 60/60/60
vt 0.749023 0.467041
f 59/59/59 61/61/61 57/57/57
vt 0.792969 0.467041
f 48/48/48 39/39/39 62/62/62
f 46/46/46 48/48/48 58/58/58
f 61/61/61 54/54/54 57/57/57
f 62/62/62 54/54/54 61/61/61
vt 0.810547 0.420654
f 63/63/63 48/48/48 62/62/62
vt 0.854004 0.420654
f 48/48/48 64/64/64 58/58/58
vt 0.769043 0.420898
f 65/65/65 61/61/61 59/59/59
f 65/65/65 62/62/62 61/61/61
vt 0.781738 0.411377
vt 0.781738 0.362549
vt 0.801758 0.362549
f 68/66/68 69/67/69 70/68/70
vt 0.808594 0.410889
f 71/69/71 68/66/68 70/68/70
vt 0.964844 0.362549
vt 0.939453 0.411133
vt 0.939453 0.362549
f 72/70/72 67/71/67 66/72/66
vt 0.808594 0.362549
f 73/73/73 71/69/71 70/68/70
vt 0.774414 0.362549
f 74/74/74 200/67/200 201/66/201
vt 0.910156 0.410889
vt 0.909668 0.362549
f 75/75/75 76/76/76 77/72/77
f 78/71/78 75/75/75 77/72/77
vt 0.843750 0.410889
vt 0.844238 0.362549
vt 0.873535 0.362549
f 79/77/79 80/78/80 81/79/81
f 78/71/78 77/72/77 82/70/82
vt 0.836914 0.362549
f 202/78/202 203/77/203 83/80/83
vt 0.902344 0.362549
f 75/75/75 84/81/84 76/76/76
vt 0.874023 0.410889
f 85/82/85 79/77/79 81/79/81
vt 0.748535 0.362549
f 86/74/86 87/83/87 88/66/88
vt 0.748047 0.411621
f 87/83/87 89/84/89 88/66/88
vt 0.974121 0.411377
vt 0.974121 0.362549
vt 0.995605 0.362549
f 90/85/90 91/86/91 92/87/92
vt 0.996094 0.411621
f 93/88/93 90/85/90 92/87/92
f 85/82/85 81/79/81 204/81/204
f 205/85/205 206/70/206 207/86/207
f 94/67/94 208/74/208 209/66/209
f 95/73/95 96/77/96 97/78/97
f 95/73/95 98/69/98 96/77/96
f 99/76/99 100/71/100 101/72/101
f 97/78/97 96/77/96 102/82/102
f 88/66/88 98/69/98 95/73/95
f 99/76/99 103/75/103 100/71/100
f 210/69/210 211/73/211 212/80/212
f 213/75/213 214/76/214 104/81/104
f 105/85/105 67/71/67 72/70/72
f 106/79/106 103/75/103 215/81/215
f 106/79/106 102/82/102 103/75/103
vt 0.866699 0.362549
f 97/78/97 102/82/102 107/89/107
f 216/89/216 217/82/217 218/79/218
f 219/85/219 220/70/220 108/86/108
f 87/83/87 221/74/221 89/84/89
f 89/84/89 221/74/221 68/66/68
vt 0.687988 0.420898
vt 0.664551 0.467041
vt 0.664063 0.420654
f 109/90/109 110/91/110 111/92/111
vt 0.844238 0.411377
vt 0.844238 0.362793
vt 0.874023 0.411133
f 112/93/112 113/94/113 114/95/114
vt 0.866699 0.362793
f 113/94/113 115/96/115 114/95/114
vt 0.874023 0.362793
vt 0.910156 0.411377
f 114/95/114 116/97/116 117/98/117
vt 0.837402 0.362793
f 118/99/118 222/94/222 223/93/223
f 224/96/224 225/97/225 226/95/226
vt 0.910156 0.362793
vt 0.939941 0.411621
f 117/98/117 119/100/119 120/101/120
vt 0.939941 0.363037
f 120/101/120 119/100/119 121/102/121
vt 0.809082 0.411377
vt 0.809082 0.363037
f 122/103/122 123/104/123 112/93/112
f 123/104/123 227/99/227 112/93/112
vt 0.902344 0.362793
f 117/98/117 116/97/116 124/105/124
vt 0.602051 0.402100
vt 0.587402 0.406006
vt 0.588379 0.367920
f 125/106/125 126/107/126 127/108/127
f 228/100/228 229/98/229 230/105/230
vt 0.609863 0.369141
f 125/106/125 127/108/127 128/109/128
vt 0.544434 0.332520
vt 0.583496 0.308350
f 127/108/127 129/110/129 130/111/130
vt 0.562012 0.370850
f 131/112/131 129/110/129 127/108/127
vt 0.519043 0.301758
vt 0.564941 0.260986
f 130/111/130 132/113/132 133/114/133
f 129/110/129 132/113/132 130/111/130
f 126/107/126 131/112/131 127/108/127
vt 0.568848 0.409912
f 126/107/126 134/115/134 131/112/131
vt 0.619629 0.318115
f 128/109/128 127/108/127 135/116/135
f 127/108/127 130/111/130 135/116/135
vt 0.617676 0.271484
vt 0.604492 0.226929
f 136/117/136 133/114/133 137/118/137
f 130/111/130 133/114/133 136/117/136
f 135/116/135 130/111/130 136/117/136
vt 0.511719 0.247314
f 132/113/132 138/119/138 133/114/133
vt 0.552246 0.179077
f 133/114/133 139/120/139 137/118/137
vt 0.496094 0.282959
f 132/113/132 140/121/140 138/119/138
vt 0.531738 0.212158
f 133/114/133 141/122/141 139/120/139
vt 0.575195 0.148071
f 137/118/137 139/120/139 142/123/142
f 133/114/133 138/119/138 141/122/141
f 232/37/232 233/40/233 234/39/234
f 235/38/235 232/37/232 234/39/234
f 236/42/236 237/41/237 238/43/238
f 236/42/236 239/44/239 237/41/237
f 235/38/235 234/39/234 240/45/240
f 233/40/233 232/37/232 241/46/241
f 242/47/242 239/44/239 236/42/236
f 233/40/233 243/48/243 234/39/234
f 236/42/236 238/43/238 244/49/244
f 245/51/245 246/50/246 231/52/231
f 247/53/247 246/50/246 245/51/245
f 240/45/240 234/39/234 248/54/248
f 232/37/232 249/55/249 241/46/241
f 250/56/250 242/47/242 236/42/236
f 240/45/240 248/54/248 246/50/246
f 247/53/247 240/45/240 246/50/246
f 246/50/246 248/54/248 251/57/251
f 248/54/248 252/61/252 251/57/251
f 248/54/248 253/62/253 252/61/252
f 241/46/241 242/47/242 250/56/250
f 254/58/254 241/46/241 250/56/250
f 241/46/241 249/55/249 242/47/242
f 252/61/252 255/59/255 251/57/251
f 251/57/251 255/59/255 256/60/256
f 234/39/234 243/48/243 253/62/253
f 243/48/243 241/46/241 254/58/254
f 246/50/246 251/57/251 257/91/257
f 243/48/243 258/63/258 253/62/253
f 259/64/259 243/48/243 254/58/254
f 257/91/257 251/57/251 260/90/260
f 251/57/251 256/60/256 260/90/260
f 263/66/263 264/69/264 265/68/265
f 266/67/266 263/66/263 265/68/265
f 262/71/262 267/70/267 261/72/261
f 264/69/264 268/73/268 265/68/265
f 269/67/269 270/74/270 271/66/271
f 272/75/272 273/71/273 274/72/274
f 275/76/275 272/75/272 274/72/274
f 276/77/276 277/82/277 278/79/278
f 277/82/277 272/75/272 279/81/279
f 274/72/274 273/71/273 280/70/280
f 279/81/279 272/75/272 275/76/275
f 281/78/281 276/77/276 278/79/278
f 282/83/282 283/74/283 284/66/284
f 285/84/285 282/83/282 284/66/284
f 286/85/286 287/88/287 288/87/288
f 289/86/289 286/85/286 288/87/288
f 290/70/290 291/85/291 292/86/292
f 293/74/293 294/67/294 295/66/295
f 296/77/296 297/73/297 298/78/298
f 299/69/299 297/73/297 296/77/296
f 300/71/300 214/76/214 301/72/301
f 296/77/296 298/78/298 302/82/302
f 299/69/299 284/66/284 297/73/297
f 303/75/303 214/76/214 300/71/300
f 304/73/304 305/69/305 306/80/306
f 262/71/262 219/85/219 267/70/267
f 302/82/302 307/79/307 303/75/303
f 303/75/303 307/79/307 308/81/308
f 302/82/302 298/78/298 309/89/309
f 310/82/310 311/89/311 312/79/312
f 313/70/313 314/85/314 315/86/315
f 316/74/316 282/83/282 285/84/285
f 257/91/257 317/90/317 318/92/318
f 319/96/319 320/94/320 321/95/321
f 320/94/320 322/93/322 321/95/321
f 323/94/323 324/99/324 325/93/325
f 326/97/326 327/96/327 328/95/328
f 329/100/329 330/101/330 331/102/331
f 329/100/329 332/98/332 330/101/330
f 333/99/333 334/104/334 322/93/322
f 334/104/334 335/103/335 322/93/322
f 336/97/336 332/98/332 337/105/337
f 336/97/336 321/95/321 332/98/332
f 338/108/338 339/106/339 340/109/340
f 341/98/341 342/100/342 343/105/343
f 344/107/344 339/106/339 338/108/338
f 345/110/345 338/108/338 346/111/346
f 345/110/345 347/112/347 338/108/338
f 348/113/348 345/110/345 346/111/346
f 348/113/348 346/111/346 349/114/349
f 347/112/347 344/107/344 338/108/338
f 350/115/350 344/107/344 347/112/347
f 338/108/338 340/109/340 351/116/351
f 346/111/346 338/108/338 351/116/351
f 349/114/349 346/111/346 352/117/352
f 349/114/349 352/117/352 353/118/353
f 346/111/346 351/116/351 352/117/352
f 354/119/354 348/113/348 349/114/349
f 355/121/355 348/113/348 354/119/354
f 356/122/356 349/114/349 357/120/357
f 357/120/357 353/118/353 358/123/358
f 357/120/357 349/114/349 353/118/353
f 354/119/354 349/114/349 356/122/356
vt 0.621582 0.746582
vt 0.646484 0.724121
vt 0.620605 0.724609
f 143/124/143 144/125/144 145/126/145
vt 0.645020 0.746582
f 146/127/146 144/125/144 143/124/143
vt 0.601563 0.723145
f 143/124/143 145/126/145 147/128/147
vt 0.676270 0.747070
f 144/125/144 146/127/146 148/129/148
vt 0.623047 0.761719
f 149/130/149 146/127/146 143/124/143
vt 0.601563 0.749023
f 150/131/150 143/124/143 147/128/147
vt 0.582031 0.749512
vt 0.583008 0.722168
vt 0.553223 0.745605
f 151/132/151 152/133/152 153/134/153
vt 0.557129 0.719238
f 152/133/152 154/135/154 153/134/153
f 150/131/150 147/128/147 152/133/152
f 150/131/150 152/133/152 359/132/359
vt 0.740234 0.714355
vt 0.713867 0.719238
vt 0.747559 0.738770
f 155/136/155 156/137/156 157/138/157
vt 0.719727 0.746094
f 156/137/156 158/139/158 157/138/157
vt 0.693359 0.721680
f 156/137/156 159/140/159 158/139/158
vt 0.558105 0.771484
f 160/141/160 151/132/151 153/134/153
vt 0.599609 0.768555
f 161/142/161 150/131/150 359/132/359
vt 0.739746 0.769043
f 157/138/157 158/139/158 162/143/162
vt 0.695801 0.747559
f 159/140/159 163/144/163 158/139/158
f 148/129/148 163/144/163 159/140/159
vt 0.674316 0.723633
f 164/145/164 148/129/148 159/140/159
f 144/125/144 148/129/148 164/145/164
vt 0.676758 0.763672
f 148/129/148 165/146/165 163/144/163
vt 0.579102 0.776855
f 166/147/166 151/132/151 160/141/160
vt 0.645020 0.774414
vt 0.645020 0.762207
vt 0.626953 0.775879
f 167/148/167 168/149/168 169/150/169
f 169/150/169 168/149/168 149/130/149
vt 0.604980 0.779297
f 169/150/169 149/130/149 170/151/170
f 168/149/168 146/127/146 149/130/149
vt 0.673340 0.778320
f 168/149/168 167/148/167 171/152/171
f 170/151/170 149/130/149 161/142/161
vt 0.697754 0.770020
f 165/146/165 172/153/172 163/144/163
vt 0.695313 0.783203
f 165/146/165 173/154/173 172/153/172
f 170/151/170 161/142/161 360/147/360
f 165/146/165 171/152/171 173/154/173
vt 0.724121 0.769531
f 172/153/172 173/154/173 174/155/174
vt 0.724121 0.784180
f 174/155/174 173/154/173 175/156/175
f 174/155/174 175/156/175 162/143/162
vt 0.795410 0.994629
vt 0.812988 0.986328
vt 0.795410 0.986328
f 177/157/177 361/158/361 176/159/176
vt 0.812988 0.994629
f 178/160/178 361/158/361 177/157/177
f 189/8/189 195/16/195 190/12/190
f 40/40/40 48/48/48 46/46/46
f 62/62/62 39/39/39 54/54/54
f 57/57/57 52/50/52 110/91/110
f 52/50/52 49/52/49 110/91/110
f 79/77/79 71/69/71 212/80/212
f 75/75/75 85/82/85 84/81/84
f 90/85/90 78/71/78 82/70/82
f 362/67/362 88/66/88 95/73/95
vt 0.895020 0.420654
f 56/56/56 58/58/58 179/161/179
vt 0.934570 0.420898
f 42/42/42 56/56/56 180/162/180
vt 0.875977 0.420654
f 58/58/58 181/163/181 179/161/179
vt 0.913574 0.420654
f 56/56/56 179/161/179 182/164/182
f 56/56/56 182/164/182 180/162/180
vt 0.955566 0.421143
f 42/42/42 180/162/180 183/165/183
f 42/42/42 183/165/183 51/49/51
vt 0.995117 0.421143
f 43/43/43 51/49/51 184/166/184
f 57/57/57 110/91/110 109/90/109
f 60/60/60 57/57/57 109/90/109
vt 0.792969 0.420654
f 185/167/185 62/62/62 65/65/65
vt 0.830078 0.420654
f 186/168/186 48/48/48 63/63/63
f 63/63/63 62/62/62 185/167/185
f 48/48/48 186/168/186 64/64/64
f 58/58/58 64/64/64 181/163/181
f 243/48/243 233/40/233 241/46/241
f 234/39/234 253/62/253 248/54/248
f 231/52/231 246/50/246 257/91/257
f 264/69/264 276/77/276 306/80/306
f 278/79/278 277/82/277 279/81/279
f 273/71/273 286/85/286 280/70/280
f 284/66/284 363/67/363 297/73/297
f 316/74/316 285/84/285 263/66/263
f 254/58/254 250/56/250 364/161/364
f 250/56/250 236/42/236 365/162/365
f 252/61/252 366/65/366 255/59/255
f 367/163/367 254/58/254 364/161/364
f 364/161/364 250/56/250 368/164/368
f 369/77/369 370/78/370 371/80/371
f 368/164/368 250/56/250 365/162/365
f 365/162/365 236/42/236 372/165/372
f 372/165/372 236/42/236 244/49/244
f 244/49/244 238/43/238 373/166/373
f 99/76/99 374/75/374 375/81/375
f 253/62/253 376/167/376 366/65/366
f 253/62/253 366/65/366 252/61/252
f 243/48/243 377/168/377 258/63/258
f 253/62/253 258/63/258 376/167/376
f 377/168/377 243/48/243 259/64/259
f 259/64/259 254/58/254 367/163/367
f 168/149/168 165/146/165 148/129/148
f 146/127/146 168/149/168 148/129/148
f 163/144/163 172/153/172 158/139/158
f 158/139/158 172/153/172 174/155/174
f 161/142/161 359/132/359 360/147/360
f 161/142/161 149/130/149 150/131/150
f 149/130/149 143/124/143 150/131/150
f 168/149/168 171/152/171 165/146/165
f 158/139/158 174/155/174 162/143/162
vt 0.532227 0.770996
f 160/141/160 153/134/153 187/169/187
# 329 faces, 169 coords texture

# End of File