####
#
# OBJ File Generated by Meshlab
#
####
# Object animehead_eye.obj
#
# Vertices: 121
# Faces: 204
#
####
mtllib ./animehead_eye.obj.mtl

vn 3.144282 0.418828 -5.327143
v 0.010164 0.006960 -0.013714 0.752941 0.752941 0.752941
vn 1.510306 0.263287 -2.059093
v 0.012464 0.007961 -0.011899 0.752941 0.752941 0.752941
vn 1.308798 0.017256 -1.800645
v 0.012506 0.005261 -0.012028 0.752941 0.752941 0.752941
vn 1.324395 -0.088845 -2.037565
v 0.010844 0.003772 -0.013133 0.752941 0.752941 0.752941
vn 1.026363 -0.027134 -1.958391
v 0.008760 0.003942 -0.014408 0.752941 0.752941 0.752941
vn 1.018880 0.095959 -2.347323
v 0.007403 0.006188 -0.014944 0.752941 0.752941 0.752941
vn 0.962026 0.259501 -1.996582
v 0.007361 0.008888 -0.014814 0.752941 0.752941 0.752941
vn 1.173301 0.431963 -2.085530
v 0.008979 0.010367 -0.013675 0.752941 0.752941 0.752941
vn 1.179746 0.376665 -1.824634
v 0.011107 0.010207 -0.012434 0.752941 0.752941 0.752941
vn 1.099544 -0.930420 -6.077659
v -0.012025 -0.010636 -0.019602 0.752941 0.752941 0.752941
vn 0.641049 -0.369219 -2.446350
v -0.008130 -0.010466 -0.018607 0.752941 0.752941 0.752941
vn 0.433375 -0.453983 -2.120985
v -0.009023 -0.014012 -0.018266 0.752941 0.752941 0.752941
vn 0.401696 -0.586209 -2.302000
v -0.012101 -0.015314 -0.018424 0.752941 0.752941 0.752941
vn 0.334579 -0.484167 -2.167309
v -0.015293 -0.014282 -0.019292 0.752941 0.752941 0.752941
vn 0.288118 -0.392575 -2.510819
v -0.016493 -0.010826 -0.020085 0.752941 0.752941 0.752941
vn 0.319950 -0.189174 -2.158839
v -0.015600 -0.007279 -0.020426 0.752941 0.752941 0.752941
vn 0.399300 -0.131072 -2.400976
v -0.012510 -0.005977 -0.019937 0.752941 0.752941 0.752941
vn 0.435336 -0.202348 -2.186639
v -0.009330 -0.007010 -0.019401 0.752941 0.752941 0.752941
vn 0.265661 -0.864461 -6.192369
v -0.019077 -0.006072 -0.019496 0.752941 0.752941 0.752941
vn 0.453962 -2.127425 -5.865073
v -0.013710 -0.022070 -0.015678 0.752941 0.752941 0.752941
vn 1.227342 -2.668693 -5.536484
v -0.007217 -0.025783 -0.013121 0.752941 0.752941 0.752941
vn 2.811525 1.124579 -5.417031
v 0.005096 0.019650 -0.014792 0.752941 0.752941 0.752941
vn 3.588552 -1.799697 -4.824008
v 0.011757 -0.017318 -0.008486 0.752941 0.752941 0.752941
vn 1.481618 -0.515555 -5.789048
v 0.012717 -0.001765 -0.011032 0.752941 0.752941 0.752941
vn 3.732129 -0.260484 -4.926992
v 0.014854 -0.001298 -0.009843 0.752941 0.752941 0.752941
vn 3.924272 0.221962 -4.884874
v 0.012980 0.007704 -0.010889 0.752941 0.752941 0.752941
vn 2.035645 -0.355984 -5.636903
v 0.011542 0.006578 -0.011941 0.752941 0.752941 0.752941
vn 1.749550 -0.730129 -5.395463
v 0.011830 -0.011128 -0.010483 0.752941 0.752941 0.752941
vn 1.721729 -0.785126 -5.806559
v -0.001624 0.017678 -0.017571 0.752941 0.752941 0.752941
vn 1.632758 1.111881 -5.828909
v -0.001658 0.020667 -0.017413 0.752941 0.752941 0.752941
vn 1.508241 -0.743868 -5.814222
v -0.008507 0.015493 -0.019201 0.752941 0.752941 0.752941
vn 0.752063 0.861583 -6.138461
v -0.008995 0.017608 -0.019095 0.752941 0.752941 0.752941
vn 1.973825 -0.664599 -5.746638
v 0.004454 0.016357 -0.015368 0.752941 0.752941 0.752941
vn 1.581804 -0.401909 -5.808727
v -0.013890 0.010984 -0.020111 0.752941 0.752941 0.752941
vn 0.142283 0.727755 -6.228792
v -0.015107 0.012477 -0.020035 0.752941 0.752941 0.752941
vn 1.937267 -0.518066 -5.853394
v -0.016904 0.003462 -0.020543 0.752941 0.752941 0.752941
vn 0.251958 -0.194925 -6.126003
v -0.018312 0.004067 -0.020881 0.752941 0.752941 0.752941
vn 1.731508 -0.790395 -5.606406
v 0.000153 -0.024852 -0.011267 0.752941 0.752941 0.752941
vn 2.778261 -2.147508 -5.164950
v 0.008091 -0.023151 -0.008505 0.752941 0.752941 0.752941
vn 1.631383 -1.243128 -5.307580
v 0.006895 -0.021756 -0.010078 0.752941 0.752941 0.752941
vn 2.099671 -2.658486 -5.276077
v 0.000708 -0.026774 -0.010115 0.752941 0.752941 0.752941
vn 1.706924 -0.822428 -5.346790
v -0.006803 -0.024249 -0.013882 0.752941 0.752941 0.752941
vn 1.820325 -0.629404 -5.869758
v -0.017378 -0.005798 -0.019315 0.752941 0.752941 0.752941
vn 0.983387 -1.004592 -5.950754
v -0.015844 -0.013922 -0.018215 0.752941 0.752941 0.752941
vn 1.988656 -0.641267 -5.668521
v 0.009270 0.012383 -0.013358 0.752941 0.752941 0.752941
vn 3.586601 0.614917 -5.015307
v 0.010544 0.013671 -0.012562 0.752941 0.752941 0.752941
vn 3.985519 -1.079289 -4.726996
v 0.014301 -0.010840 -0.008451 0.752941 0.752941 0.752941
vn 1.466648 -0.893681 -5.311648
v 0.010058 -0.016492 -0.010222 0.752941 0.752941 0.752941
vn 1.760316 -0.856525 -5.637131
v -0.012295 -0.020764 -0.015981 0.752941 0.752941 0.752941
vn 0.162182 -1.449359 -6.096428
v -0.017669 -0.014937 -0.017987 0.752941 0.752941 0.752941
vn 2.504932 -0.384349 -5.521150
v -0.006266 -0.015313 -0.011692 0.752941 0.752941 0.752941
vn 2.867850 -0.472894 -5.308585
v -0.009915 -0.013298 -0.013615 0.752941 0.752941 0.752941
vn 0.185822 -2.106355 -5.704936
v -0.007906 -0.007298 -0.014653 0.752941 0.752941 0.752941
vn 3.141459 -0.748630 -4.997366
v -0.011978 -0.009262 -0.015224 0.752941 0.752941 0.752941
vn 0.964084 -0.855649 -6.019037
v 0.006322 -0.008177 -0.009994 0.752941 0.752941 0.752941
vn 0.827153 -1.005725 -6.040049
v 0.003890 -0.012007 -0.009776 0.752941 0.752941 0.752941
vn 2.169491 -2.316520 -5.384004
v 0.000903 -0.008883 -0.011749 0.752941 0.752941 0.752941
vn 0.766604 -0.948861 -6.020923
v 0.000903 -0.014222 -0.009747 0.752941 0.752941 0.752941
vn 1.124582 -1.822227 -5.872138
v -0.000770 -0.010234 -0.011694 0.752941 0.752941 0.752941
vn 1.135671 -1.385370 -5.803780
v 0.001775 0.007979 -0.012629 0.752941 0.752941 0.752941
vn 1.209073 -0.551545 -5.998885
v 0.004525 0.004680 -0.011562 0.752941 0.752941 0.752941
vn 2.161301 0.510888 -5.853946
v 0.001254 0.001442 -0.012810 0.752941 0.752941 0.752941
vn 1.247882 -0.423073 -6.037800
v 0.006117 0.001193 -0.011070 0.752941 0.752941 0.752941
vn 3.356700 -0.485667 -5.094833
v -0.013003 -0.005326 -0.016614 0.752941 0.752941 0.752941
vn -0.163618 0.489978 -5.747044
v -0.008318 -0.001782 -0.014986 0.752941 0.752941 0.752941
vn 2.984821 -0.282132 -5.390423
v -0.012302 0.000250 -0.016426 0.752941 0.752941 0.752941
vn 1.543131 -0.583023 -5.677683
v -0.002229 -0.015148 -0.010011 0.752941 0.752941 0.752941
vn 1.006574 0.485660 -6.095868
v -0.007097 0.001683 -0.014870 0.752941 0.752941 0.752941
vn 3.155331 -1.118046 -4.847956
v -0.011252 0.004350 -0.016111 0.752941 0.752941 0.752941
vn 2.237486 -1.589316 -5.212179
v -0.007812 0.007500 -0.015057 0.752941 0.752941 0.752941
vn 1.277859 0.240380 -6.120552
v -0.005460 0.003192 -0.014436 0.752941 0.752941 0.752941
vn 1.671409 -0.108299 -6.052186
v -0.000152 0.003284 -0.013233 0.752941 0.752941 0.752941
vn 1.601643 -1.377636 -5.802356
v -0.002687 0.008665 -0.014007 0.752941 0.752941 0.752941
vn 1.215119 -0.654002 -5.984813
v 0.006920 -0.003436 -0.010457 0.752941 0.752941 0.752941
vn 3.023407 -0.559253 -5.465629
v 0.002625 -0.003813 -0.012473 0.752941 0.752941 0.752941
vn 2.220673 -1.604625 -5.608360
v 0.002388 -0.006534 -0.012094 0.752941 0.752941 0.752941
vn 2.280370 0.256296 -5.835670
v 0.002244 -0.001060 -0.012702 0.752941 0.752941 0.752941
vn -0.313458 -0.643663 -6.230896
v 0.007830 -0.003370 -0.010467 0.752941 0.752941 0.752941
vn -0.496469 -0.521446 -6.223073
v 0.007527 -0.008697 -0.009974 0.752941 0.752941 0.752941
vn -0.344861 -1.038132 -6.153471
v 0.007083 0.001699 -0.011101 0.752941 0.752941 0.752941
vn 1.701659 -2.361407 -5.551804
v -0.002847 0.010073 -0.014630 0.752941 0.752941 0.752941
vn 0.832236 -2.200348 -5.808719
v 0.002534 0.009058 -0.012986 0.752941 0.752941 0.752941
vn 2.605596 -2.412053 -5.148127
v -0.008024 0.009194 -0.016181 0.752941 0.752941 0.752941
vn 3.845087 -1.618189 -4.652254
v -0.011853 0.005422 -0.017299 0.752941 0.752941 0.752941
vn 4.166691 -0.949646 -4.535544
v -0.013697 0.000628 -0.017572 0.752941 0.752941 0.752941
vn 1.559857 0.264753 -6.040894
v -0.001975 -0.016401 -0.010117 0.752941 0.752941 0.752941
vn 2.634387 0.162803 -5.681264
v -0.006335 -0.016568 -0.011918 0.752941 0.752941 0.752941
vn 0.543998 -0.473336 -6.227666
v 0.002007 -0.015252 -0.009704 0.752941 0.752941 0.752941
vn 3.742802 -0.238487 -4.961936
v -0.013783 -0.005590 -0.017385 0.752941 0.752941 0.752941
vn 4.274568 -0.097990 -4.596608
v -0.012590 -0.010199 -0.015880 0.752941 0.752941 0.752941
vn 0.233549 -1.306154 -6.060184
v 0.005895 0.006530 -0.011789 0.752941 0.752941 0.752941
vn 0.514144 -0.669404 -6.203724
v 0.005121 -0.012693 -0.009731 0.752941 0.752941 0.752941
vn 3.457216 0.055027 -5.232161
v -0.010332 -0.014414 -0.014023 0.752941 0.752941 0.752941
vn 3.604982 0.325988 -5.022247
v -0.010891 -0.016239 -0.014286 0.752941 0.752941 0.752941
vn -0.373099 -0.289598 -6.090670
v 0.006445 -0.014000 -0.009329 0.752941 0.752941 0.752941
vn 1.284353 1.351492 -5.878886
v -0.001178 -0.019920 -0.010072 0.752941 0.752941 0.752941
vn -0.089807 0.717384 -6.159420
v 0.003942 -0.018060 -0.009354 0.752941 0.752941 0.752941
vn 2.989404 1.299220 -5.113718
v -0.007113 -0.019678 -0.012207 0.752941 0.752941 0.752941
vn -0.917327 -0.362816 -6.203343
v 0.009266 -0.008665 -0.010253 0.752941 0.752941 0.752941
vn 2.652673 -0.354054 -5.474296
v -0.015562 -0.011371 -0.018399 0.752941 0.752941 0.752941
vn -0.390769 -0.657043 -6.111067
v 0.008797 0.004240 -0.011984 0.752941 0.752941 0.752941
vn 3.274768 -0.325866 -4.939314
v -0.014948 0.002652 -0.019694 0.752941 0.752941 0.752941
vn -1.464046 -0.654734 -5.703477
v -0.008033 -0.004882 -0.015714 0.752941 0.752941 0.752941
vn 0.000598 -0.613377 -6.083097
v -0.008604 -0.004973 -0.015512 0.752941 0.752941 0.752941
vn 2.994162 -0.545570 -5.392222
v 0.001444 -0.003924 -0.013234 0.752941 0.752941 0.752941
vn 1.524519 -0.431412 -5.722457
v -0.003432 -0.003928 -0.015728 0.752941 0.752941 0.752941
vn 1.447470 -3.058390 -5.125107
v -0.003172 -0.008196 -0.014168 0.752941 0.752941 0.752941
vn 0.015910 -2.604590 -5.408489
v -0.005868 -0.007636 -0.015018 0.752941 0.752941 0.752941
vn 1.732944 -2.734212 -5.279027
v -0.002305 -0.010686 -0.011812 0.752941 0.752941 0.752941
vn 2.271616 -1.582885 -5.596472
v -0.004384 -0.010582 -0.012742 0.752941 0.752941 0.752941
vn 2.526589 -2.212856 -4.996686
v -0.000987 -0.007340 -0.013873 0.752941 0.752941 0.752941
vn 2.566139 0.729919 -5.618362
v -0.001602 -0.001512 -0.014738 0.752941 0.752941 0.752941
vn 2.729825 -0.501105 -5.632597
v -0.000337 -0.003849 -0.014033 0.752941 0.752941 0.752941
vn -0.381240 -0.381256 -5.992939
v -0.006812 -0.004490 -0.015925 0.752941 0.752941 0.752941
vn -0.148686 1.039689 -6.101476
v -0.005724 -0.001556 -0.015654 0.752941 0.752941 0.752941
vn 1.277271 1.302474 -5.904245
v -0.003493 -0.000572 -0.015254 0.752941 0.752941 0.752941
vn 1.466034 0.403255 -6.065983
v -0.002706 0.004040 -0.013899 0.752941 0.752941 0.752941
vn 1.065997 -2.546346 -5.566865
v -0.006303 -0.009490 -0.013766 0.752941 0.752941 0.752941
vn 1.518066 0.434023 -5.953169
v -0.001551 -0.018594 -0.009950 0.752941 0.752941 0.752941
vn 0.552351 -0.169895 -6.201670
v 0.002988 -0.016923 -0.009348 0.752941 0.752941 0.752941
vn 2.550874 0.112589 -5.688330
v -0.006693 -0.018612 -0.011938 0.752941 0.752941 0.752941
# 121 vertices, 0 vertices normals


usemtl material_0
vt 0.898498 0.875690
vt 0.934093 0.886132
vt 0.933283 0.857630
f 1/1/1 2/2/2 3/3/3
vt 0.909414 0.842058
f 1/1/1 3/3/3 4/4/4
vt 0.880488 0.844029
f 1/1/1 4/4/4 5/5/5
vt 0.864300 0.867871
f 1/1/1 5/5/5 6/6/6
vt 0.865110 0.896374
f 1/1/1 6/6/6 7/7/7
vt 0.888910 0.911851
f 1/1/1 7/7/7 8/8/8
vt 0.917906 0.909976
f 1/1/1 8/8/8 9/9/9
f 1/1/1 9/9/9 2/2/2
vt 0.900435 0.878128
vt 0.934093 0.879377
vt 0.928517 0.852865
f 10/10/10 11/11/11 12/12/12
vt 0.904285 0.843059
f 10/10/10 12/12/12 13/13/13
vt 0.876506 0.850768
f 10/10/10 13/13/13 14/14/14
vt 0.864300 0.876602
f 10/10/10 14/14/14 15/15/15
vt 0.869876 0.903113
f 10/10/10 15/15/15 16/16/16
vt 0.895445 0.912853
f 10/10/10 16/16/16 17/17/17
vt 0.921887 0.905210
f 10/10/10 17/17/17 18/18/18
f 10/10/10 18/18/18 11/11/11
vt 0.337505 0.168717
vt 0.331372 0.233495
vt 0.346168 0.172496
f 24/19/24 26/20/26 25/21/25
vt 0.331472 0.233817
vt 0.337613 0.169275
vt 0.323321 0.228995
f 26/22/26 24/23/24 27/24/27
vt 0.327524 0.107313
vt 0.346290 0.173041
f 28/25/28 24/23/24 25/26/25
vt 0.338379 0.108177
vt 0.327431 0.106526
f 47/27/47 28/28/28 25/21/25
vt 0.203032 0.308412
vt 0.131261 0.307745
vt 0.204264 0.322826
f 29/29/29 32/30/32 30/31/30
vt 0.135478 0.293978
vt 0.131062 0.307795
vt 0.202940 0.308460
f 31/32/31 32/33/32 29/34/29
vt 0.204174 0.322821
vt 0.258387 0.292198
f 30/35/30 33/36/33 29/34/29
vt 0.262484 0.308946
vt 0.258397 0.292091
f 22/37/22 33/38/33 30/31/30
vt 0.135671 0.293878
vt 0.081409 0.269272
f 31/39/31 35/40/35 32/30/32
vt 0.089183 0.259543
vt 0.081135 0.269463
f 34/41/34 35/42/35 31/32/31
vt 0.089445 0.259315
vt 0.050032 0.212921
f 34/43/34 37/44/37 35/40/35
vt 0.059771 0.210065
vt 0.049711 0.213318
f 36/45/36 37/46/37 34/41/34
vt 0.209923 0.007548
vt 0.279270 0.025886
vt 0.212114 0.002375
f 38/47/38 39/48/39 41/49/41
vt 0.274408 0.032625
vt 0.279292 0.026968
vt 0.209841 0.008697
f 40/50/40 39/51/39 38/52/38
vt 0.212036 0.003543
vt 0.143080 0.015984
f 41/53/41 42/54/42 38/52/38
vt 0.141825 0.010054
vt 0.143261 0.014862
f 21/55/21 42/56/42 41/49/41
vt 0.060077 0.209656
vt 0.041280 0.144581
f 36/57/36 19/58/19 37/44/37
vt 0.051164 0.142039
vt 0.040946 0.145228
f 43/59/43 19/60/19 36/45/36
vt 0.051483 0.141380
vt 0.051495 0.084570
f 43/61/43 50/62/50 19/58/19
vt 0.062820 0.087988
vt 0.051177 0.085437
f 44/63/44 50/64/50 43/59/43
vt 0.262480 0.308992
vt 0.298538 0.264109
f 22/65/22 45/66/45 33/36/33
vt 0.311339 0.274076
vt 0.298488 0.263898
f 46/67/46 45/68/45 22/37/22
vt 0.323234 0.228656
f 27/69/27 46/67/46 26/20/26
vt 0.311408 0.274249
f 45/66/45 46/70/46 27/24/27
vt 0.338489 0.108957
vt 0.304078 0.067114
f 47/71/47 48/72/48 28/25/28
vt 0.313912 0.064776
vt 0.304019 0.066179
f 23/73/23 48/74/48 47/27/47
vt 0.274393 0.031564
f 40/75/40 23/73/23 39/48/39
vt 0.313986 0.065716
f 48/72/48 23/76/23 40/50/40
vt 0.141641 0.011194
vt 0.095490 0.042807
f 21/77/21 49/78/49 42/54/42
vt 0.084832 0.035936
vt 0.095743 0.041784
f 20/79/20 49/80/49 21/55/21
vt 0.063122 0.087130
f 44/81/44 20/79/20 50/62/50
vt 0.084564 0.036981
f 49/78/49 20/82/20 44/63/44
vt 0.159084 0.120376
vt 0.160880 0.082241
vt 0.129589 0.096039
f 118/83/118 51/84/51 52/85/52
vt 0.176034 0.111618
f 110/86/110 51/84/51 118/83/118
vt 0.145109 0.137471
f 52/85/52 53/87/53 118/83/118
vt 0.112782 0.123037
f 54/88/54 53/87/53 52/85/52
vt 0.226618 0.124181
vt 0.274856 0.127951
vt 0.252006 0.102873
f 57/89/57 55/90/55 56/91/56
vt 0.239075 0.141024
f 76/92/76 55/90/55 57/89/57
vt 0.208918 0.113476
f 56/91/56 59/93/59 57/89/57
vt 0.224556 0.088580
f 58/94/58 59/93/59 56/91/56
vt 0.230080 0.202236
vt 0.238460 0.251888
vt 0.261997 0.213416
f 62/95/62 60/96/60 61/97/61
vt 0.217554 0.216629
f 72/98/72 60/96/60 62/95/62
vt 0.238895 0.182886
f 61/97/61 77/99/77 62/95/62
vt 0.275440 0.190089
f 63/100/63 77/99/77 61/97/61
vt 0.139549 0.155381
f 54/88/54 104/101/104 53/87/53
vt 0.105200 0.149248
f 64/102/64 104/101/104 54/88/54
vt 0.142236 0.179725
f 64/102/64 65/103/65 104/101/104
vt 0.112409 0.186139
f 66/104/66 65/103/65 64/102/64
vt 0.196235 0.082841
f 110/86/110 67/105/67 51/84/51
vt 0.194666 0.110375
f 109/106/109 67/105/67 110/86/110
vt 0.153949 0.205941
f 66/104/66 68/107/68 65/103/65
vt 0.122411 0.213197
f 69/108/69 68/107/68 66/104/66
vt 0.169051 0.217113
f 69/108/69 71/109/71 68/107/68
vt 0.153356 0.249913
f 70/110/70 71/109/71 69/108/69
vt 0.199189 0.256992
f 72/98/72 73/111/73 60/96/60
vt 0.194389 0.222977
f 117/112/117 73/111/73 72/98/72
f 70/110/70 117/112/117 71/109/71
f 73/111/73 117/112/117 70/110/70
vt 0.281439 0.159300
f 76/92/76 74/113/74 55/90/55
vt 0.241912 0.161754
f 75/114/75 74/113/74 76/92/76
f 63/100/63 75/114/75 77/99/77
f 74/113/74 75/114/75 63/100/63
vt 0.289694 0.159617
f 78/115/78 55/90/55 74/113/74
vt 0.285650 0.124347
f 79/116/79 55/90/55 78/115/78
vt 0.284286 0.193321
f 74/113/74 80/117/80 78/115/78
f 63/100/63 80/117/80 74/113/74
vt 0.198436 0.266336
f 81/118/81 60/96/60 73/111/73
vt 0.245775 0.258931
f 82/119/82 60/96/60 81/118/81
f 29/34/29 82/119/82 81/118/81
f 33/36/33 82/119/82 29/34/29
f 81/118/81 31/32/31 29/34/29
vt 0.152534 0.261151
f 83/120/83 31/32/31 81/118/81
f 73/111/73 83/120/83 81/118/81
f 70/110/70 83/120/83 73/111/73
f 83/120/83 34/41/34 31/32/31
vt 0.118012 0.220360
f 84/121/84 34/41/34 83/120/83
f 70/110/70 84/121/84 83/120/83
f 69/108/69 84/121/84 70/110/70
vt 0.100666 0.188801
f 69/108/69 85/122/85 84/121/84
f 66/104/66 85/122/85 69/108/69
vt 0.198389 0.074497
f 86/123/86 51/84/51 67/105/67
vt 0.160195 0.073923
f 87/124/87 51/84/51 86/123/86
vt 0.234336 0.081605
f 67/105/67 88/125/88 86/123/86
f 58/94/58 88/125/88 67/105/67
vt 0.098650 0.147584
f 66/104/66 89/126/89 85/122/85
f 64/102/64 89/126/89 66/104/66
vt 0.107551 0.116895
f 64/102/64 90/127/90 89/126/89
f 54/88/54 90/127/90 64/102/64
vt 0.274887 0.225495
f 63/100/63 91/128/91 80/117/80
f 61/97/61 91/128/91 63/100/63
f 82/119/82 61/97/61 60/96/60
f 91/128/91 61/97/61 82/119/82
f 33/36/33 91/128/91 82/119/82
f 45/66/45 91/128/91 33/36/33
vt 0.262993 0.098167
f 58/94/58 92/129/92 88/125/88
f 56/91/56 92/129/92 58/94/58
f 79/116/79 56/91/56 55/90/55
f 92/129/92 56/91/56 79/116/79
vt 0.125908 0.088681
f 54/88/54 93/130/93 90/127/90
f 52/85/52 93/130/93 54/88/54
f 87/124/87 52/85/52 51/84/51
f 93/130/93 52/85/52 87/124/87
vt 0.120706 0.076653
f 93/130/93 94/131/94 90/127/90
vt 0.274450 0.089331
f 95/132/95 92/129/92 79/116/79
vt 0.204939 0.051056
f 96/133/96 40/50/40 38/52/38
vt 0.251095 0.062734
f 97/134/97 40/50/40 96/133/96
vt 0.152807 0.053393
f 38/52/38 98/135/98 96/133/96
f 42/54/42 98/135/98 38/52/38
f 97/134/97 48/72/48 40/50/40
f 95/132/95 48/72/48 97/134/97
f 42/54/42 94/131/94 98/135/98
f 49/78/49 94/131/94 42/54/42
vt 0.301596 0.124326
f 99/136/99 24/23/24 28/25/28
f 79/116/79 99/136/99 95/132/95
f 78/115/78 24/23/24 99/136/99
f 99/136/99 79/116/79 78/115/78
f 99/136/99 48/72/48 95/132/95
f 99/136/99 28/25/28 48/72/48
vt 0.073184 0.109729
f 100/137/100 44/63/44 43/59/43
f 100/137/100 90/127/90 94/131/94
f 90/127/90 100/137/100 89/126/89
f 89/126/89 100/137/100 43/59/43
f 44/63/44 100/137/100 49/78/49
f 49/78/49 100/137/100 94/131/94
vt 0.300882 0.209926
f 101/138/101 24/23/24 80/117/80
f 27/24/27 24/23/24 101/138/101
f 80/117/80 24/23/24 78/115/78
f 27/24/27 101/138/101 91/128/91
f 101/138/101 80/117/80 91/128/91
f 27/24/27 91/128/91 45/66/45
vt 0.082164 0.202617
f 85/122/85 102/139/102 84/121/84
f 102/139/102 36/45/36 84/121/84
f 36/45/36 34/41/34 84/121/84
f 36/45/36 102/139/102 43/59/43
f 102/139/102 85/122/85 43/59/43
f 85/122/85 89/126/89 43/59/43
vt 0.453300 1.479302
vt 0.158773 0.124670
vt 0.163929 0.173142
f 103/140/103 104/141/104 65/142/65
vt 0.222772 0.160548
vt 0.216186 0.160156
vt 0.220868 0.174385
f 75/143/75 105/144/105 77/145/77
vt 0.188722 0.160819
vt 0.189170 0.139446
vt 0.173783 0.142639
f 106/146/106 107/147/107 108/148/108
vt 0.170496 0.133452
f 107/147/107 118/149/118 108/148/108
vt 0.192953 0.126902
f 109/150/109 118/149/118 107/147/107
vt 0.181194 0.127716
f 109/150/109 110/151/110 118/149/118
vt 0.201931 0.143406
f 106/146/106 111/152/111 107/147/107
f 111/152/111 109/150/109 107/147/107
vt 0.211913 0.135441
f 57/153/57 109/150/109 111/152/111
vt 0.215304 0.187056
f 105/144/105 62/154/62 77/145/77
vt 0.199203 0.172661
vt 0.206109 0.160782
f 106/146/106 112/155/112 113/156/113
f 112/155/112 105/144/105 113/156/113
f 62/154/62 105/144/105 112/155/112
f 106/146/106 113/156/113 111/152/111
f 113/156/113 105/144/105 111/152/111
vt 0.212392 0.156819
vt 0.168925 0.158513
f 103/157/103 114/158/114 108/148/108
f 106/146/106 108/148/108 114/158/114
vt 0.175421 0.173042
f 106/146/106 114/158/114 115/159/115
vt 0.167254 0.189482
f 114/158/114 68/160/68 115/159/115
f 103/157/103 68/160/68 114/158/114
vt 0.159862 0.172315
f 103/157/103 65/161/65 68/160/68
vt 0.188414 0.177643
f 106/146/106 115/159/115 116/162/116
vt 0.192778 0.200638
f 115/159/115 117/163/117 116/162/116
f 68/160/68 117/163/117 115/159/115
vt 0.176786 0.196798
f 68/160/68 71/164/71 117/163/117
f 106/146/106 116/162/116 112/155/112
f 116/162/116 62/154/62 112/155/112
f 117/163/117 62/154/62 116/162/116
vt 0.207399 0.196481
f 117/163/117 72/165/72 62/154/62
vt 0.158166 0.156374
vt 0.161675 0.144646
f 104/166/104 103/157/103 53/167/53
f 118/149/118 53/167/53 108/148/108
f 103/157/103 108/148/108 53/167/53
vt 0.220982 0.146972
f 75/143/75 76/168/76 105/144/105
f 111/152/111 105/144/105 57/153/57
f 76/168/76 57/153/57 105/144/105
vt 0.201716 0.059901
f 119/169/119 97/134/97 96/133/96
vt 0.242664 0.070404
f 120/170/120 97/134/97 119/169/119
f 86/123/86 120/170/120 119/169/119
f 88/125/88 120/170/120 86/123/86
f 119/169/119 87/124/87 86/123/86
vt 0.156596 0.060416
f 121/171/121 87/124/87 119/169/119
f 96/133/96 121/171/121 119/169/119
f 98/135/98 121/171/121 96/133/96
f 120/170/120 88/125/88 92/129/92
f 87/124/87 121/171/121 93/130/93
f 121/171/121 94/131/94 93/130/93
f 121/171/121 98/135/98 94/131/94
f 97/134/97 120/170/120 95/132/95
f 95/132/95 120/170/120 92/129/92
vt 0.201948 0.128933
f 109/150/109 57/153/57 59/172/59
f 58/94/58 109/106/109 59/93/59
f 109/106/109 58/94/58 67/105/67
# 204 faces, 172 coords texture

# End of File