####
#
# OBJ File Generated by Meshlab
#
####
# Object marisa_eyes.obj
#
# Vertices: 38
# Faces: 34
#
####
mtllib ./marisa_eyes.obj.mtl

vn 0.291063 -2.663726 -0.376014
v 1.297200 -3.737306 63.812904
vn 0.066286 -2.235294 -0.388076
v 1.167685 -3.824226 64.328400
vn 0.523304 -2.720096 -0.434701
v 1.430100 -3.880406 64.684608
vn 0.284427 -2.806674 -0.478298
v 1.457065 -3.692389 63.618454
vn 0.409326 -2.620280 -0.409823
v 1.594000 -3.660807 63.525402
vn 0.727154 -2.711146 -0.379477
v 1.980300 -3.813907 64.990707
vn 0.534581 -2.779776 -0.416774
v 1.681084 -3.846687 64.876534
vn 0.927531 -2.666110 -0.350392
v 2.269258 -3.713873 65.019058
vn 1.429176 -2.333046 -0.500793
v 2.561800 -3.606907 64.954407
vn 1.061554 -2.646304 -0.452266
v 2.104000 -3.566307 63.458782
vn 1.796895 -2.359018 -0.512878
v 2.323275 -3.418952 63.491127
vn 2.095924 -2.035616 -0.630096
v 2.705257 -3.425788 64.860863
vn 2.196721 -2.006528 -0.565603
v 2.820100 -3.265807 64.745209
vn 1.955579 -1.937570 -0.556646
v 2.502800 -3.277207 63.553303
vn 2.099692 -1.629628 -0.567581
v 2.921327 -3.120124 64.612000
vn 2.177777 -1.484768 -0.640141
v 2.675900 -3.094607 63.732605
vn 2.562401 -0.658017 -0.325465
v 2.923200 -2.966506 64.329109
vn 1.947253 -1.856264 -0.467761
v 2.892200 -2.978706 64.109711
vn 2.539471 -1.242128 -0.693933
v 2.926200 -3.043507 64.508408
vn -1.365404 -2.344740 -0.062533
v -2.892200 -2.978706 64.109711
vn -2.160282 -1.493097 -0.574968
v -2.923200 -2.966505 64.329109
vn -2.533454 -1.234876 -0.736039
v -2.926200 -3.043506 64.508408
vn -2.182103 -1.482852 -0.630113
v -2.675900 -3.094606 63.732605
vn -2.099695 -1.629621 -0.567583
v -2.921327 -3.120123 64.612000
vn -2.196724 -2.006526 -0.565605
v -2.820100 -3.265807 64.745209
vn -1.796898 -2.359016 -0.512879
v -2.323275 -3.418952 63.491127
vn -1.955582 -1.937564 -0.556647
v -2.502800 -3.277206 63.553303
vn -2.095922 -2.035619 -0.630095
v -2.705257 -3.425788 64.860863
vn -1.429183 -2.333045 -0.500793
v -2.561800 -3.606906 64.954407
vn -0.927534 -2.666107 -0.350394
v -2.269258 -3.713874 65.019058
vn -0.727144 -2.711149 -0.379478
v -1.980300 -3.813907 64.990707
vn -1.061552 -2.646305 -0.452266
v -2.104000 -3.566307 63.458782
vn -0.534583 -2.779777 -0.416775
v -1.681084 -3.846686 64.876534
vn -0.409330 -2.620279 -0.409823
v -1.594000 -3.660806 63.525402
vn -0.523321 -2.720087 -0.434701
v -1.430100 -3.880407 64.684608
vn -0.291094 -2.663724 -0.376001
v -1.297200 -3.737307 63.812904
vn -0.284443 -2.806672 -0.478299
v -1.457065 -3.692389 63.618454
vn -0.066281 -2.235294 -0.388077
v -1.167685 -3.824226 64.328400
# 38 vertices, 0 vertices normals


usemtl material_0
vt 0.220162 -1.519078
vt 0.262979 -1.674820
vt 0.319059 -1.731125
f 2/1/2 1/2/1 4/3/4
vt 0.307938 -1.414344
f 3/4/3 2/1/2 4/3/4
vt 0.363342 -1.760696
f 3/4/3 4/3/4 5/5/5
vt 0.393034 -1.354646
f 5/5/5 7/6/7 3/4/3
vt 0.535872 -1.783816
f 10/7/10 7/6/7 5/5/5
vt 0.494051 -1.322925
f 6/8/6 7/6/7 10/7/10
vt 0.592886 -1.312635
f 10/7/10 8/9/8 6/8/6
vt 0.690780 -1.333707
f 9/10/9 8/9/8 10/7/10
vt 0.739322 -1.360513
f 10/7/10 12/11/12 9/10/9
vt 0.609633 -1.771691
f 10/7/10 11/12/11 12/11/12
vt 0.670793 -1.752382
f 12/11/12 11/12/11 14/13/14
vt 0.778162 -1.396273
f 13/14/13 12/11/12 14/13/14
vt 0.811889 -1.433860
f 14/13/14 15/15/15 13/14/13
vt 0.729335 -1.698813
f 16/16/16 15/15/15 14/13/14
vt 0.814052 -1.467001
f 19/17/19 15/15/15 16/16/16
vt 0.802533 -1.586134
f 19/17/19 16/16/16 18/18/18
vt 0.812978 -1.520569
f 17/19/17 19/17/19 18/18/18
vt 0.193001 -1.523087
vt 0.203163 -1.589285
vt 0.274383 -1.703053
f 21/20/21 20/21/20 23/22/23
vt 0.191955 -1.469001
f 22/23/22 21/20/21 23/22/23
vt 0.194060 -1.435539
f 22/23/22 23/22/23 24/24/24
vt 0.331342 -1.757139
f 23/22/23 27/25/27 24/24/24
vt 0.226875 -1.397590
f 27/25/27 25/26/25 24/24/24
vt 0.264665 -1.361484
f 25/26/25 27/25/27 28/27/28
vt 0.390850 -1.776635
f 28/27/28 27/25/27 26/28/26
vt 0.462617 -1.788877
f 32/29/32 28/27/28 26/28/26
vt 0.311896 -1.334419
f 32/29/32 29/30/29 28/27/28
vt 0.407144 -1.313143
f 29/30/29 32/29/32 30/31/30
vt 0.503308 -1.323533
f 32/29/32 31/32/31 30/31/30
vt 0.601595 -1.355560
f 31/32/31 32/29/32 33/33/33
vt 0.630484 -1.765533
f 32/29/32 34/34/34 33/33/33
vt 0.684390 -1.415836
f 34/34/34 35/35/35 33/33/33
vt 0.673570 -1.735677
f 35/35/35 34/34/34 37/36/37
vt 0.769794 -1.521581
f 35/35/35 37/36/37 38/37/38
vt 0.728134 -1.678827
f 38/37/38 37/36/37 36/38/36
# 34 faces, 38 coords texture

# End of File