####
#
# OBJ File Generated by Meshlab
#
####
# Object vegetahair.obj
#
# Vertices: 840
# Faces: 282
#
####
mtllib ./vegetahair.obj.mtl

vn -0.589670 0.792715 0.154572
v -2.112623 8.575476 -1.179688
vn -0.589670 0.792715 0.154572
v -1.606394 8.675552 0.238266
vn -0.589670 0.792715 0.154572
v -1.147046 9.802433 -3.788544
vn -0.902513 0.308565 0.300431
v -0.956574 3.613151 7.389816
vn -0.902513 0.308565 0.300431
v -1.606394 8.675552 0.238266
vn -0.902513 0.308565 0.300431
v -2.112623 8.575476 -1.179688
vn 0.383055 0.900189 0.207191
v -0.345134 10.157691 -3.905548
vn 0.383055 0.900189 0.207191
v 1.487184 9.395574 -3.981949
vn 0.383055 0.900189 0.207191
v 0.226336 10.198902 -5.141136
vn 0.381547 0.893650 0.236243
v -0.302210 9.133366 -0.100098
vn 0.381547 0.893650 0.236243
v 1.487184 9.395574 -3.981949
vn 0.381547 0.893650 0.236243
v -0.345134 10.157691 -3.905548
vn 0.469262 0.839788 0.273038
v -0.302210 9.133366 -0.100098
vn 0.469262 0.839788 0.273038
v 1.773657 8.065292 -0.382736
vn 0.469262 0.839788 0.273038
v 1.487184 9.395574 -3.981949
vn 0.292525 0.941616 0.166701
v -0.345134 10.157691 -3.905548
vn 0.292525 0.941616 0.166701
v 0.226336 10.198902 -5.141136
vn 0.292525 0.941616 0.166701
v -0.310358 10.590647 -6.412132
vn -0.381683 0.911680 0.152177
v -1.147046 9.802433 -3.788544
vn -0.381683 0.911680 0.152177
v -0.345134 10.157691 -3.905548
vn -0.381683 0.911680 0.152177
v -0.310358 10.590647 -6.412132
vn -0.131385 0.803457 0.580685
v -1.606394 8.675552 0.238266
vn -0.131385 0.803457 0.580685
v -0.956574 3.613151 7.389816
vn -0.131385 0.803457 0.580685
v -0.302210 9.133366 -0.100098
vn -0.370032 0.904746 0.210978
v -0.345134 10.157691 -3.905548
vn -0.370032 0.904746 0.210978
v -1.147046 9.802433 -3.788544
vn -0.370032 0.904746 0.210978
v -1.606394 8.675552 0.238266
vn -0.261139 0.931380 0.253648
v -1.606394 8.675552 0.238266
vn -0.261139 0.931380 0.253648
v -0.302210 9.133366 -0.100098
vn -0.261139 0.931380 0.253648
v -0.345134 10.157691 -3.905548
vn -0.934650 0.238180 0.264009
v -2.170306 5.488451 1.401108
vn -0.934650 0.238180 0.264009
v -0.956574 3.613151 7.389816
vn -0.934650 0.238180 0.264009
v -2.112623 8.575476 -1.179688
vn 0.997028 0.007165 -0.076709
v 1.780802 6.803677 -0.407715
vn 0.997028 0.007165 -0.076709
v 1.487184 9.395574 -3.981949
vn 0.997028 0.007165 -0.076709
v 1.773657 8.065292 -0.382736
vn -0.397715 -0.895489 -0.199808
v -0.956574 3.613151 7.389816
vn -0.397715 -0.895489 -0.199808
v -2.170306 5.488451 1.401108
vn -0.397715 -0.895489 -0.199808
v -0.358299 4.662745 1.494934
vn 0.884549 -0.371286 0.282346
v -5.839310 0.688492 6.583603
vn 0.884549 -0.371286 0.282346
v -4.657933 0.471335 2.596954
vn 0.884549 -0.371286 0.282346
v -2.170306 5.488451 1.401108
vn -0.538449 0.841770 -0.038691
v -3.451996 9.186976 -4.041595
vn -0.538449 0.841770 -0.038691
v -5.021044 8.276190 -2.020996
vn -0.538449 0.841770 -0.038691
v -1.791020 10.198902 -5.141136
vn -0.851633 0.499859 -0.157679
v -4.758543 8.085071 -4.044647
vn -0.851633 0.499859 -0.157679
v -6.322453 6.285994 -1.301147
vn -0.851633 0.499859 -0.157679
v -5.021044 8.276190 -2.020996
vn -0.781166 -0.525495 -0.337098
v -6.667201 3.890413 1.923157
vn -0.781166 -0.525495 -0.337098
v -5.012836 2.468380 0.306229
vn -0.781166 -0.525495 -0.337098
v -4.657933 0.471335 2.596954
vn -0.636806 0.755497 -0.153956
v -5.021044 8.276190 -2.020996
vn -0.636806 0.755497 -0.153956
v -3.451996 9.186976 -4.041595
vn -0.636806 0.755497 -0.153956
v -4.758543 8.085071 -4.044647
vn -0.774635 -0.553628 -0.305673
v -6.066860 4.994975 -1.598785
vn -0.774635 -0.553628 -0.305673
v -5.012836 2.468380 0.306229
vn -0.774635 -0.553628 -0.305673
v -6.667201 3.890413 1.923157
vn -0.822838 -0.525959 -0.215185
v -4.657933 0.471335 2.596954
vn -0.822838 -0.525959 -0.215185
v -5.839310 0.688492 6.583603
vn -0.822838 -0.525959 -0.215185
v -6.667201 3.890413 1.923157
vn -0.711328 0.598461 0.368586
v -6.322453 6.285994 -1.301147
vn -0.711328 0.598461 0.368586
v -6.667201 3.890413 1.923157
vn -0.711328 0.598461 0.368586
v -5.021044 8.276190 -2.020996
vn -0.495564 0.706142 0.505747
v -4.219723 5.752252 2.288208
vn -0.495564 0.706142 0.505747
v -2.620445 9.436253 -1.288452
vn -0.495564 0.706142 0.505747
v -5.021044 8.276190 -2.020996
vn -0.853438 -0.049343 -0.518853
v -6.066860 4.994975 -1.598785
vn -0.853438 -0.049343 -0.518853
v -6.322453 6.285994 -1.301147
vn -0.853438 -0.049343 -0.518853
v -4.758543 8.085071 -4.044647
vn -0.967220 -0.143130 -0.209759
v -6.667201 3.890413 1.923157
vn -0.967220 -0.143130 -0.209759
v -6.322453 6.285994 -1.301147
vn -0.967220 -0.143130 -0.209759
v -6.066860 4.994975 -1.598785
vn 0.421069 0.873273 0.245143
v -1.147046 9.802433 -3.788544
vn 0.421069 0.873273 0.245143
v -0.782342 10.865135 -8.200645
vn 0.421069 0.873273 0.245143
v -1.254326 10.590647 -6.412132
vn 0.719390 0.486994 0.495293
v -2.620445 9.436253 -1.288452
vn 0.719390 0.486994 0.495293
v -2.112623 8.575476 -1.179688
vn 0.719390 0.486994 0.495293
v -1.147046 9.802433 -3.788544
vn 0.655842 0.729946 0.192482
v -1.254326 10.590647 -6.412132
vn 0.655842 0.729946 0.192482
v -1.642469 10.301458 -3.992935
vn 0.655842 0.729946 0.192482
v -1.147046 9.802433 -3.788544
vn 0.670666 0.468346 0.575203
v -2.170306 5.488451 1.401108
vn 0.670666 0.468346 0.575203
v -2.112623 8.575476 -1.179688
vn 0.670666 0.468346 0.575203
v -2.620445 9.436253 -1.288452
vn 0.547607 0.718969 0.428031
v -1.147046 9.802433 -3.788544
vn 0.547607 0.718969 0.428031
v -1.642469 10.301458 -3.992935
vn 0.547607 0.718969 0.428031
v -2.620445 9.436253 -1.288452
vn -0.460458 0.880190 0.115079
v -5.021044 8.276190 -2.020996
vn -0.460458 0.880190 0.115079
v -2.620445 9.436253 -1.288452
vn -0.460458 0.880190 0.115079
v -1.642469 10.301458 -3.992935
vn -0.518134 0.855248 -0.009356
v -5.021044 8.276190 -2.020996
vn -0.518134 0.855248 -0.009356
v -1.642469 10.301458 -3.992935
vn -0.518134 0.855248 -0.009356
v -1.791020 10.198902 -5.141136
vn -0.584648 0.811281 0.003177
v -1.791020 10.198902 -5.141136
vn -0.584648 0.811281 0.003177
v -1.642469 10.301458 -3.992935
vn -0.584648 0.811281 0.003177
v -1.254326 10.590647 -6.412132
vn 0.739721 0.495004 0.455832
v 3.820830 2.092872 3.948669
vn 0.739721 0.495004 0.455832
v 5.112793 3.609963 0.204620
vn 0.739721 0.495004 0.455832
v 3.033324 6.920227 -0.015564
vn 0.471286 0.876844 0.095044
v 1.887313 9.186977 -4.041595
vn 0.471286 0.876844 0.095044
v 0.226336 10.198902 -5.141136
vn 0.471286 0.876844 0.095044
v 1.487184 9.395574 -3.981949
vn -0.240917 0.814793 0.527325
v 1.780802 6.803677 -0.407715
vn -0.240917 0.814793 0.527325
v 3.033324 6.920227 -0.015564
vn -0.240917 0.814793 0.527325
v 1.887313 9.186977 -4.041595
vn 0.845380 0.533197 0.032150
v 3.033324 6.920227 -0.015564
vn 0.845380 0.533197 0.032150
v 5.112793 3.609963 0.204620
vn 0.845380 0.533197 0.032150
v 4.265300 5.077636 -1.851471
vn 0.626274 0.741920 0.239449
v 3.193860 8.085072 -4.044647
vn 0.626274 0.741920 0.239449
v 1.887313 9.186977 -4.041595
vn 0.626274 0.741920 0.239449
v 3.033324 6.920227 -0.015564
vn 0.222463 -0.973953 0.043885
v 1.224447 1.431008 2.421356
vn 0.222463 -0.973953 0.043885
v 4.829331 2.160771 0.343246
vn 0.222463 -0.973953 0.043885
v 3.820830 2.092872 3.948669
vn 0.951268 -0.160905 0.263056
v 5.112793 3.609963 0.204620
vn 0.951268 -0.160905 0.263056
v 3.820830 2.092872 3.948669
vn 0.951268 -0.160905 0.263056
v 4.829331 2.160771 0.343246
vn 0.351804 -0.914028 -0.201959
v 3.820830 2.092872 3.948669
vn 0.351804 -0.914028 -0.201959
v 1.214233 -0.202632 9.797089
vn 0.351804 -0.914028 -0.201959
v 1.224447 1.431008 2.421356
vn 0.886951 0.433064 0.160543
v 3.033324 6.920227 -0.015564
vn 0.886951 0.433064 0.160543
v 4.265300 5.077636 -1.851471
vn 0.886951 0.433064 0.160543
v 3.193860 8.085072 -4.044647
vn 0.458274 0.737004 0.496800
v 1.887313 9.186977 -4.041595
vn 0.458274 0.737004 0.496800
v 1.487184 9.395574 -3.981949
vn 0.458274 0.737004 0.496800
v 1.780802 6.803677 -0.407715
vn -0.897842 0.354877 0.260658
v -0.358299 4.662745 1.494934
vn -0.897842 0.354877 0.260658
v -0.782341 2.682999 2.729675
vn -0.897842 0.354877 0.260658
v 0.099338 3.083011 5.222031
vn -0.230981 0.842018 0.487497
v 3.033324 6.920227 -0.015564
vn -0.230981 0.842018 0.487497
v 1.780802 6.803677 -0.407715
vn -0.230981 0.842018 0.487497
v 0.099338 3.083011 5.222031
vn 0.647053 0.544139 0.534074
v 1.690703 3.800787 4.789307
vn 0.647053 0.544139 0.534074
v 3.820830 2.092872 3.948669
vn 0.647053 0.544139 0.534074
v 3.033324 6.920227 -0.015564
vn 0.651443 0.561167 0.510601
v 1.690703 3.800787 4.789307
vn 0.651443 0.561167 0.510601
v 1.214233 -0.202632 9.797089
vn 0.651443 0.561167 0.510601
v 3.820830 2.092872 3.948669
vn -0.250289 0.842495 0.477030
v 0.099338 3.083011 5.222031
vn -0.250289 0.842495 0.477030
v 1.690703 3.800787 4.789307
vn -0.250289 0.842495 0.477030
v 3.033324 6.920227 -0.015564
vn -0.186135 0.775994 0.602650
v 0.099338 3.083011 5.222031
vn -0.186135 0.775994 0.602650
v 1.214233 -0.202632 9.797089
vn -0.186135 0.775994 0.602650
v 1.690703 3.800787 4.789307
vn -0.450408 0.800823 0.394734
v 0.099338 3.083011 5.222031
vn -0.450408 0.800823 0.394734
v 1.780802 6.803677 -0.407715
vn -0.450408 0.800823 0.394734
v -0.358299 4.662745 1.494934
vn -0.590877 -0.787499 -0.175240
v 1.214233 -0.202632 9.797089
vn -0.590877 -0.787499 -0.175240
v -0.178928 2.085196 4.213470
vn -0.590877 -0.787499 -0.175240
v 1.224447 1.431008 2.421356
vn -0.968309 0.018268 0.249087
v 1.214233 -0.202632 9.797089
vn -0.968309 0.018268 0.249087
v 0.099338 3.083011 5.222031
vn -0.968309 0.018268 0.249087
v -0.178928 2.085196 4.213470
vn -0.934598 -0.087781 0.344705
v -0.178928 2.085196 4.213470
vn -0.934598 -0.087781 0.344705
v 0.099338 3.083011 5.222031
vn -0.934598 -0.087781 0.344705
v -0.782341 2.682999 2.729675
vn -0.538564 -0.834401 -0.117153
v -0.178928 2.085196 4.213470
vn -0.538564 -0.834401 -0.117153
v -0.782341 2.682999 2.729675
vn -0.538564 -0.834401 -0.117153
v 1.224447 1.431008 2.421356
vn 0.799271 -0.488852 -0.349555
v 7.064435 3.650703 -1.585907
vn 0.799271 -0.488852 -0.349555
v 6.619198 1.718545 0.098160
vn 0.799271 -0.488852 -0.349555
v 6.335322 4.692799 -4.710419
vn 0.984350 -0.156901 0.080230
v 7.064435 3.650703 -1.585907
vn 0.984350 -0.156901 0.080230
v 6.035447 0.821339 5.505676
vn 0.984350 -0.156901 0.080230
v 6.619198 1.718545 0.098160
vn 0.859564 0.510121 -0.030445
v 5.480744 6.155807 -4.324585
vn 0.859564 0.510121 -0.030445
v 7.064435 3.650703 -1.585907
vn 0.859564 0.510121 -0.030445
v 6.335322 4.692799 -4.710419
vn 0.816765 0.534434 -0.217428
v 5.480744 6.155807 -4.324585
vn 0.816765 0.534434 -0.217428
v 6.335322 4.692799 -4.710419
vn 0.816765 0.534434 -0.217428
v 4.343649 6.389968 -8.020508
vn 0.624229 0.767969 -0.143396
v 3.917482 7.263085 -5.199638
vn 0.624229 0.767969 -0.143396
v 5.480744 6.155807 -4.324585
vn 0.624229 0.767969 -0.143396
v 4.343649 6.389968 -8.020508
vn -0.852051 0.387365 0.352074
v 5.065205 6.383415 -2.962006
vn -0.852051 0.387365 0.352074
v 5.112793 3.609963 0.204620
vn -0.852051 0.387365 0.352074
v 6.035447 0.821339 5.505676
vn 0.768081 0.627125 0.129482
v 5.065205 6.383415 -2.962006
vn 0.768081 0.627125 0.129482
v 7.064435 3.650703 -1.585907
vn 0.768081 0.627125 0.129482
v 5.480744 6.155807 -4.324585
vn 0.564735 0.824552 0.034489
v 5.065205 6.383415 -2.962006
vn 0.564735 0.824552 0.034489
v 5.480744 6.155807 -4.324585
vn 0.564735 0.824552 0.034489
v 3.917482 7.263085 -5.199638
vn 0.657519 0.662102 0.359568
v 6.035447 0.821339 5.505676
vn 0.657519 0.662102 0.359568
v 7.064435 3.650703 -1.585907
vn 0.657519 0.662102 0.359568
v 5.065205 6.383415 -2.962006
vn -0.292569 0.717165 0.632517
v 5.112793 3.609963 0.204620
vn -0.292569 0.717165 0.632517
v 5.065205 6.383415 -2.962006
vn -0.292569 0.717165 0.632517
v 4.265300 5.077636 -1.851471
vn 0.098474 0.609018 0.787020
v 3.193860 8.085072 -4.044647
vn 0.098474 0.609018 0.787020
v 4.265300 5.077636 -1.851471
vn 0.098474 0.609018 0.787020
v 5.065205 6.383415 -2.962006
vn -0.938649 0.209784 0.273730
v 4.829331 2.160771 0.343246
vn -0.938649 0.209784 0.273730
v 6.035447 0.821339 5.505676
vn -0.938649 0.209784 0.273730
v 5.112793 3.609963 0.204620
vn -0.259543 -0.947793 -0.185274
v 6.035447 0.821339 5.505676
vn -0.259543 -0.947793 -0.185274
v 4.829331 2.160771 0.343246
vn -0.259543 -0.947793 -0.185274
v 6.619198 1.718545 0.098160
vn 0.694174 0.715931 -0.074604
v 5.065205 6.383415 -2.962006
vn 0.694174 0.715931 -0.074604
v 3.917482 7.263085 -5.199638
vn 0.694174 0.715931 -0.074604
v 3.193860 8.085072 -4.044647
vn 0.989819 -0.066716 -0.125725
v 4.343649 6.389968 -8.020508
vn 0.989819 -0.066716 -0.125725
v 4.001381 5.762408 -10.382133
vn 0.989819 -0.066716 -0.125725
v 4.173549 6.780179 -9.566757
vn 0.752240 0.225751 -0.619009
v 7.490779 3.726986 -6.827026
vn 0.752240 0.225751 -0.619009
v 7.170771 0.656434 -8.335732
vn 0.752240 0.225751 -0.619009
v 3.468584 3.519688 -11.790527
vn 0.755216 0.210426 -0.620781
v 3.468584 3.519688 -11.790527
vn 0.755216 0.210426 -0.620781
v 4.001381 5.762408 -10.382133
vn 0.755216 0.210426 -0.620781
v 7.490779 3.726986 -6.827026
vn 0.882184 0.130391 -0.452493
v 7.490779 3.726986 -6.827026
vn 0.882184 0.130391 -0.452493
v 9.834641 -0.967464 -3.610168
vn 0.882184 0.130391 -0.452493
v 7.170771 0.656434 -8.335732
vn 0.388195 -0.782035 -0.487571
v 4.722761 -0.187281 -8.931526
vn 0.388195 -0.782035 -0.487571
v 7.170771 0.656434 -8.335732
vn 0.388195 -0.782035 -0.487571
v 9.834641 -0.967464 -3.610168
vn 0.307860 0.361406 0.880118
v 9.834641 -0.967464 -3.610168
vn 0.307860 0.361406 0.880118
v 7.517230 4.339372 -4.978714
vn 0.307860 0.361406 0.880118
v 6.335322 4.692799 -4.710419
vn 0.330998 0.905608 0.265168
v 6.335322 4.692799 -4.710419
vn 0.330998 0.905608 0.265168
v 7.517230 4.339372 -4.978714
vn 0.330998 0.905608 0.265168
v 4.343649 6.389968 -8.020508
vn 0.860992 0.507523 0.033362
v 4.173549 6.780179 -9.566757
vn 0.860992 0.507523 0.033362
v 3.875503 7.207585 -8.376892
vn 0.860992 0.507523 0.033362
v 4.343649 6.389968 -8.020508
vn 0.679753 0.678391 -0.278786
v 7.490779 3.726986 -6.827026
vn 0.679753 0.678391 -0.278786
v 4.001381 5.762408 -10.382133
vn 0.679753 0.678391 -0.278786
v 4.343649 6.389968 -8.020508
vn 0.678487 0.694380 -0.239773
v 4.343649 6.389968 -8.020508
vn 0.678487 0.694380 -0.239773
v 7.517230 4.339372 -4.978714
vn 0.678487 0.694380 -0.239773
v 7.490779 3.726986 -6.827026
vn 0.920347 0.367135 -0.134811
v 7.517230 4.339372 -4.978714
vn 0.920347 0.367135 -0.134811
v 9.834641 -0.967464 -3.610168
vn 0.920347 0.367135 -0.134811
v 7.490779 3.726986 -6.827026
vn -0.327559 -0.218642 0.919185
v 9.834641 -0.967464 -3.610168
vn -0.327559 -0.218642 0.919185
v 7.877683 0.031294 -4.069977
vn -0.327559 -0.218642 0.919185
v 5.891739 -1.339549 -5.103760
vn -0.194064 0.070221 0.978472
v 6.335322 4.692799 -4.710419
vn -0.194064 0.070221 0.978472
v 7.877683 0.031294 -4.069977
vn -0.194064 0.070221 0.978472
v 9.834641 -0.967464 -3.610168
vn 0.361805 -0.489502 -0.793401
v 7.170771 0.656434 -8.335732
vn 0.361805 -0.489502 -0.793401
v 4.722761 -0.187281 -8.931526
vn 0.361805 -0.489502 -0.793401
v 3.468584 3.519688 -11.790527
vn 0.215609 -0.914907 -0.341259
v 9.834641 -0.967464 -3.610168
vn 0.215609 -0.914907 -0.341259
v 5.891739 -1.339549 -5.103760
vn 0.215609 -0.914907 -0.341259
v 4.722761 -0.187281 -8.931526
vn -0.201854 -0.551580 -0.809329
v -6.924389 1.995805 -7.476311
vn -0.201854 -0.551580 -0.809329
v -8.794256 0.866445 -6.240257
vn -0.201854 -0.551580 -0.809329
v -5.566063 5.762407 -10.382133
vn 0.774238 -0.058201 0.630213
v -9.834641 -2.877485 -0.592804
vn 0.774238 -0.058201 0.630213
v -7.047609 0.456219 -3.708893
vn 0.774238 -0.058201 0.630213
v -7.642875 3.464186 -2.699799
vn -0.606886 0.431506 0.667452
v -7.642875 3.464186 -2.699799
vn -0.606886 0.431506 0.667452
v -8.048435 4.298926 -3.608215
vn -0.606886 0.431506 0.667452
v -9.834641 -2.877485 -0.592804
vn -0.860992 0.507523 0.033362
v -5.908331 6.389967 -8.020508
vn -0.860992 0.507523 0.033362
v -5.440185 7.207584 -8.376892
vn -0.860992 0.507523 0.033362
v -5.738231 6.780177 -9.566757
vn -0.989819 -0.066716 -0.125725
v -5.738231 6.780177 -9.566757
vn -0.989819 -0.066716 -0.125725
v -5.566063 5.762407 -10.382133
vn -0.989819 -0.066716 -0.125725
v -5.908331 6.389967 -8.020508
vn -0.877075 0.214854 -0.429625
v -8.794256 0.866445 -6.240257
vn -0.877075 0.214854 -0.429625
v -8.791836 3.076633 -5.139893
vn -0.877075 0.214854 -0.429625
v -5.566063 5.762407 -10.382133
vn -0.988259 0.068961 -0.136342
v -8.794256 0.866445 -6.240257
vn -0.988259 0.068961 -0.136342
v -9.834641 -2.877485 -0.592804
vn -0.988259 0.068961 -0.136342
v -8.791836 3.076633 -5.139893
vn -0.291485 0.635984 0.714535
v -8.048435 4.298926 -3.608215
vn -0.291485 0.635984 0.714535
v -7.642875 3.464186 -2.699799
vn -0.291485 0.635984 0.714535
v -5.482164 7.263084 -5.199638
vn -0.773983 0.628436 -0.077583
v -8.048435 4.298926 -3.608215
vn -0.773983 0.628436 -0.077583
v -5.482164 7.263084 -5.199638
vn -0.773983 0.628436 -0.077583
v -5.908331 6.389967 -8.020508
vn -0.791237 0.603655 -0.097695
v -8.791836 3.076633 -5.139893
vn -0.791237 0.603655 -0.097695
v -8.048435 4.298926 -3.608215
vn -0.791237 0.603655 -0.097695
v -5.908331 6.389967 -8.020508
vn -0.928032 0.314718 0.199273
v -9.834641 -2.877485 -0.592804
vn -0.928032 0.314718 0.199273
v -8.048435 4.298926 -3.608215
vn -0.928032 0.314718 0.199273
v -8.791836 3.076633 -5.139893
vn -0.827913 0.500551 -0.253001
v -5.908331 6.389967 -8.020508
vn -0.827913 0.500551 -0.253001
v -5.566063 5.762407 -10.382133
vn -0.827913 0.500551 -0.253001
v -8.791836 3.076633 -5.139893
vn 0.157814 -0.836178 -0.525264
v -9.834641 -2.877485 -0.592804
vn 0.157814 -0.836178 -0.525264
v -8.794256 0.866445 -6.240257
vn 0.157814 -0.836178 -0.525264
v -6.924389 1.995805 -7.476311
vn 0.582381 -0.758999 -0.291123
v -7.047609 0.456219 -3.708893
vn 0.582381 -0.758999 -0.291123
v -9.834641 -2.877485 -0.592804
vn 0.582381 -0.758999 -0.291123
v -6.924389 1.995805 -7.476311
vn 0.790768 -0.048221 0.610213
v -5.482164 7.263084 -5.199638
vn 0.790768 -0.048221 0.610213
v -7.642875 3.464186 -2.699799
vn 0.790768 -0.048221 0.610213
v -7.047609 0.456219 -3.708893
vn -0.622244 -0.742250 -0.248752
v -8.318081 -2.059513 1.322815
vn -0.622244 -0.742250 -0.248752
v -6.328120 -3.202335 -0.244934
vn -0.622244 -0.742250 -0.248752
v -7.133516 -5.019242 7.191193
vn 0.678841 0.266457 0.684233
v -7.133516 -5.019242 7.191193
vn 0.678841 0.266457 0.684233
v -5.387577 -2.632694 4.529633
vn 0.678841 0.266457 0.684233
v -4.657933 0.471335 2.596954
vn 0.763775 -0.641233 -0.073952
v -5.387577 -2.632694 4.529633
vn 0.763775 -0.641233 -0.073952
v -7.133516 -5.019242 7.191193
vn 0.763775 -0.641233 -0.073952
v -6.328120 -3.202335 -0.244934
vn -0.820857 0.525188 0.224437
v -6.066860 4.994975 -1.598785
vn -0.820857 0.525188 0.224437
v -4.758543 8.085071 -4.044647
vn -0.820857 0.525188 0.224437
v -5.600249 7.263083 -5.199638
vn -0.685450 -0.567141 -0.456628
v -6.328120 -3.202335 -0.244934
vn -0.685450 -0.567141 -0.456628
v -8.318081 -2.059513 1.322815
vn -0.685450 -0.567141 -0.456628
v -7.047609 0.456219 -3.708893
vn -0.735561 0.612130 0.290253
v -7.277403 4.025560 -2.622101
vn -0.735561 0.612130 0.290253
v -6.066860 4.994975 -1.598785
vn -0.735561 0.612130 0.290253
v -5.600249 7.263083 -5.199638
vn -0.880663 0.085196 -0.466019
v -7.047609 0.456219 -3.708893
vn -0.880663 0.085196 -0.466019
v -7.277403 4.025560 -2.622101
vn -0.880663 0.085196 -0.466019
v -5.600249 7.263083 -5.199638
vn -0.970754 0.010531 -0.239844
v -8.318081 -2.059513 1.322815
vn -0.970754 0.010531 -0.239844
v -7.277403 4.025560 -2.622101
vn -0.970754 0.010531 -0.239844
v -7.047609 0.456219 -3.708893
vn -0.755350 0.513635 0.406970
v -7.701975 -0.937592 2.853851
vn -0.755350 0.513635 0.406970
v -6.066860 4.994975 -1.598785
vn -0.755350 0.513635 0.406970
v -7.277403 4.025560 -2.622101
vn 0.005466 0.754180 0.656645
v -6.700500 -0.124048 3.297775
vn 0.005466 0.754180 0.656645
v -4.657933 0.471335 2.596954
vn 0.005466 0.754180 0.656645
v -5.012836 2.468380 0.306229
vn 0.089471 0.615120 0.783341
v -6.700500 -0.124048 3.297775
vn 0.089471 0.615120 0.783341
v -7.133516 -5.019242 7.191193
vn 0.089471 0.615120 0.783341
v -4.657933 0.471335 2.596954
vn 0.266872 0.648706 0.712713
v -6.700500 -0.124048 3.297775
vn 0.266872 0.648706 0.712713
v -5.012836 2.468380 0.306229
vn 0.266872 0.648706 0.712713
v -6.066860 4.994975 -1.598785
vn -0.950564 0.154098 0.269596
v -7.133516 -5.019242 7.191193
vn -0.950564 0.154098 0.269596
v -7.701975 -0.937592 2.853851
vn -0.950564 0.154098 0.269596
v -8.318081 -2.059513 1.322815
vn -0.944481 0.276547 0.177420
v -7.277403 4.025560 -2.622101
vn -0.944481 0.276547 0.177420
v -8.318081 -2.059513 1.322815
vn -0.944481 0.276547 0.177420
v -7.701975 -0.937592 2.853851
vn -0.669621 0.554990 0.493552
v -7.701975 -0.937592 2.853851
vn -0.669621 0.554990 0.493552
v -6.700500 -0.124048 3.297775
vn -0.669621 0.554990 0.493552
v -6.066860 4.994975 -1.598785
vn -0.657553 0.503749 0.560233
v -7.701975 -0.937592 2.853851
vn -0.657553 0.503749 0.560233
v -7.133516 -5.019242 7.191193
vn -0.657553 0.503749 0.560233
v -6.700500 -0.124048 3.297775
vn 0.883450 0.420005 0.207632
v 6.619198 1.718545 0.098160
vn 0.883450 0.420005 0.207632
v 8.153824 -2.870751 2.851898
vn 0.883450 0.420005 0.207632
v 6.335322 4.692799 -4.710419
vn 0.940631 0.324781 0.098641
v 6.335322 4.692799 -4.710419
vn 0.940631 0.324781 0.098641
v 8.153824 -2.870751 2.851898
vn 0.940631 0.324781 0.098641
v 7.877683 0.031294 -4.069977
vn 0.645016 -0.695222 -0.317209
v 5.891739 -1.339549 -5.103760
vn 0.645016 -0.695222 -0.317209
v 7.877683 0.031294 -4.069977
vn 0.645016 -0.695222 -0.317209
v 8.153824 -2.870751 2.851898
vn -0.929609 -0.097610 0.355386
v 8.153824 -2.870751 2.851898
vn -0.929609 -0.097610 0.355386
v 6.619198 1.718545 0.098160
vn -0.929609 -0.097610 0.355386
v 5.413909 -0.392098 -3.634308
vn 0.438532 0.704731 0.557713
v -0.302210 9.133366 -0.100098
vn 0.438532 0.704731 0.557713
v -0.956574 3.613151 7.389816
vn 0.438532 0.704731 0.557713
v 1.773657 8.065292 -0.382736
vn 0.943700 -0.001206 0.330799
v 1.780802 6.803677 -0.407715
vn 0.943700 -0.001206 0.330799
v 1.773657 8.065292 -0.382736
vn 0.943700 -0.001206 0.330799
v -0.956574 3.613151 7.389816
vn 0.678182 -0.732311 -0.061560
v -0.956574 3.613151 7.389816
vn 0.678182 -0.732311 -0.061560
v -0.358299 4.662745 1.494934
vn 0.678182 -0.732311 -0.061560
v 1.780802 6.803677 -0.407715
vn -0.239125 0.948307 0.208644
v -0.310358 10.590647 -6.412132
vn -0.239125 0.948307 0.208644
v -0.782342 10.865135 -8.200645
vn -0.239125 0.948307 0.208644
v -1.147046 9.802433 -3.788544
vn 0.882396 -0.470120 -0.019099
v 5.413909 -0.392098 -3.634308
vn 0.882396 -0.470120 -0.019099
v 6.619198 1.718545 0.098160
vn 0.882396 -0.470120 -0.019099
v 4.763441 -1.729346 -0.770416
vn 0.105858 0.866456 0.487901
v 4.246230 -0.569816 5.318970
vn 0.105858 0.866456 0.487901
v 4.829331 2.160771 0.343246
vn 0.105858 0.866456 0.487901
v 1.224447 1.431008 2.421356
vn -0.907095 0.042939 0.418729
v 2.670688 -0.980396 5.801636
vn -0.907095 0.042939 0.418729
v 1.224447 1.431008 2.421356
vn -0.907095 0.042939 0.418729
v 1.702277 -2.632693 3.873199
vn -0.913652 0.067679 0.400824
v 3.413381 -4.492230 8.087524
vn -0.913652 0.067679 0.400824
v 2.670688 -0.980396 5.801636
vn -0.913652 0.067679 0.400824
v 1.702277 -2.632693 3.873199
vn 0.702756 0.476505 0.528277
v 4.246230 -0.569816 5.318970
vn 0.702756 0.476505 0.528277
v 5.391296 -2.057031 5.137177
vn 0.702756 0.476505 0.528277
v 6.619198 1.718545 0.098160
vn 0.597863 0.373628 0.709198
v 4.246230 -0.569816 5.318970
vn 0.597863 0.373628 0.709198
v 3.413381 -4.492230 8.087524
vn 0.597863 0.373628 0.709198
v 5.391296 -2.057031 5.137177
vn 0.271764 0.829885 0.487274
v 6.619198 1.718545 0.098160
vn 0.271764 0.829885 0.487274
v 4.829331 2.160771 0.343246
vn 0.271764 0.829885 0.487274
v 4.246230 -0.569816 5.318970
vn 0.886501 -0.447158 -0.119020
v 6.619198 1.718545 0.098160
vn 0.886501 -0.447158 -0.119020
v 5.391296 -2.057031 5.137177
vn 0.886501 -0.447158 -0.119020
v 4.763441 -1.729346 -0.770416
vn -0.030027 0.807599 0.588967
v 1.224447 1.431008 2.421356
vn -0.030027 0.807599 0.588967
v 2.670688 -0.980396 5.801636
vn -0.030027 0.807599 0.588967
v 4.246230 -0.569816 5.318970
vn 0.106628 0.558156 0.822856
v 2.670688 -0.980396 5.801636
vn 0.106628 0.558156 0.822856
v 3.413381 -4.492230 8.087524
vn 0.106628 0.558156 0.822856
v 4.246230 -0.569816 5.318970
vn -0.403198 -0.811170 -0.423598
v 4.164812 -3.474281 3.140854
vn -0.403198 -0.811170 -0.423598
v 1.702277 -2.632693 3.873199
vn -0.403198 -0.811170 -0.423598
v 4.763441 -1.729346 -0.770416
vn -0.377325 -0.894090 -0.241308
v 4.164812 -3.474281 3.140854
vn -0.377325 -0.894090 -0.241308
v 3.413381 -4.492230 8.087524
vn -0.377325 -0.894090 -0.241308
v 1.702277 -2.632693 3.873199
vn 0.827282 -0.549172 -0.118385
v 5.391296 -2.057031 5.137177
vn 0.827282 -0.549172 -0.118385
v 4.164812 -3.474281 3.140854
vn 0.827282 -0.549172 -0.118385
v 4.763441 -1.729346 -0.770416
vn 0.766816 -0.641678 -0.015563
v 5.391296 -2.057031 5.137177
vn 0.766816 -0.641678 -0.015563
v 3.413381 -4.492230 8.087524
vn 0.766816 -0.641678 -0.015563
v 4.164812 -3.474281 3.140854
vn 0.760498 -0.509815 0.402158
v 4.763441 -1.729346 -0.770416
vn 0.760498 -0.509815 0.402158
v 1.702277 -2.632693 3.873199
vn 0.760498 -0.509815 0.402158
v 1.989517 -3.584632 2.123245
vn -0.953232 -0.214108 0.213322
v -4.625873 -5.684353 4.870422
vn -0.953232 -0.214108 0.213322
v -5.387577 -2.632694 4.529633
vn -0.953232 -0.214108 0.213322
v -6.328120 -3.202335 -0.244934
vn 0.180304 0.492431 0.851470
v -0.782341 2.682999 2.729675
vn 0.180304 0.492431 0.851470
v -0.358299 4.662745 1.494934
vn 0.180304 0.492431 0.851470
v -2.170306 5.488451 1.401108
vn 0.888061 0.243694 0.389821
v 0.139369 -2.137034 7.123840
vn 0.888061 0.243694 0.389821
v 1.702277 -2.632693 3.873199
vn 0.888061 0.243694 0.389821
v 1.224447 1.431008 2.421356
vn -0.896561 -0.434152 0.087696
v -6.328120 -3.202335 -0.244934
vn -0.896561 -0.434152 0.087696
v -5.605974 -4.691204 -0.232941
vn -0.896561 -0.434152 0.087696
v -4.625873 -5.684353 4.870422
vn -0.924880 -0.194354 0.326839
v -4.625873 -5.684353 4.870422
vn -0.924880 -0.194354 0.326839
v -4.566654 -2.520809 6.919189
vn -0.924880 -0.194354 0.326839
v -5.387577 -2.632694 4.529633
vn 0.903242 -0.349080 0.249593
v 0.562112 -5.008791 5.296997
vn 0.903242 -0.349080 0.249593
v 1.752404 -5.892181 -0.246002
vn 0.903242 -0.349080 0.249593
v 1.989517 -3.584632 2.123245
vn -0.648256 -0.761056 -0.023609
v -4.069517 -5.945084 -2.001099
vn -0.648256 -0.761056 -0.023609
v -4.625873 -5.684353 4.870422
vn -0.648256 -0.761056 -0.023609
v -5.605974 -4.691204 -0.232941
vn 0.918401 -0.264232 0.294485
v 1.702277 -2.632693 3.873199
vn 0.918401 -0.264232 0.294485
v 0.562112 -5.008791 5.296997
vn 0.918401 -0.264232 0.294485
v 1.989517 -3.584632 2.123245
vn 0.880958 -0.154777 0.447165
v 0.139369 -2.137034 7.123840
vn 0.880958 -0.154777 0.447165
v 0.562112 -5.008791 5.296997
vn 0.880958 -0.154777 0.447165
v 1.702277 -2.632693 3.873199
vn -0.878845 0.383395 0.283972
v -4.566654 -2.520809 6.919189
vn -0.878845 0.383395 0.283972
v -4.657933 0.471335 2.596954
vn -0.878845 0.383395 0.283972
v -5.387577 -2.632694 4.529633
vn -0.588255 0.570722 0.572916
v -4.566654 -2.520809 6.919189
vn -0.588255 0.570722 0.572916
v -2.933899 -1.752256 7.830048
vn -0.588255 0.570722 0.572916
v -2.170306 5.488451 1.401108
vn -0.803162 0.481767 0.350473
v -2.170306 5.488451 1.401108
vn -0.803162 0.481767 0.350473
v -4.657933 0.471335 2.596954
vn -0.803162 0.481767 0.350473
v -4.566654 -2.520809 6.919189
vn 0.488929 0.636903 0.596073
v 1.224447 1.431008 2.421356
vn 0.488929 0.636903 0.596073
v -0.782341 2.682999 2.729675
vn 0.488929 0.636903 0.596073
v 0.139369 -2.137034 7.123840
vn 0.489218 1.346893 1.395120
v -2.933899 -1.752256 7.830048
vn 0.489218 1.346893 1.395120
v 0.139369 -2.137034 7.123840
vn 0.244166 0.678400 0.692933
v -0.782341 2.682999 2.729675
vn 0.346039 -0.935963 0.065038
v -1.746086 -6.893774 3.953979
vn 0.346039 -0.935963 0.065038
v -1.786589 -7.095462 1.266968
vn 0.346039 -0.935963 0.065038
v 1.752404 -5.892181 -0.246002
vn 0.524963 -0.815776 0.242740
v 1.752404 -5.892181 -0.246002
vn 0.524963 -0.815776 0.242740
v 0.562112 -5.008791 5.296997
vn 0.524963 -0.815776 0.242740
v -1.746086 -6.893774 3.953979
vn -0.386196 -0.922409 0.003731
v -1.746086 -6.893774 3.953979
vn -0.386196 -0.922409 0.003731
v -4.625873 -5.684353 4.870422
vn -0.386196 -0.922409 0.003731
v -4.069517 -5.945084 -2.001099
vn -0.528546 -0.845892 0.071460
v -4.069517 -5.945084 -2.001099
vn -0.528546 -0.845892 0.071460
v -1.786589 -7.095462 1.266968
vn -0.528546 -0.845892 0.071460
v -1.746086 -6.893774 3.953979
vn -0.950505 -0.156166 0.268612
v -3.650258 -4.733123 8.875732
vn -0.950505 -0.156166 0.268612
v -4.566654 -2.520809 6.919189
vn -0.950505 -0.156166 0.268612
v -4.625873 -5.684353 4.870422
vn -0.962904 -0.087397 0.255300
v -3.684621 -6.410218 8.172012
vn -0.962904 -0.087397 0.255300
v -3.650258 -4.733123 8.875732
vn -0.962904 -0.087397 0.255300
v -4.625873 -5.684353 4.870422
vn -0.961973 -1.750188 -0.106941
v -1.644297 -7.503208 7.706345
vn -0.961973 -1.750188 -0.106941
v -3.684621 -6.410218 8.172012
vn -0.481239 -0.874853 -0.055142
v -4.625873 -5.684353 4.870422
vn -0.419749 -0.897634 -0.134401
v -1.644297 -7.503208 7.706345
vn -0.419749 -0.897634 -0.134401
v -4.625873 -5.684353 4.870422
vn -0.419749 -0.897634 -0.134401
v -1.746086 -6.893774 3.953979
vn -0.581778 0.390163 0.713657
v -2.933899 -1.752256 7.830048
vn -0.581778 0.390163 0.713657
v -4.566654 -2.520809 6.919189
vn -0.581778 0.390163 0.713657
v -3.650258 -4.733123 8.875732
vn -0.511116 0.391290 0.765279
v -3.650258 -4.733123 8.875732
vn -0.511116 0.391290 0.765279
v -2.277998 -4.169741 9.504181
vn -0.511116 0.391290 0.765279
v -2.933899 -1.752256 7.830048
vn 0.670802 -0.730603 -0.127452
v 0.562112 -5.008791 5.296997
vn 0.670802 -0.730603 -0.127452
v -0.434226 -6.495475 8.575333
vn 0.670802 -0.730603 -0.127452
v -1.746086 -6.893774 3.953979
vn 0.689319 -0.711897 -0.134320
v -0.434226 -6.495475 8.575333
vn 0.689319 -0.711897 -0.134320
v -1.644297 -7.503208 7.706345
vn 0.689319 -0.711897 -0.134320
v -1.746086 -6.893774 3.953979
vn -0.515007 0.422401 0.745886
v -0.961414 -8.172571 12.680069
vn -0.515007 0.422401 0.745886
v -2.277998 -4.169741 9.504181
vn -0.515007 0.422401 0.745886
v -3.650258 -4.733123 8.875732
vn -0.871526 -0.174438 0.458274
v -0.961414 -8.172571 12.680069
vn -0.871526 -0.174438 0.458274
v -3.650258 -4.733123 8.875732
vn -0.871526 -0.174438 0.458274
v -3.684621 -6.410218 8.172012
vn -0.480734 -0.875335 -0.051799
v -0.961414 -8.172571 12.680069
vn 0.704939 -0.683679 -0.188796
v -0.961414 -8.172571 12.680069
vn 0.704939 -0.683679 -0.188796
v -1.644297 -7.503208 7.706345
vn 0.704939 -0.683679 -0.188796
v -0.434226 -6.495475 8.575333
vn 0.991004 0.014194 0.133078
v -0.961414 -8.172571 12.680069
vn 0.991004 0.014194 0.133078
v -0.434226 -6.495475 8.575333
vn 0.991004 0.014194 0.133078
v -0.622925 -4.651703 9.783875
vn 0.962917 -0.071900 0.260040
v -0.434226 -6.495475 8.575333
vn 0.962917 -0.071900 0.260040
v 0.562112 -5.008791 5.296997
vn 0.962917 -0.071900 0.260040
v -0.622925 -4.651703 9.783875
vn 0.966213 -0.021174 0.256873
v -0.622925 -4.651703 9.783875
vn 0.966213 -0.021174 0.256873
v 0.562112 -5.008791 5.296997
vn 0.966213 -0.021174 0.256873
v 0.139369 -2.137034 7.123840
vn 0.053095 0.631325 0.773699
v -0.961414 -8.172571 12.680069
vn 0.053095 0.631325 0.773699
v -0.622925 -4.651703 9.783875
vn 0.053095 0.631325 0.773699
v -2.277998 -4.169741 9.504181
vn 0.029018 0.574392 0.818066
v -2.933899 -1.752256 7.830048
vn 0.029018 0.574392 0.818066
v -2.277998 -4.169741 9.504181
vn 0.029018 0.574392 0.818066
v -0.622925 -4.651703 9.783875
vn 0.245052 0.668493 0.702187
v -0.622925 -4.651703 9.783875
vn 0.471787 0.557067 0.683442
v -2.170306 5.488451 1.401108
vn 0.471787 0.557067 0.683442
v -2.933899 -1.752256 7.830048
vn 0.471787 0.557067 0.683442
v -0.782341 2.682999 2.729675
vn -0.661632 0.592816 0.459143
v -9.440355 -0.525187 -7.846916
vn -0.661632 0.592816 0.459143
v -6.924389 1.995805 -7.476311
vn -0.661632 0.592816 0.459143
v -5.566063 5.762407 -10.382133
vn -0.802550 0.568037 0.182339
v -5.566063 5.762407 -10.382133
vn -0.802550 0.568037 0.182339
v -8.527741 1.227134 -9.289085
vn -0.802550 0.568037 0.182339
v -9.440355 -0.525187 -7.846916
vn -0.671883 0.272804 -0.688587
v -8.527741 1.227134 -9.289085
vn -0.671883 0.272804 -0.688587
v -5.566063 5.762407 -10.382133
vn -0.671883 0.272804 -0.688587
v -5.033265 3.519686 -11.790527
vn -0.971029 -0.115186 0.209366
v 3.227635 -9.795170 4.448761
vn -0.971029 -0.115186 0.209366
v 1.989517 -3.584632 2.123245
vn -0.971029 -0.115186 0.209366
v 1.752404 -5.892181 -0.246002
vn 0.414367 0.532083 0.738368
v 5.203365 -4.622122 1.067291
vn 0.414367 0.532083 0.738368
v 4.763441 -1.729346 -0.770416
vn 0.414367 0.532083 0.738368
v 1.989517 -3.584632 2.123245
vn -0.438585 -0.753994 -0.489016
v 4.365142 -7.415765 -0.240143
vn -0.438585 -0.753994 -0.489016
v 3.227635 -9.795170 4.448761
vn -0.438585 -0.753994 -0.489016
v 1.752404 -5.892181 -0.246002
vn -0.803013 -0.584601 0.115810
v 8.153824 -2.870751 2.851898
vn -0.803013 -0.584601 0.115810
v 5.413909 -0.392098 -3.634308
vn -0.803013 -0.584601 0.115810
v 5.891739 -1.339549 -5.103760
vn 0.964038 0.172078 0.202532
v 5.527507 -5.740796 0.369415
vn 0.964038 0.172078 0.202532
v 5.891739 -1.339549 -5.103760
vn 0.964038 0.172078 0.202532
v 5.413909 -0.392098 -3.634308
vn 0.858376 0.361678 0.363841
v 4.763441 -1.729346 -0.770416
vn 0.858376 0.361678 0.363841
v 5.203365 -4.622122 1.067291
vn 0.858376 0.361678 0.363841
v 5.413909 -0.392098 -3.634308
vn 0.398661 0.390240 0.829929
v 1.989517 -3.584632 2.123245
vn 0.398661 0.390240 0.829929
v 3.227635 -9.795170 4.448761
vn 0.398661 0.390240 0.829929
v 5.203365 -4.622122 1.067291
vn 0.447601 -0.624650 -0.639895
v 4.365142 -7.415765 -0.240143
vn 0.447601 -0.624650 -0.639895
v 2.982727 -3.988776 -4.552475
vn 0.447601 -0.624650 -0.639895
v 5.891739 -1.339549 -5.103760
vn -0.445106 -0.765086 -0.465321
v 1.752404 -5.892181 -0.246002
vn -0.445106 -0.765086 -0.465321
v 2.982727 -3.988776 -4.552475
vn -0.445106 -0.765086 -0.465321
v 4.365142 -7.415765 -0.240143
vn 0.829525 -0.460875 -0.315408
v 5.527507 -5.740796 0.369415
vn 0.829525 -0.460875 -0.315408
v 4.365142 -7.415765 -0.240143
vn 0.829525 -0.460875 -0.315408
v 5.891739 -1.339549 -5.103760
vn 0.968365 0.162391 0.189468
v 5.413909 -0.392098 -3.634308
vn 0.968365 0.162391 0.189468
v 5.203365 -4.622122 1.067291
vn 0.968365 0.162391 0.189468
v 5.527507 -5.740796 0.369415
vn 0.832018 -0.549387 -0.076945
v 5.527507 -5.740796 0.369415
vn 0.832018 -0.549387 -0.076945
v 3.227635 -9.795170 4.448761
vn 0.832018 -0.549387 -0.076945
v 4.365142 -7.415765 -0.240143
vn 0.884609 -0.033831 0.465105
v 5.203365 -4.622122 1.067291
vn 0.884609 -0.033831 0.465105
v 3.227635 -9.795170 4.448761
vn 0.884609 -0.033831 0.465105
v 5.527507 -5.740796 0.369415
vn 0.821464 0.267261 -0.503754
v 3.328536 2.273483 -12.680061
vn 0.821464 0.267261 -0.503754
v 3.468584 3.519688 -11.790527
vn 0.821464 0.267261 -0.503754
v 6.929171 -3.190820 -9.707581
vn 0.278609 -0.170182 -0.945206
v 3.328536 2.273483 -12.680061
vn 0.278609 -0.170182 -0.945206
v 6.067272 -2.749124 -10.968483
vn 0.278609 -0.170182 -0.945206
v 1.729849 -0.383419 -12.672920
vn 0.833730 0.295710 -0.466315
v 6.929171 -3.190820 -9.707581
vn 0.833730 0.295710 -0.466315
v 6.067272 -2.749124 -10.968483
vn 0.833730 0.295710 -0.466315
v 3.328536 2.273483 -12.680061
vn 0.802817 0.509918 0.308980
v 6.929171 -3.190820 -9.707581
vn 0.802817 0.509918 0.308980
v 3.468584 3.519688 -11.790527
vn 0.802817 0.509918 0.308980
v 4.722761 -0.187281 -8.931526
vn 0.218007 -0.804622 0.552319
v -5.410131 -1.379817 -10.682724
vn 0.218007 -0.804622 0.552319
v -6.283662 0.100254 -8.181755
vn 0.218007 -0.804622 0.552319
v -9.440355 -0.525187 -7.846916
vn -0.590356 -0.306923 -0.746511
v -9.440355 -0.525187 -7.846916
vn -0.590356 -0.306923 -0.746511
v -8.527741 1.227134 -9.289085
vn -0.590356 -0.306923 -0.746511
v -5.410131 -1.379817 -10.682724
vn -0.506987 -0.152808 -0.848301
v -8.527741 1.227134 -9.289085
vn -0.506987 -0.152808 -0.848301
v -5.033265 3.519686 -11.790527
vn -0.506987 -0.152808 -0.848301
v -5.410131 -1.379817 -10.682724
vn 0.158691 -0.296806 0.941660
v -6.924389 1.995805 -7.476311
vn 0.158691 -0.296806 0.941660
v -9.440355 -0.525187 -7.846916
vn 0.158691 -0.296806 0.941660
v -6.283662 0.100254 -8.181755
vn 0.168235 -0.608739 -0.775329
v 3.125727 -4.484318 -11.600952
vn 0.168235 -0.608739 -0.775329
v 3.359535 -7.748882 -8.987091
vn 0.168235 -0.608739 -0.775329
v 0.476619 -4.744872 -11.971199
vn 0.684389 0.077439 0.724993
v 4.110551 -1.379816 -10.376350
vn 0.684389 0.077439 0.724993
v 2.235665 -4.062107 -8.319962
vn 0.684389 0.077439 0.724993
v 3.359535 -7.748882 -8.987091
vn 0.935956 -0.176788 -0.304519
v 3.359535 -7.748882 -8.987091
vn 0.935956 -0.176788 -0.304519
v 3.125727 -4.484318 -11.600952
vn 0.935956 -0.176788 -0.304519
v 4.110551 -1.379816 -10.376350
vn -0.724045 -0.689734 0.005158
v -0.782340 -3.407033 -9.797852
vn -0.724045 -0.689734 0.005158
v 0.476619 -4.744872 -11.971199
vn -0.724045 -0.689734 0.005158
v 3.359535 -7.748882 -8.987091
vn 0.150384 -0.137879 -0.978966
v 3.125727 -4.484318 -11.600952
vn 0.150384 -0.137879 -0.978966
v 0.476619 -4.744872 -11.971199
vn 0.150384 -0.137879 -0.978966
v -0.782340 -1.260198 -12.655380
vn 0.073097 -0.228861 -0.970711
v 3.125727 -4.484318 -11.600952
vn 0.073097 -0.228861 -0.970711
v -0.782340 -1.260198 -12.655380
vn 0.073097 -0.228861 -0.970711
v 1.729849 -0.383419 -12.672920
vn 0.705088 0.055200 -0.706969
v 4.110551 -1.379816 -10.376350
vn 0.705088 0.055200 -0.706969
v 3.125727 -4.484318 -11.600952
vn 0.705088 0.055200 -0.706969
v 1.729849 -0.383419 -12.672920
vn -0.883545 -0.374445 -0.281317
v -0.782340 -1.260198 -12.655380
vn -0.883545 -0.374445 -0.281317
v 0.476619 -4.744872 -11.971199
vn -0.883545 -0.374445 -0.281317
v -0.782340 -3.407033 -9.797852
vn -0.471073 -0.294086 0.831627
v 3.359535 -7.748882 -8.987091
vn -0.471073 -0.294086 0.831627
v 2.235665 -4.062107 -8.319962
vn -0.471073 -0.294086 0.831627
v -0.782340 -3.407033 -9.797852
vn -0.168014 -0.534084 -0.828568
v -2.062612 -4.540054 -11.446075
vn -0.168014 -0.534084 -0.828568
v -4.676766 -7.906232 -8.746193
vn -0.168014 -0.534084 -0.828568
v -4.704399 -4.379755 -11.013710
vn 0.110841 0.134233 0.984731
v -0.782340 -3.407033 -9.797852
vn 0.110841 0.134233 0.984731
v -5.190848 -3.977677 -9.223846
vn 0.110841 0.134233 0.984731
v -4.676766 -7.906232 -8.746193
vn -0.961751 -0.153442 -0.226915
v -4.704399 -4.379755 -11.013710
vn -0.961751 -0.153442 -0.226915
v -4.676766 -7.906232 -8.746193
vn -0.961751 -0.153442 -0.226915
v -5.190848 -3.977677 -9.223846
vn -0.171591 -0.281153 -0.944198
v -0.782340 -1.260198 -12.655380
vn -0.171591 -0.281153 -0.944198
v -2.062612 -4.540054 -11.446075
vn -0.171591 -0.281153 -0.944198
v -4.704399 -4.379755 -11.013710
vn -0.114345 -0.346256 -0.931146
v -0.782340 -1.260198 -12.655380
vn -0.114345 -0.346256 -0.931146
v -4.704399 -4.379755 -11.013710
vn -0.114345 -0.346256 -0.931146
v -3.294529 -0.383420 -12.672920
vn -0.664512 -0.074286 -0.743576
v -4.704399 -4.379755 -11.013710
vn -0.664512 -0.074286 -0.743576
v -5.410131 -1.379817 -10.682724
vn -0.664512 -0.074286 -0.743576
v -3.294529 -0.383420 -12.672920
vn -0.955768 -0.201170 -0.214567
v -5.190848 -3.977677 -9.223846
vn -0.955768 -0.201170 -0.214567
v -5.410131 -1.379817 -10.682724
vn -0.955768 -0.201170 -0.214567
v -4.704399 -4.379755 -11.013710
vn 0.828736 -0.447434 -0.336153
v -0.782340 -3.407033 -9.797852
vn 0.828736 -0.447434 -0.336153
v -2.062612 -4.540054 -11.446075
vn 0.828736 -0.447434 -0.336153
v -0.782340 -1.260198 -12.655380
vn 0.737520 -0.665378 -0.115482
v -4.676766 -7.906232 -8.746193
vn 0.737520 -0.665378 -0.115482
v -2.062612 -4.540054 -11.446075
vn 0.737520 -0.665378 -0.115482
v -0.782340 -3.407033 -9.797852
vn -0.321180 -0.738826 -0.592436
v -5.410131 -1.379817 -10.682724
vn -0.321180 -0.738826 -0.592436
v -8.490426 -0.698417 -9.862564
vn -0.321180 -0.738826 -0.592436
v -6.898469 -0.100963 -11.470703
vn -0.271352 -0.713694 -0.645763
v -5.410131 -1.379817 -10.682724
vn -0.271352 -0.713694 -0.645763
v -6.898469 -0.100963 -11.470703
vn -0.271352 -0.713694 -0.645763
v -3.294529 -0.383420 -12.672920
vn -0.324103 -0.197503 -0.925175
v -6.898469 -0.100963 -11.470703
vn -0.324103 -0.197503 -0.925175
v -4.893217 2.273481 -12.680061
vn -0.324103 -0.197503 -0.925175
v -3.294529 -0.383420 -12.672920
vn 0.291573 0.189563 0.937577
v -8.490426 -0.698417 -9.862564
vn 0.291573 0.189563 0.937577
v -5.410131 -1.379817 -10.682724
vn 0.291573 0.189563 0.937577
v -5.033265 3.519686 -11.790527
vn -0.743085 0.331454 -0.581346
v -6.898469 -0.100963 -11.470703
vn -0.743085 0.331454 -0.581346
v -5.033265 3.519686 -11.790527
vn -0.743085 0.331454 -0.581346
v -4.893217 2.273481 -12.680061
vn -0.729859 0.322762 -0.602603
v -6.898469 -0.100963 -11.470703
vn -0.729859 0.322762 -0.602603
v -8.490426 -0.698417 -9.862564
vn -0.729859 0.322762 -0.602603
v -5.033265 3.519686 -11.790527
vn -0.084524 -0.623648 -0.777122
v -6.966367 -3.855637 -9.128670
vn -0.084524 -0.623648 -0.777122
v -5.190848 -3.977677 -9.223846
vn -0.084524 -0.623648 -0.777122
v -4.287678 -6.420846 -7.361412
vn 0.853548 -0.513211 0.089829
v -4.245935 -5.788386 -4.144684
vn 0.853548 -0.513211 0.089829
v -6.469289 -9.594433 -4.763260
vn 0.853548 -0.513211 0.089829
v -4.287678 -6.420846 -7.361412
vn -0.023795 -0.611620 -0.790793
v -4.287678 -6.420846 -7.361412
vn -0.023795 -0.611620 -0.790793
v -5.190848 -3.977677 -9.223846
vn -0.023795 -0.611620 -0.790793
v -0.782340 -3.407033 -9.797852
vn -0.059343 -0.607612 -0.792014
v -4.287678 -6.420846 -7.361412
vn -0.059343 -0.607612 -0.792014
v -6.469289 -9.594433 -4.763260
vn -0.059343 -0.607612 -0.792014
v -6.966367 -3.855637 -9.128670
vn -0.080333 -0.493209 -0.866194
v -5.190848 -3.977677 -9.223846
vn -0.080333 -0.493209 -0.866194
v -6.966367 -3.855637 -9.128670
vn -0.080333 -0.493209 -0.866194
v -5.410131 -1.379817 -10.682724
vn -0.855714 0.255401 -0.450027
v -6.966367 -3.855637 -9.128670
vn -0.855714 0.255401 -0.450027
v -6.283662 0.100254 -8.181755
vn -0.855714 0.255401 -0.450027
v -5.410131 -1.379817 -10.682724
vn -0.875406 -0.004282 0.483369
v -6.368210 -5.239824 -4.541626
vn -0.875406 -0.004282 0.483369
v -7.749326 -3.758808 -7.029778
vn -0.875406 -0.004282 0.483369
v -6.469289 -9.594433 -4.763260
vn -0.905902 0.239879 -0.348999
v -7.749326 -3.758808 -7.029778
vn -0.905902 0.239879 -0.348999
v -6.283662 0.100254 -8.181755
vn -0.905902 0.239879 -0.348999
v -6.966367 -3.855637 -9.128670
vn -0.892591 -0.319388 -0.318233
v -6.469289 -9.594433 -4.763260
vn -0.892591 -0.319388 -0.318233
v -7.749326 -3.758808 -7.029778
vn -0.892591 -0.319388 -0.318233
v -6.966367 -3.855637 -9.128670
vn 1.396436 -1.407501 0.262470
v -2.928112 -4.994976 -6.948532
vn 1.396436 -1.407501 0.262470
v -4.287678 -6.420846 -7.361412
vn 0.697740 -0.703861 0.133190
v -0.782340 -3.407033 -9.797852
vn 0.698696 -0.703641 0.129280
v -4.245935 -5.788386 -4.144684
vn -0.653383 0.433431 0.620668
v -7.749326 -3.758808 -7.029778
vn -0.653383 0.433431 0.620668
v -6.368210 -5.239824 -4.541626
vn -0.653383 0.433431 0.620668
v -6.283662 0.100254 -8.181755
vn -0.194970 -0.045341 0.979761
v -6.469289 -9.594433 -4.763260
vn -0.194970 -0.045341 0.979761
v -4.245935 -5.788386 -4.144684
vn -0.194970 -0.045341 0.979761
v -6.368210 -5.239824 -4.541626
vn 0.526375 -0.591088 0.611183
v 2.982727 -3.988776 -4.552475
vn 0.526375 -0.591088 0.611183
v -0.782339 -6.755143 -3.985260
vn 0.526375 -0.591088 0.611183
v 0.041183 -8.740557 -6.614647
vn 0.786198 -0.349159 0.509882
v -1.977354 -10.865135 -4.957100
vn 0.786198 -0.349159 0.509882
v 0.041183 -8.740557 -6.614647
vn 0.786198 -0.349159 0.509882
v -0.782339 -6.755143 -3.985260
vn 0.787303 -0.579157 0.211497
v 2.378665 -5.651465 -6.856903
vn 0.787303 -0.579157 0.211497
v 2.982727 -3.988776 -4.552475
vn 0.787303 -0.579157 0.211497
v 0.041183 -8.740557 -6.614647
vn -0.100963 -0.201041 0.974366
v -0.782339 -6.755143 -3.985260
vn -0.100963 -0.201041 0.974366
v -4.245935 -5.788386 -4.144684
vn -0.100963 -0.201041 0.974366
v -1.977354 -10.865135 -4.957100
vn 0.294755 -0.491214 -0.819651
v -1.263061 -6.650283 -8.027054
vn 0.294755 -0.491214 -0.819651
v -0.782340 -3.407033 -9.797852
vn 0.294755 -0.491214 -0.819651
v 2.235665 -4.062107 -8.319962
vn 0.389140 -0.604690 -0.694925
v 2.235665 -4.062107 -8.319962
vn 0.389140 -0.604690 -0.694925
v 2.378665 -5.651465 -6.856903
vn 0.389140 -0.604690 -0.694925
v -1.263061 -6.650283 -8.027054
vn 0.372083 -0.349002 -0.860089
v 0.041183 -8.740557 -6.614647
vn 0.372083 -0.349002 -0.860089
v -1.263061 -6.650283 -8.027054
vn 0.372083 -0.349002 -0.860089
v 2.378665 -5.651465 -6.856903
vn -0.053858 -0.581915 -0.811464
v 0.041183 -8.740557 -6.614647
vn -0.053858 -0.581915 -0.811464
v -1.977354 -10.865135 -4.957100
vn -0.053858 -0.581915 -0.811464
v -1.263061 -6.650283 -8.027054
vn -0.785108 -0.047202 -0.617557
v -3.305215 -7.195067 -6.300957
vn -0.785108 -0.047202 -0.617557
v -2.928112 -4.994976 -6.948532
vn -0.785108 -0.047202 -0.617557
v -0.782340 -3.407033 -9.797852
vn -0.554996 -0.333763 -0.761959
v -0.782340 -3.407033 -9.797852
vn -0.554996 -0.333763 -0.761959
v -1.263061 -6.650283 -8.027054
vn -0.554996 -0.333763 -0.761959
v -3.305215 -7.195067 -6.300957
vn -0.502546 -0.451742 -0.737141
v -1.977354 -10.865135 -4.957100
vn -0.502546 -0.451742 -0.737141
v -3.305215 -7.195067 -6.300957
vn -0.502546 -0.451742 -0.737141
v -1.263061 -6.650283 -8.027054
vn -0.908072 0.032750 -0.417531
v -3.305215 -7.195067 -6.300957
vn -0.908072 0.032750 -0.417531
v -4.245935 -5.788386 -4.144684
vn -0.908072 0.032750 -0.417531
v -2.928112 -4.994976 -6.948532
vn -0.911596 -0.383775 -0.147342
v -1.977354 -10.865135 -4.957100
vn -0.911596 -0.383775 -0.147342
v -4.245935 -5.788386 -4.144684
vn -0.911596 -0.383775 -0.147342
v -3.305215 -7.195067 -6.300957
vn -0.525467 -0.830602 0.184349
v 6.067272 -2.749124 -10.968483
vn -0.525467 -0.830602 0.184349
v 4.110551 -1.379816 -10.376350
vn -0.525467 -0.830602 0.184349
v 1.729849 -0.383419 -12.672920
vn -0.553140 -0.828439 0.087899
v 6.929171 -3.190820 -9.707581
vn -0.553140 -0.828439 0.087899
v 4.110551 -1.379816 -10.376350
vn -0.553140 -0.828439 0.087899
v 6.067272 -2.749124 -10.968483
vn -0.508637 -0.545714 0.665946
v 4.722761 -0.187281 -8.931526
vn -0.508637 -0.545714 0.665946
v 4.110551 -1.379816 -10.376350
vn -0.508637 -0.545714 0.665946
v 6.929171 -3.190820 -9.707581
vn 0.795166 -0.605054 -0.040254
v -0.610467 -8.902273 -1.677063
vn 0.795166 -0.605054 -0.040254
v 2.982727 -3.988776 -4.552475
vn 0.795166 -0.605054 -0.040254
v 1.752404 -5.892181 -0.246002
vn 0.814957 -0.541194 -0.207254
v 1.752404 -5.892181 -0.246002
vn 0.814957 -0.541194 -0.207254
v -0.880112 -10.583679 1.653229
vn 0.814957 -0.541194 -0.207254
v -0.610467 -8.902273 -1.677063
vn -0.393318 -0.807525 -0.439551
v -4.245935 -5.788386 -4.144684
vn -0.393318 -0.807525 -0.439551
v -0.610467 -8.902273 -1.677063
vn -0.393318 -0.807525 -0.439551
v -0.880112 -10.583679 1.653229
vn -0.834749 -0.158534 0.527315
v -0.880112 -10.583679 1.653229
vn -0.834749 -0.158534 0.527315
v -1.786589 -7.095462 1.266968
vn -0.834749 -0.158534 0.527315
v -4.069517 -5.945084 -2.001099
vn 0.331188 0.188444 0.924556
v -1.786589 -7.095462 1.266968
vn 0.331188 0.188444 0.924556
v -0.880112 -10.583679 1.653229
vn 0.331188 0.188444 0.924556
v 1.752404 -5.892181 -0.246002
vn 0.388192 -0.660179 -0.643017
v 2.982727 -3.988776 -4.552475
vn 0.388192 -0.660179 -0.643017
v -0.610467 -8.902273 -1.677063
vn 0.388192 -0.660179 -0.643017
v -0.782339 -6.755143 -3.985260
vn -0.833968 -0.551084 0.028351
v -0.880112 -10.583679 1.653229
vn -0.833968 -0.551084 0.028351
v -4.069517 -5.945084 -2.001099
vn -0.833968 -0.551084 0.028351
v -4.245935 -5.788386 -4.144684
vn -0.172522 -0.727586 -0.663969
v -0.610467 -8.902273 -1.677063
vn -0.172522 -0.727586 -0.663969
v -4.245935 -5.788386 -4.144684
vn -0.172522 -0.727586 -0.663969
v -0.782339 -6.755143 -3.985260
vn 0.951131 0.208602 -0.227675
v 4.722761 -0.187281 -8.931526
vn 0.951131 0.208602 -0.227675
v 5.891739 -1.339549 -5.103760
vn 0.951131 0.208602 -0.227675
v 6.171304 -5.245018 -7.514160
vn -0.068071 -0.623841 -0.778581
v 6.171304 -5.245018 -7.514160
vn -0.068071 -0.623841 -0.778581
v 6.780916 -9.559237 -4.110672
vn -0.068071 -0.623841 -0.778581
v 2.378665 -5.651465 -6.856903
vn -0.725528 -0.453653 0.517502
v 6.780916 -9.559237 -4.110672
vn -0.725528 -0.453653 0.517502
v 2.982727 -3.988776 -4.552475
vn -0.725528 -0.453653 0.517502
v 2.378665 -5.651465 -6.856903
vn 0.071577 0.127266 0.989283
v 2.982727 -3.988776 -4.552475
vn 0.071577 0.127266 0.989283
v 6.780916 -9.559237 -4.110672
vn 0.071577 0.127266 0.989283
v 5.891739 -1.339549 -5.103760
vn 0.875055 0.119150 -0.469128
v 6.171304 -5.245018 -7.514160
vn 0.875055 0.119150 -0.469128
v 4.110551 -1.379816 -10.376350
vn 0.875055 0.119150 -0.469128
v 4.722761 -0.187281 -8.931526
vn -0.016962 -0.600843 -0.799187
v 6.171304 -5.245018 -7.514160
vn -0.016962 -0.600843 -0.799187
v 2.235665 -4.062107 -8.319962
vn -0.016962 -0.600843 -0.799187
v 4.110551 -1.379816 -10.376350
vn -0.054136 -0.678909 -0.732224
v 2.378665 -5.651465 -6.856903
vn -0.054136 -0.678909 -0.732224
v 2.235665 -4.062107 -8.319962
vn -0.054136 -0.678909 -0.732224
v 6.171304 -5.245018 -7.514160
vn 0.993612 0.101533 -0.049268
v 5.891739 -1.339549 -5.103760
vn 0.993612 0.101533 -0.049268
v 6.780916 -9.559237 -4.110672
vn 0.993612 0.101533 -0.049268
v 6.171304 -5.245018 -7.514160
vn -0.897299 0.197375 0.394839
v -7.065144 -8.717472 0.837082
vn -0.897299 0.197375 0.394839
v -6.328120 -3.202335 -0.244934
vn -0.897299 0.197375 0.394839
v -7.047609 0.456219 -3.708893
vn 0.287773 0.147201 0.946318
v -6.328120 -3.202335 -0.244934
vn 0.287773 0.147201 0.946318
v -7.065144 -8.717472 0.837082
vn 0.287773 0.147201 0.946318
v -5.605974 -4.691204 -0.232941
vn 0.723608 -0.080051 0.685554
v -4.069517 -5.945084 -2.001099
vn 0.723608 -0.080051 0.685554
v -5.605974 -4.691204 -0.232941
vn 0.723608 -0.080051 0.685554
v -7.065144 -8.717472 0.837082
vn 0.618338 -0.778484 -0.107798
v -4.245935 -5.788386 -4.144684
vn 0.618338 -0.778484 -0.107798
v -4.069517 -5.945084 -2.001099
vn 0.618338 -0.778484 -0.107798
v -7.065144 -8.717472 0.837082
vn -0.830543 -0.075369 -0.551831
v -8.462675 -2.042568 -4.609528
vn -0.830543 -0.075369 -0.551831
v -6.924389 1.995805 -7.476311
vn -0.830543 -0.075369 -0.551831
v -6.283662 0.100254 -8.181755
vn -0.882544 0.444690 0.152861
v -8.462675 -2.042568 -4.609528
vn -0.882544 0.444690 0.152861
v -7.047609 0.456219 -3.708893
vn -0.882544 0.444690 0.152861
v -6.924389 1.995805 -7.476311
vn -0.805102 0.264598 0.530847
v -7.065144 -8.717472 0.837082
vn -0.805102 0.264598 0.530847
v -7.047609 0.456219 -3.708893
vn -0.805102 0.264598 0.530847
v -8.462675 -2.042568 -4.609528
vn -0.130543 -0.557017 -0.820177
v -6.368210 -5.239824 -4.541626
vn -0.130543 -0.557017 -0.820177
v -7.812443 -4.207706 -5.012711
vn -0.130543 -0.557017 -0.820177
v -6.283662 0.100254 -8.181755
vn -0.366771 -0.758852 -0.538166
v -7.065144 -8.717472 0.837082
vn -0.366771 -0.758852 -0.538166
v -7.812443 -4.207706 -5.012711
vn -0.366771 -0.758852 -0.538166
v -6.368210 -5.239824 -4.541626
vn -0.807563 -0.135644 -0.573970
v -7.812443 -4.207706 -5.012711
vn -0.807563 -0.135644 -0.573970
v -8.462675 -2.042568 -4.609528
vn -0.807563 -0.135644 -0.573970
v -6.283662 0.100254 -8.181755
vn -0.958459 -0.271646 -0.086978
v -7.812443 -4.207706 -5.012711
vn -0.958459 -0.271646 -0.086978
v -7.065144 -8.717472 0.837082
vn -0.958459 -0.271646 -0.086978
v -8.462675 -2.042568 -4.609528
vn -0.111185 -0.827924 -0.549708
v -7.065144 -8.717472 0.837082
vn -0.111185 -0.827924 -0.549708
v -6.368210 -5.239824 -4.541626
vn -0.111185 -0.827924 -0.549708
v -4.245935 -5.788386 -4.144684
vn -0.572646 0.656500 0.491004
v -5.021044 8.276190 -2.020996
vn -0.572646 0.656500 0.491004
v -6.667201 3.890413 1.923157
vn -0.572646 0.656500 0.491004
v -4.219723 5.752252 2.288208
vn 0.390645 0.548303 0.739432
v -4.219723 5.752252 2.288208
vn 0.390645 0.548303 0.739432
v -2.170306 5.488451 1.401108
vn 0.390645 0.548303 0.739432
v -2.620445 9.436253 -1.288452
vn 0.395148 0.517456 0.759011
v -4.219723 5.752252 2.288208
vn 0.395148 0.517456 0.759011
v -5.839310 0.688492 6.583603
vn 0.395148 0.517456 0.759011
v -2.170306 5.488451 1.401108
vn -0.560847 0.632521 0.534198
v -6.667201 3.890413 1.923157
vn -0.560847 0.632521 0.534198
v -5.839310 0.688492 6.583603
vn -0.560847 0.632521 0.534198
v -4.219723 5.752252 2.288208
# 840 vertices, 0 vertices normals


usemtl material_0
vt 0.244000 1.762000
vt 0.217000 1.748000
vt 0.214000 1.570000
f 1/1/1 2/2/2 3/3/3
vt 0.148000 1.997000
f 4/4/4 5/2/5 6/1/6
vt 0.144000 1.634000
vt 0.023000 1.623000
vt 0.055000 1.581000
f 7/5/7 8/6/8 9/7/9
vt 0.142000 1.742000
f 10/8/10 11/6/11 12/5/12
vt 0.019000 1.742000
f 13/8/13 14/9/14 15/6/15
vt 0.104000 1.544000
f 16/5/16 17/7/17 18/10/18
f 19/3/19 20/5/20 21/10/21
f 22/2/22 23/4/23 24/8/24
f 25/5/25 26/3/26 27/2/27
f 28/2/28 29/8/29 30/5/30
vt 0.260000 1.770000
f 31/11/31 32/4/32 33/1/33
f 34/9/34 35/6/35 36/9/36
vt 0.292000 1.782000
f 37/4/37 38/11/38 39/12/39
vt 0.434000 1.985000
vt 0.328000 1.859000
vt 0.328000 1.804000
f 40/13/40 41/14/41 42/15/42
vt 0.452000 1.648000
vt 0.464000 1.723000
vt 0.432000 1.598000
f 43/16/43 44/17/44 45/18/45
vt 0.484000 1.659000
vt 0.509000 1.757000
f 46/19/46 47/20/47 48/17/48
vt 0.485000 1.843000
vt 0.518000 1.845000
vt 0.498000 1.905000
f 49/21/49 50/22/50 51/23/51
f 52/17/52 53/16/53 54/19/54
vt 0.537000 1.757000
f 55/24/55 56/22/56 57/21/57
f 58/23/58 59/13/59 60/21/60
f 61/20/61 62/21/62 63/17/63
vt 0.401000 1.822000
vt 0.379000 1.731000
f 64/25/64 65/26/65 66/17/66
f 67/24/67 68/20/68 69/19/69
f 70/21/70 71/20/71 72/24/72
vt 0.349000 1.646000
vt 0.385000 1.506000
vt 0.405000 1.542000
f 73/27/73 74/28/74 75/29/75
vt 0.345000 1.731000
f 76/26/76 77/30/77 78/27/78
vt 0.390000 1.627000
f 79/29/79 80/31/80 81/27/81
f 82/15/82 83/30/83 84/26/84
f 85/27/85 86/31/86 87/26/87
f 88/17/88 89/26/89 90/31/90
vt 0.413000 1.610000
f 91/17/91 92/31/92 93/32/93
f 94/32/94 95/31/95 96/29/96
vt 0.572000 1.885000
vt 0.568000 1.699000
vt 0.662000 1.688000
f 97/33/97 98/34/98 99/35/99
vt 0.660000 1.558000
vt 0.686000 1.551000
vt 0.710000 1.560000
f 100/36/100 101/37/101 102/38/102
vt 0.728000 1.675000
f 103/39/103 104/35/104 105/36/105
vt 0.591000 1.632000
f 106/35/106 107/34/107 108/40/108
vt 0.617000 1.562000
f 109/41/109 110/36/110 111/35/111
vt 0.550000 1.913000
vt 0.555000 1.698000
f 112/42/112 113/43/113 114/33/114
f 115/34/115 116/33/116 117/43/117
vt 0.661000 1.990000
f 118/33/118 119/44/119 120/42/120
f 121/35/121 122/40/122 123/41/123
f 124/36/124 125/38/125 126/39/126
vt 0.741000 1.734000
vt 0.743000 1.767000
vt 0.728000 1.853000
f 127/45/127 128/46/128 129/47/129
f 130/35/130 131/39/131 132/47/132
vt 0.662000 1.840000
f 133/48/133 134/33/134 135/35/135
f 136/48/136 137/44/137 138/33/138
f 139/47/139 140/48/140 141/35/141
f 142/47/142 143/44/143 144/48/144
f 145/47/145 146/39/146 147/45/147
vt 0.733000 1.866000
vt 0.740000 1.878000
f 148/44/148 149/49/149 150/50/150
f 151/44/151 152/47/152 153/49/153
f 154/49/154 155/47/155 156/46/156
f 157/49/157 158/46/158 159/50/159
vt 0.901000 1.716000
vt 0.920000 1.799000
vt 0.924000 1.592000
f 160/51/160 161/52/161 162/53/162
vt 0.828000 1.997000
f 163/51/163 164/54/164 165/52/165
vt 0.870000 1.596000
f 166/55/166 167/51/167 168/53/168
vt 0.906000 1.516000
f 169/55/169 170/53/170 171/56/171
vt 0.838000 1.566000
f 172/57/172 173/55/173 174/56/174
vt 0.833000 1.636000
vt 0.794000 1.782000
f 175/58/175 176/59/176 177/54/177
f 178/58/178 179/51/179 180/55/180
f 181/58/181 182/55/182 183/57/183
f 184/54/184 185/51/185 186/58/186
vt 0.794000 1.685000
f 187/59/187 188/58/188 189/60/189
vt 0.787000 1.586000
f 190/61/190 191/60/191 192/58/192
vt 0.789000 1.838000
f 193/62/193 194/54/194 195/59/195
vt 0.909000 1.863000
f 196/54/196 197/63/197 198/52/198
f 199/58/199 200/57/200 201/61/201
vt 0.777000 1.502000
vt 0.907000 1.511000
vt 0.864000 1.474000
f 202/64/202 203/65/203 204/66/204
vt 0.834000 1.711000
vt 0.945000 1.717000
vt 0.994000 1.536000
f 205/67/205 206/68/206 207/69/207
f 208/69/208 209/65/209 210/67/210
vt 0.816000 1.932000
f 211/67/211 212/70/212 213/68/213
vt 0.393000 1.143000
vt 0.342000 1.162000
vt 0.396000 1.422000
f 214/71/214 215/72/215 216/73/216
vt 0.754000 1.708000
vt 0.737000 1.707000
f 217/70/217 218/74/218 219/75/219
f 220/75/220 221/74/221 222/64/222
vt 0.803000 1.479000
f 223/66/223 224/76/224 225/64/225
f 226/67/226 227/65/227 228/64/228
f 229/64/229 230/74/230 231/67/231
f 232/74/232 233/70/233 234/67/234
vt 0.470000 1.421000
vt 0.482000 1.263000
f 235/73/235 236/77/236 237/78/237
vt 0.722000 1.826000
f 238/75/238 239/79/239 240/70/240
vt 0.397000 1.035000
f 241/72/241 242/71/242 243/80/243
f 244/73/244 245/78/245 246/71/246
vt 0.988000 1.754000
vt 0.926000 1.719000
vt 0.904000 1.512000
f 247/81/247 248/82/248 249/83/249
vt 0.825000 1.993000
vt 0.737000 1.840000
vt 0.780000 1.826000
f 250/84/250 251/85/251 252/86/252
vt 0.767000 1.776000
f 253/86/253 254/87/254 255/84/255
vt 0.778000 1.504000
vt 0.803000 1.478000
vt 0.867000 1.474000
f 256/88/256 257/89/257 258/90/258
f 259/90/259 260/83/260 261/88/261
vt 0.852000 1.730000
f 262/82/262 263/91/263 264/83/264
f 265/82/265 266/84/266 267/91/267
vt 0.742000 1.708000
f 268/87/268 269/86/269 270/92/270
f 271/87/271 272/92/272 273/88/273
f 274/91/274 275/87/275 276/88/276
f 277/84/277 278/87/278 279/91/279
f 280/88/280 281/83/281 282/91/282
f 283/84/283 284/82/284 285/81/285
vt 0.929000 1.854000
f 286/93/286 287/84/287 288/81/288
f 289/92/289 290/86/290 291/85/291
vt 0.770000 1.984000
vt 0.752000 1.926000
vt 0.661000 1.997000
f 292/94/292 293/95/293 294/96/294
vt 0.737000 1.887000
vt 0.728000 1.850000
f 295/96/295 296/97/296 297/98/297
f 298/97/298 299/96/299 300/95/300
vt 0.671000 1.612000
vt 0.659000 1.533000
vt 0.624000 1.503000
f 301/99/301 302/100/302 303/101/303
vt 0.507000 1.646000
vt 0.565000 1.919000
vt 0.536000 1.574000
f 304/102/304 305/103/305 306/104/306
vt 0.620000 1.592000
f 307/105/307 308/99/308 309/101/309
f 310/104/310 311/105/311 312/101/312
f 313/103/313 314/105/314 315/104/315
vt 0.607000 1.900000
f 316/106/316 317/99/317 318/105/318
vt 0.693000 1.894000
vt 0.697000 1.678000
f 319/107/319 320/98/320 321/108/321
f 322/107/322 323/96/323 324/98/324
f 325/107/325 326/108/326 327/99/327
f 328/96/328 329/106/329 330/103/330
f 331/105/331 332/103/332 333/106/333
f 334/106/334 335/107/335 336/99/336
f 337/106/337 338/96/338 339/107/339
vt 0.343000 1.650000
vt 0.367000 1.769000
vt 0.381000 1.518000
f 340/109/340 341/110/341 342/111/342
vt 0.497000 1.592000
f 343/111/343 344/110/344 345/112/345
vt 0.510000 1.568000
f 346/113/346 347/112/347 348/110/348
vt 0.493000 1.580000
f 349/110/349 350/109/350 351/114/351
vt 0.028000 1.987000
f 352/8/352 353/115/353 354/9/354
f 355/9/355 356/9/356 357/115/357
vt 0.012000 1.792000
f 358/115/358 359/116/359 360/9/360
vt 0.172000 1.510000
f 361/10/361 362/117/362 363/3/363
vt 0.258000 1.022000
vt 0.161000 1.143000
vt 0.252000 1.161000
f 364/118/364 365/119/365 366/120/366
vt 0.106000 1.296000
vt 0.127000 1.124000
vt 0.005000 1.137000
f 367/121/367 368/122/368 369/123/369
vt 0.065000 1.318000
vt 0.006000 1.318000
f 370/124/370 371/123/371 372/125/372
vt 0.095000 1.465000
f 373/126/373 374/124/374 375/125/375
vt 0.153000 1.306000
f 376/121/376 377/127/377 378/119/378
f 379/121/379 380/126/380 381/127/381
f 382/119/382 383/122/383 384/121/384
f 385/119/385 386/127/386 387/120/387
f 388/123/388 389/124/389 390/121/390
f 391/124/391 392/126/392 393/121/393
vt 0.228000 1.279000
vt 0.271000 1.278000
f 394/128/394 395/129/395 396/120/396
vt 0.180000 1.465000
f 397/128/397 398/130/398 399/129/399
f 400/127/400 401/128/401 402/120/402
f 403/127/403 404/130/404 405/128/405
vt 0.375000 1.020000
vt 0.383000 1.098000
vt 0.336000 1.072000
f 406/131/406 407/132/407 408/133/408
vt 0.717000 1.223000
vt 0.631000 1.118000
vt 0.660000 1.075000
f 409/134/409 410/135/410 411/136/411
vt 0.540000 1.057000
vt 0.521000 1.025000
vt 0.608000 1.032000
f 412/137/412 413/138/413 414/139/414
vt 0.452000 1.239000
vt 0.396000 1.053000
f 415/140/415 416/132/416 417/141/417
vt 0.708000 1.072000
f 418/136/418 419/142/419 420/134/420
vt 0.629000 1.211000
f 421/134/421 422/143/422 423/135/423
vt 0.344000 1.219000
vt 0.268000 1.059000
f 424/144/424 425/145/425 426/133/426
vt 0.608000 1.105000
vt 0.512000 1.218000
vt 0.513000 1.117000
f 427/146/427 428/147/428 429/148/429
f 430/132/430 431/144/431 432/133/432
f 433/140/433 434/144/434 435/132/435
vt 0.659000 1.201000
vt 0.662000 1.058000
vt 0.666000 1.118000
f 436/149/436 437/150/437 438/151/438
vt 0.573000 1.251000
f 439/149/439 440/152/440 441/139/441
f 442/139/442 443/150/443 444/149/444
vt 0.426000 1.053000
vt 0.525000 1.057000
vt 0.437000 1.233000
f 445/153/445 446/154/446 447/155/447
f 448/152/448 449/155/449 450/154/450
vt 0.760000 1.202000
vt 0.792000 1.095000
vt 0.870000 1.105000
f 451/156/451 452/157/452 453/158/453
vt 0.865000 1.221000
f 454/158/454 455/159/455 456/156/456
vt 0.614000 1.217000
f 457/160/457 458/147/458 459/146/459
vt 0.732000 1.092000
f 460/161/460 461/157/461 462/156/462
vt 0.653000 1.319000
f 463/162/463 464/143/464 465/134/465
vt 0.693000 1.311000
f 466/163/466 467/162/467 468/134/468
vt 0.591000 1.505000
vt 0.497000 1.376000
f 469/164/469 470/165/470 471/147/471
f 472/164/472 473/147/473 474/160/474
vt 0.631000 1.319000
f 475/152/475 476/149/476 477/166/477
vt 0.573000 1.336000
f 478/166/478 479/167/479 480/152/480
vt 0.843000 1.380000
f 481/159/481 482/168/482 483/156/483
vt 0.778000 1.364000
f 484/168/484 485/169/485 486/156/486
vt 0.574000 1.512000
f 487/170/487 488/167/488 489/166/489
vt 0.679000 1.462000
f 490/171/490 491/162/491 492/163/492
vt 0.508000 1.507000
f 493/172/493 470/165/470 469/164/469
vt 0.827000 1.477000
f 494/173/494 495/169/495 496/168/496
vt 0.404000 1.462000
vt 0.365000 1.323000
vt 0.438000 1.349000
f 497/174/497 498/175/498 499/176/499
f 500/175/500 501/144/501 502/176/502
f 503/176/503 504/144/504 505/140/505
vt 0.514000 1.502000
vt 0.486000 1.349000
vt 0.553000 1.351000
f 506/177/506 507/178/507 508/179/508
f 509/152/509 510/179/510 511/178/511
f 512/178/512 449/155/449 448/152/448
f 513/139/513 514/152/514 515/137/515
vt 0.384000 1.757000
vt 0.337000 1.664000
vt 0.392000 1.513000
f 516/180/516 517/181/517 518/182/518
vt 0.415000 1.654000
f 519/182/519 520/183/520 521/180/521
vt 0.456000 1.523000
f 522/183/522 523/182/523 524/184/524
vt 0.178000 1.446000
vt 0.159000 1.288000
vt 0.241000 1.237000
f 525/185/525 526/186/526 527/187/527
vt 0.158000 1.272000
vt 0.131000 1.219000
f 528/188/528 529/189/529 530/186/530
vt 0.363000 1.252000
vt 0.388000 1.389000
vt 0.447000 1.246000
f 531/190/531 532/191/532 533/192/533
f 534/110/534 535/114/535 536/113/536
vt 0.177000 1.262000
vt 0.215000 1.011000
vt 0.132000 1.046000
f 537/193/537 538/194/538 539/195/539
f 540/189/540 541/188/541 542/195/542
f 543/186/543 544/185/544 545/188/545
vt 0.389000 1.120000
vt 0.358000 1.151000
f 546/190/546 547/196/547 548/197/548
f 549/192/549 550/196/550 551/190/551
vt 0.229000 1.253000
f 552/193/552 553/198/553 554/194/554
f 555/195/555 556/188/556 557/193/557
f 558/193/558 559/185/559 560/198/560
f 561/188/561 562/185/562 563/193/563
vt 0.410000 1.531000
vt 0.462000 1.550000
vt 0.388000 1.748000
f 564/199/564 565/200/565 566/201/566
vt 0.346000 1.678000
vt 0.304000 1.581000
f 567/199/567 568/202/568 569/203/569
f 570/201/570 571/202/571 572/199/572
vt 0.434000 1.663000
f 573/201/573 574/200/574 575/204/575
vt 0.316000 1.712000
vt 0.328000 1.686000
f 576/205/576 577/206/577 578/180/578
vt 0.438000 1.653000
f 579/180/579 580/183/580 581/207/581
f 582/183/582 583/184/583 584/207/584
f 585/181/585 586/180/586 587/206/587
vt 0.963000 1.689000
vt 0.851000 1.917000
vt 0.847000 1.733000
f 588/208/588 589/209/589 590/210/590
vt 0.452000 1.154000
vt 0.552000 1.241000
vt 0.516000 1.525000
f 591/211/591 592/212/592 593/213/593
vt 0.391000 1.419000
vt 0.323000 1.155000
f 594/214/594 595/215/595 596/211/596
vt 0.766000 1.054000
vt 0.897000 1.073000
vt 0.821000 1.403000
f 597/216/597 598/217/598 599/218/599
vt 0.845000 1.623000
f 600/208/600 601/210/601 602/219/602
vt 0.960000 1.592000
f 603/208/603 604/219/604 605/220/605
vt 0.350000 1.101000
f 606/211/606 607/215/607 608/221/608
vt 0.875000 1.027000
f 609/222/609 610/217/610 611/216/611
vt 0.567000 1.172000
f 612/213/612 613/212/613 614/223/614
vt 0.811000 1.705000
vt 0.828000 1.973000
vt 0.915000 1.688000
f 615/224/615 616/225/616 617/226/617
vt 0.747000 1.804000
vt 0.875000 1.866000
f 618/227/618 619/228/619 620/225/620
vt 0.339000 1.263000
vt 0.390000 1.383000
vt 0.455000 1.258000
f 621/229/621 622/230/622 623/231/623
vt 0.808000 1.614000
f 624/232/624 625/224/625 626/226/626
vt 0.918000 1.626000
f 627/232/627 628/226/628 629/233/629
vt 0.458000 1.129000
vt 0.294000 1.134000
f 630/229/630 631/234/631 632/235/632
f 633/231/633 634/234/634 635/229/635
f 636/227/636 637/224/637 638/232/638
f 639/225/639 640/224/640 641/227/641
vt 0.458000 1.298000
vt 0.397000 1.409000
vt 0.368000 1.302000
f 642/236/642 643/237/643 644/238/644
vt 0.419000 1.152000
f 645/236/645 646/238/646 647/239/647
vt 0.306000 1.155000
f 648/238/648 649/240/649 650/239/650
vt 0.096000 1.483000
vt 0.015000 1.393000
vt 0.036000 1.180000
f 651/241/651 652/242/652 653/243/653
vt 0.140000 1.329000
vt 0.110000 1.114000
f 654/244/654 655/243/655 656/245/656
f 657/244/657 658/241/658 659/243/659
vt 0.539000 1.266000
vt 0.591000 1.172000
vt 0.663000 1.274000
f 660/246/660 661/247/661 662/248/662
vt 0.709000 1.336000
vt 0.663000 1.449000
vt 0.658000 1.274000
f 663/249/663 664/250/664 665/251/665
vt 0.667000 1.110000
f 666/248/666 667/247/667 668/252/668
vt 0.573000 1.509000
f 669/248/669 670/253/670 671/246/671
vt 0.547000 1.114000
f 672/247/672 673/246/673 674/254/674
vt 0.916000 1.103000
vt 0.836000 1.020000
vt 0.927000 1.021000
f 675/255/675 676/256/676 677/257/677
vt 0.788000 1.255000
vt 0.871000 1.138000
vt 0.827000 1.389000
f 678/258/678 679/259/679 680/260/680
f 681/259/681 682/256/682 683/255/683
f 684/260/684 685/259/685 686/255/686
vt 0.683000 1.273000
vt 0.647000 1.115000
f 687/261/687 688/251/688 689/262/689
f 690/249/690 688/251/688 687/261/687
f 691/259/691 692/258/692 693/256/693
vt 0.770000 1.395000
f 694/260/694 695/263/695 696/258/696
vt 0.442000 1.745000
vt 0.420000 1.849000
vt 0.478000 1.802000
f 697/264/697 698/265/698 699/266/699
vt 0.431000 1.907000
f 700/267/700 701/266/701 702/265/702
vt 0.497000 1.738000
f 703/268/703 704/264/704 705/266/705
vt 0.360000 1.735000
vt 0.364000 1.582000
vt 0.386000 1.788000
f 706/269/706 707/270/707 708/271/708
vt 0.673000 1.734000
vt 0.692000 1.627000
vt 0.579000 1.688000
f 709/272/709 710/273/710 711/274/711
vt 0.548000 1.779000
f 712/274/712 713/275/713 714/272/714
vt 0.588000 1.940000
f 715/276/715 716/272/716 717/275/717
vt 0.665000 1.999000
f 718/276/718 719/277/719 720/272/720
vt 0.719000 1.838000
vt 0.764000 1.799000
f 721/278/721 722/279/722 723/273/723
f 724/273/724 725/272/725 726/278/726
f 727/277/727 728/278/728 729/272/729
vt 0.424000 1.603000
vt 0.435000 1.524000
f 730/280/730 731/270/731 732/281/732
f 733/271/733 734/270/734 735/280/735
vt 0.637000 1.773000
vt 0.576000 1.755000
vt 0.623000 1.689000
f 736/282/736 737/283/737 738/284/738
vt 0.577000 1.918000
f 739/285/739 740/283/740 741/282/741
vt 0.537000 1.831000
f 742/286/742 743/283/743 744/285/744
vt 0.727000 1.709000
vt 0.654000 1.617000
vt 0.606000 1.749000
f 745/287/745 746/288/746 747/289/747
vt 0.664000 1.988000
f 748/289/748 749/290/749 750/287/750
vt 0.238000 1.212000
vt 0.139000 1.298000
vt 0.178000 1.441000
f 751/291/751 752/292/752 753/293/753
vt 0.663000 1.856000
vt 0.747000 1.873000
f 754/290/754 755/294/755 756/295/756
vt 0.583000 1.866000
f 757/294/757 758/290/758 759/296/759
vt 0.757000 1.489000
f 760/288/760 761/287/761 762/297/762
vt 0.230000 1.300000
f 763/293/763 764/298/764 765/291/765
vt 0.117000 1.211000
f 766/292/766 767/291/767 768/299/768
vt 0.938000 1.547000
vt 0.995000 1.661000
vt 0.903000 1.605000
f 769/300/769 770/301/770 771/302/771
vt 0.804000 1.713000
vt 0.830000 1.957000
vt 0.909000 1.692000
f 772/303/772 773/304/773 774/305/774
vt 0.385000 1.764000
vt 0.388000 1.544000
vt 0.327000 1.567000
f 775/306/775 776/307/776 777/308/777
vt 0.474000 1.561000
f 778/307/778 779/306/779 780/309/780
vt 0.894000 1.545000
f 781/302/781 782/310/782 783/300/783
vt 0.885000 1.637000
vt 0.795000 1.579000
f 784/303/784 785/311/785 786/312/786
f 787/305/787 788/311/788 789/303/789
vt 0.930000 1.792000
f 790/301/790 791/313/791 792/302/792
vt 0.829000 1.934000
vt 0.792000 1.776000
vt 0.858000 1.650000
f 793/314/793 794/315/794 795/316/795
vt 0.776000 1.767000
f 796/315/796 797/314/797 798/317/798
vt 0.606000 1.688000
vt 0.607000 1.784000
vt 0.659000 1.994000
f 799/318/799 800/319/800 801/320/801
vt 0.635000 1.689000
f 802/321/802 803/318/803 804/320/804
vt 0.912000 1.635000
vt 0.927000 1.499000
vt 0.974000 1.499000
f 805/322/805 806/323/806 807/324/807
f 808/322/808 809/316/809 810/323/810
vt 0.859000 1.934000
f 811/325/811 812/316/812 813/322/813
vt 0.705000 1.625000
vt 0.758000 1.620000
vt 0.772000 1.454000
f 814/326/814 815/327/815 816/328/816
f 817/320/817 818/327/818 819/326/819
vt 0.959000 1.638000
f 820/329/820 821/322/821 822/324/822
vt 0.919000 1.859000
f 823/329/823 824/330/824 825/322/825
f 826/320/826 827/326/827 828/321/828
f 829/17/829 830/21/830 831/25/831
f 832/25/832 833/15/833 834/26/834
f 835/25/835 836/13/836 837/15/837
f 838/21/838 839/13/839 840/25/840
# 282 faces, 330 coords texture

# End of File