####
#
# OBJ File Generated by Meshlab
#
####
# Object propeller.obj
#
# Vertices: 704
# Faces: 784
#
####
mtllib ./propeller.obj.mtl

vn -0.024487 0.001777 -2.735263
v 0.075350 0.222248 0.261824 0.749020 0.749020 0.749020
vn 2.275600 -0.606095 1.380555
v 0.088324 0.218748 0.284969 0.749020 0.749020 0.749020
vn -2.280119 0.607284 -1.381027
v 0.030928 0.234185 0.288438 0.749020 0.749020 0.749020
vn 0.760624 -0.201038 1.359854
v 0.043902 0.230686 0.311581 0.749020 0.749020 0.749020
vn -0.733999 0.198647 1.371999
v 0.043902 0.230686 0.311581 0.749020 0.749020 0.749020
vn 0.548341 2.038508 0.001063
v 0.115826 0.373623 0.261560 0.749020 0.749020 0.749020
vn -0.026811 0.002423 -2.731610
v 0.115826 0.373623 0.261560 0.749020 0.749020 0.749020
vn 2.279941 -0.607247 1.380958
v 0.128801 0.370123 0.284706 0.749020 0.749020 0.749020
vn 0.547680 2.036411 0.000798
v 0.128801 0.370123 0.284706 0.749020 0.749020 0.749020
vn 0.547726 2.036508 0.000829
v 0.071405 0.385558 0.288175 0.749020 0.749020 0.749020
vn -2.275882 0.606170 -1.380638
v 0.071405 0.385558 0.288175 0.749020 0.749020 0.749020
vn 0.760441 -0.200979 1.359463
v 0.084379 0.382058 0.311319 0.749020 0.749020 0.749020
vn 0.548346 2.038550 0.001073
v 0.084379 0.382058 0.311319 0.749020 0.749020 0.749020
vn -0.736087 0.199208 1.375969
v 0.084379 0.382058 0.311319 0.749020 0.749020 0.749020
vn -2.251296 0.604335 1.354635
v 0.030723 0.234232 0.304017 0.749020 0.749020 0.749020
vn 2.253425 -0.604905 -1.350841
v 0.088529 0.218702 0.269387 0.749020 0.749020 0.749020
vn 2.251487 -0.604391 -1.354862
v 0.129005 0.370074 0.269124 0.749020 0.749020 0.749020
vn 0.535928 1.992588 0.000868
v 0.129005 0.370074 0.269124 0.749020 0.749020 0.749020
vn 0.535917 1.992524 0.000886
v 0.071200 0.385607 0.303755 0.749020 0.749020 0.749020
vn -2.253197 0.604838 1.350586
v 0.071200 0.385607 0.303755 0.749020 0.749020 0.749020
vn -0.018826 0.010459 -2.735692
v 0.173820 0.155413 0.261730 0.749020 0.749020 0.749020
vn 1.668069 -1.659672 1.380403
v 0.183328 0.145894 0.284889 0.749020 0.749020 0.749020
vn -1.671462 1.663101 -1.383606
v 0.141320 0.188047 0.288296 0.749020 0.749020 0.749020
vn 0.558390 -0.552828 1.362198
v 0.150828 0.178527 0.311455 0.749020 0.749020 0.749020
vn -0.536054 0.538887 1.370843
v 0.150828 0.178527 0.311455 0.749020 0.749020 0.749020
vn 1.495918 1.490939 -0.001432
v 0.284340 0.266208 0.261393 0.749020 0.749020 0.749020
vn -0.022177 0.013827 -2.733037
v 0.284340 0.266208 0.261393 0.749020 0.749020 0.749020
vn 1.492746 1.487642 -0.001205
v 0.293847 0.256689 0.284551 0.749020 0.749020 0.749020
vn 1.671502 -1.663117 1.383404
v 0.293847 0.256689 0.284551 0.749020 0.749020 0.749020
vn 1.492738 1.487713 -0.001303
v 0.251839 0.298843 0.287959 0.749020 0.749020 0.749020
vn -1.668069 1.659700 -1.380339
v 0.251839 0.298843 0.287959 0.749020 0.749020 0.749020
vn 0.557100 -0.551562 1.359112
v 0.261346 0.289324 0.311117 0.749020 0.749020 0.749020
vn 1.495976 1.490914 -0.001327
v 0.261346 0.289324 0.311117 0.749020 0.749020 0.749020
vn -0.538399 0.541261 1.376601
v 0.261346 0.289324 0.311117 0.749020 0.749020 0.749020
vn -1.649291 1.649313 1.355279
v 0.141177 0.188204 0.303877 0.749020 0.749020 0.749020
vn 1.649216 -1.649195 -1.349604
v 0.183471 0.145738 0.269307 0.749020 0.749020 0.749020
vn 1.461725 1.456783 -0.001268
v 0.293989 0.256534 0.268971 0.749020 0.749020 0.749020
vn 1.649373 -1.649362 -1.355370
v 0.293989 0.256534 0.268971 0.749020 0.749020 0.749020
vn 1.461676 1.456734 -0.001266
v 0.251697 0.298999 0.303539 0.749020 0.749020 0.749020
vn -1.649241 1.649245 1.349520
v 0.251697 0.298999 0.303539 0.749020 0.749020 0.749020
vn -0.010501 0.017171 -2.735912
v 0.225779 0.048153 0.261773 0.749020 0.749020 0.749020
vn 0.612768 -2.271166 1.383234
v 0.229284 0.035158 0.284945 0.749020 0.749020 0.749020
vn -0.613319 2.273173 -1.384886
v 0.213920 0.092733 0.288285 0.749020 0.749020 0.749020
vn -0.194802 0.736417 1.371994
v 0.217424 0.079739 0.311459 0.749020 0.749020 0.749020
vn 0.205815 -0.755706 1.362718
v 0.217424 0.079739 0.311459 0.749020 0.749020 0.749020
vn -0.011013 0.019342 -2.734676
v 0.376727 0.088682 0.261448 0.749020 0.749020 0.749020
vn 2.041558 0.544960 -0.003225
v 0.376727 0.088682 0.261448 0.749020 0.749020 0.749020
vn 2.035393 0.543363 -0.003229
v 0.380232 0.075689 0.284622 0.749020 0.749020 0.749020
vn 0.613323 -2.273137 1.385029
v 0.380232 0.075689 0.284622 0.749020 0.749020 0.749020
vn -0.612738 2.271167 -1.383202
v 0.364869 0.133262 0.287964 0.749020 0.749020 0.749020
vn 2.035389 0.543270 -0.003081
v 0.364869 0.133262 0.287964 0.749020 0.749020 0.749020
vn -0.195179 0.737841 1.374655
v 0.368373 0.120269 0.311137 0.749020 0.749020 0.749020
vn 2.041591 0.545012 -0.003222
v 0.368373 0.120269 0.311137 0.749020 0.749020 0.749020
vn 0.205578 -0.754792 1.361006
v 0.368373 0.120269 0.311137 0.749020 0.749020 0.749020
vn -0.602361 2.254164 1.352524
v 0.213885 0.092951 0.303865 0.749020 0.749020 0.749020
vn 0.602169 -2.253526 -1.349912
v 0.229318 0.034939 0.269364 0.749020 0.749020 0.749020
vn 1.993637 0.532188 -0.003142
v 0.380266 0.075469 0.269043 0.749020 0.749020 0.749020
vn 0.602419 -2.254295 -1.352351
v 0.380266 0.075469 0.269043 0.749020 0.749020 0.749020
vn 1.993661 0.532173 -0.003076
v 0.364834 0.133481 0.303543 0.749020 0.749020 0.749020
vn -0.602281 2.253879 1.349756
v 0.364834 0.133481 0.303543 0.749020 0.749020 0.749020
vn 0.001240 0.019430 -2.734772
v 0.217302 -0.070794 0.261936 0.749020 0.749020 0.749020
vn -0.609331 -2.272934 1.387151
v 0.213876 -0.083786 0.285121 0.749020 0.749020 0.749020
vn 0.608774 2.270911 -1.385455
v 0.229277 -0.026220 0.288406 0.749020 0.749020 0.749020
vn -0.201001 -0.754727 1.361740
v 0.225850 -0.039212 0.311593 0.749020 0.749020 0.749020
vn 0.200447 0.737777 1.373967
v 0.225850 -0.039212 0.311593 0.749020 0.749020 0.749020
vn 0.000596 0.017046 -2.735871
v 0.368233 -0.111389 0.261716 0.749020 0.749020 0.749020
vn 2.041500 -0.545890 -0.004324
v 0.368233 -0.111389 0.261716 0.749020 0.749020 0.749020
vn -0.608776 -2.270831 1.385560
v 0.364807 -0.124382 0.284902 0.749020 0.749020 0.749020
vn 2.035145 -0.544199 -0.004203
v 0.364807 -0.124382 0.284902 0.749020 0.749020 0.749020
vn 2.035062 -0.544228 -0.004126
v 0.380208 -0.066815 0.288186 0.749020 0.749020 0.749020
vn 0.609287 2.272828 -1.387117
v 0.380208 -0.066815 0.288186 0.749020 0.749020 0.749020
vn 2.041554 -0.545917 -0.004204
v 0.376781 -0.079807 0.311372 0.749020 0.749020 0.749020
vn 0.199972 0.736120 1.371373
v 0.376781 -0.079807 0.311372 0.749020 0.749020 0.749020
vn -0.201255 -0.755616 1.363456
v 0.376781 -0.079807 0.311372 0.749020 0.749020 0.749020
vn 0.608093 2.253540 1.347569
v 0.229367 -0.026001 0.303986 0.749020 0.749020 0.749020
vn -0.608176 -2.253789 -1.350372
v 0.213785 -0.084005 0.269541 0.749020 0.749020 0.749020
vn -0.608064 -2.253418 -1.347496
v 0.364716 -0.124602 0.269322 0.749020 0.749020 0.749020
vn 1.993261 -0.533002 -0.004149
v 0.364716 -0.124602 0.269322 0.749020 0.749020 0.749020
vn 0.608135 2.253777 1.350436
v 0.380298 -0.066596 0.303768 0.749020 0.749020 0.749020
vn 1.993281 -0.533035 -0.004064
v 0.380298 -0.066596 0.303768 0.749020 0.749020 0.749020
vn 0.012393 0.013855 -2.733104
v 0.150663 -0.169554 0.262180 0.749020 0.749020 0.749020
vn -1.667246 -1.662385 1.389527
v 0.141235 -0.179069 0.285372 0.749020 0.749020 0.749020
vn 1.663801 1.658963 -1.386393
v 0.183273 -0.136934 0.288629 0.749020 0.749020 0.749020
vn -0.552466 -0.551344 1.361116
v 0.173845 -0.146450 0.311821 0.749020 0.749020 0.749020
vn 0.543564 0.540991 1.374668
v 0.173845 -0.146450 0.311821 0.749020 0.749020 0.749020
vn 1.495324 -1.491535 -0.004220
v 0.261134 -0.280398 0.262119 0.749020 0.749020 0.749020
vn 0.008867 0.010334 -2.735808
v 0.261134 -0.280398 0.262119 0.749020 0.749020 0.749020
vn 1.492094 -1.488417 -0.003977
v 0.251706 -0.289913 0.285313 0.749020 0.749020 0.749020
vn -1.663865 -1.659004 1.386418
v 0.251706 -0.289913 0.285313 0.749020 0.749020 0.749020
vn 1.667185 1.662327 -1.389506
v 0.293745 -0.247779 0.288569 0.749020 0.749020 0.749020
vn 1.492115 -1.488434 -0.003987
v 0.293745 -0.247779 0.288569 0.749020 0.749020 0.749020
vn 0.541271 0.538708 1.368867
v 0.284316 -0.257294 0.311761 0.749020 0.749020 0.749020
vn 1.495331 -1.491597 -0.004097
v 0.284316 -0.257294 0.311761 0.749020 0.749020 0.749020
vn -0.553706 -0.552571 1.364202
v 0.284316 -0.257294 0.311761 0.749020 0.749020 0.749020
vn 1.654802 1.648506 1.343533
v 0.183472 -0.136778 0.304208 0.749020 0.749020 0.749020
vn -1.654928 -1.648617 -1.349323
v 0.141036 -0.179225 0.269793 0.749020 0.749020 0.749020
vn 1.460986 -1.457349 -0.003977
v 0.251508 -0.290070 0.269732 0.749020 0.749020 0.749020
vn -1.654746 -1.648437 -1.343482
v 0.251508 -0.290070 0.269732 0.749020 0.749020 0.749020
vn 1.460959 -1.457344 -0.003928
v 0.293943 -0.247622 0.304148 0.749020 0.749020 0.749020
vn 1.654978 1.648679 1.349382
v 0.293943 -0.247622 0.304148 0.749020 0.749020 0.749020
vn 0.017057 0.002424 -2.731870
v 0.043715 -0.221665 0.262438 0.749020 0.749020 0.749020
vn -2.275296 -0.606275 1.389230
v 0.030823 -0.225159 0.285628 0.749020 0.749020 0.749020
vn 2.271119 0.605166 -1.388836
v 0.088237 -0.209749 0.288891 0.749020 0.749020 0.749020
vn 0.741023 0.198869 1.373356
v 0.075345 -0.213243 0.312081 0.749020 0.749020 0.749020
vn -0.755640 -0.200656 1.362175
v 0.075345 -0.213243 0.312081 0.749020 0.749020 0.749020
vn 0.547438 -2.038969 -0.002765
v 0.084127 -0.373057 0.262556 0.749020 0.749020 0.749020
vn 0.014708 0.001812 -2.735518
v 0.084127 -0.373057 0.262556 0.749020 0.749020 0.749020
vn -2.271043 -0.605135 1.388800
v 0.071234 -0.376551 0.285745 0.749020 0.749020 0.749020
vn 0.546835 -2.036674 -0.002881
v 0.071234 -0.376551 0.285745 0.749020 0.749020 0.749020
vn 0.546858 -2.036567 -0.002960
v 0.128650 -0.361139 0.289008 0.749020 0.749020 0.749020
vn 2.275307 0.606311 -1.389146
v 0.128650 -0.361139 0.289008 0.749020 0.749020 0.749020
vn -0.755827 -0.200701 1.362539
v 0.115757 -0.364634 0.312198 0.749020 0.749020 0.749020
vn 0.738782 0.198275 1.369352
v 0.115757 -0.364634 0.312198 0.749020 0.749020 0.749020
vn 0.547423 -2.038922 -0.002839
v 0.115757 -0.364634 0.312198 0.749020 0.749020 0.749020
vn 2.258217 0.603839 1.342533
v 0.088498 -0.209700 0.304471 0.749020 0.749020 0.749020
vn -2.256350 -0.603341 -1.346718
v 0.030562 -0.225207 0.270047 0.749020 0.749020 0.749020
vn 0.535012 -1.992636 -0.002785
v 0.070973 -0.376599 0.270165 0.749020 0.749020 0.749020
vn -2.258213 -0.603830 -1.342680
v 0.070973 -0.376599 0.270165 0.749020 0.749020 0.749020
vn 0.535061 -1.992736 -0.002852
v 0.128910 -0.361092 0.304589 0.749020 0.749020 0.749020
vn 2.256302 0.603353 1.346825
v 0.128910 -0.361092 0.304589 0.749020 0.749020 0.749020
vn 0.013681 -0.008406 -2.731749
v -0.074883 -0.213163 0.262639 0.749020 0.749020 0.749020
vn -2.273498 0.610344 1.387388
v -0.087774 -0.209706 0.285822 0.749020 0.749020 0.749020
vn 2.271657 -0.609843 -1.391356
v -0.030366 -0.225150 0.289123 0.749020 0.749020 0.749020
vn 0.740298 -0.195582 1.371231
v -0.043257 -0.221692 0.312307 0.749020 0.749020 0.749020
vn -0.756436 0.204631 1.364055
v -0.043257 -0.221692 0.312307 0.749020 0.749020 0.749020
vn -0.548347 -2.038555 -0.000804
v -0.115359 -0.364537 0.262902 0.749020 0.749020 0.749020
vn 0.016287 -0.009097 -2.735353
v -0.115359 -0.364537 0.262902 0.749020 0.749020 0.749020
vn -0.547919 -2.037310 -0.001009
v -0.128251 -0.361080 0.286085 0.749020 0.749020 0.749020
vn -2.271535 0.609820 1.391464
v -0.128251 -0.361080 0.286085 0.749020 0.749020 0.749020
vn -0.547953 -2.037220 -0.000912
v -0.070842 -0.376522 0.289386 0.749020 0.749020 0.749020
vn 2.273495 -0.610328 -1.387403
v -0.070842 -0.376522 0.289386 0.749020 0.749020 0.749020
vn 0.740436 -0.195604 1.371742
v -0.083734 -0.373065 0.312569 0.749020 0.749020 0.749020
vn -0.548284 -2.038535 -0.000901
v -0.083734 -0.373065 0.312569 0.749020 0.749020 0.749020
vn -0.754192 0.204030 1.360045
v -0.083734 -0.373065 0.312569 0.749020 0.749020 0.749020
vn 2.259794 -0.601929 1.344365
v -0.030106 -0.225226 0.304703 0.749020 0.749020 0.749020
vn -2.255396 0.600760 -1.343997
v -0.088034 -0.209629 0.270242 0.749020 0.749020 0.749020
vn -2.259745 0.601921 -1.344328
v -0.128512 -0.361002 0.270505 0.749020 0.749020 0.749020
vn -0.535687 -1.991681 -0.000904
v -0.128512 -0.361002 0.270505 0.749020 0.749020 0.749020
vn 2.255367 -0.600735 1.344025
v -0.070582 -0.376599 0.304966 0.749020 0.749020 0.749020
vn -0.535717 -1.991793 -0.000904
v -0.070582 -0.376599 0.304966 0.749020 0.749020 0.749020
vn 0.007457 -0.015776 -2.733164
v -0.173354 -0.146328 0.262733 0.749020 0.749020 0.749020
vn -1.664046 1.664096 1.386484
v -0.182779 -0.136853 0.285902 0.749020 0.749020 0.749020
vn 1.664045 -1.664132 -1.392031
v -0.140758 -0.179012 0.289264 0.749020 0.749020 0.749020
vn 0.542158 -0.536655 1.371001
v -0.150182 -0.169535 0.312433 0.749020 0.749020 0.749020
vn -0.553267 0.556032 1.364708
v -0.150182 -0.169535 0.312433 0.749020 0.749020 0.749020
vn 0.011011 -0.019338 -2.735783
v -0.283873 -0.257124 0.263071 0.749020 0.749020 0.749020
vn -1.495974 -1.491026 0.001189
v -0.283873 -0.257124 0.263071 0.749020 0.749020 0.749020
vn -1.664083 1.664184 1.392048
v -0.293297 -0.247647 0.286240 0.749020 0.749020 0.749020
vn -1.494411 -1.489308 0.001466
v -0.293297 -0.247647 0.286240 0.749020 0.749020 0.749020
vn -1.494425 -1.489397 0.001380
v -0.251277 -0.289807 0.289602 0.749020 0.749020 0.749020
vn 1.663930 -1.664015 -1.386396
v -0.251277 -0.289807 0.289602 0.749020 0.749020 0.749020
vn -0.550922 0.553691 1.359009
v -0.260702 -0.280330 0.312769 0.749020 0.749020 0.749020
vn 0.543417 -0.537903 1.374154
v -0.260702 -0.280330 0.312769 0.749020 0.749020 0.749020
vn -1.496035 -1.491064 0.001160
v -0.260702 -0.280330 0.312769 0.749020 0.749020 0.749020
vn 1.656458 -1.648242 1.346926
v -0.140560 -0.179197 0.304846 0.749020 0.749020 0.749020
vn -1.652936 1.644695 -1.343598
v -0.182977 -0.136666 0.270321 0.749020 0.749020 0.749020
vn -1.656440 1.648194 -1.346789
v -0.293496 -0.247463 0.270659 0.749020 0.749020 0.749020
vn -1.459960 -1.455035 0.001335
v -0.293496 -0.247463 0.270659 0.749020 0.749020 0.749020
vn -1.459885 -1.454983 0.001286
v -0.251078 -0.289992 0.305181 0.749020 0.749020 0.749020
vn 1.653009 -1.644823 1.343721
v -0.251078 -0.289992 0.305181 0.749020 0.749020 0.749020
vn -0.000163 -0.021189 -2.734867
v -0.225313 -0.039068 0.262691 0.749020 0.749020 0.749020
vn -0.607631 2.274030 1.386655
v -0.228734 -0.026116 0.285844 0.749020 0.749020 0.749020
vn 0.607672 -2.274333 -1.389237
v -0.213358 -0.083698 0.289275 0.749020 0.749020 0.749020
vn -0.200649 0.758083 1.362837
v -0.216780 -0.070745 0.312429 0.749020 0.749020 0.749020
vn 0.200131 -0.734487 1.372861
v -0.216780 -0.070745 0.312429 0.749020 0.749020 0.749020
vn 0.000453 -0.023553 -2.735570
v -0.376262 -0.079597 0.263014 0.749020 0.749020 0.749020
vn -2.041667 -0.544911 0.003437
v -0.376262 -0.079597 0.263014 0.749020 0.749020 0.749020
vn -2.038400 -0.544103 0.003126
v -0.379682 -0.066646 0.286167 0.749020 0.749020 0.749020
vn -0.607687 2.274314 1.389355
v -0.379682 -0.066646 0.286167 0.749020 0.749020 0.749020
vn 0.607607 -2.274108 -1.386685
v -0.364306 -0.124226 0.289598 0.749020 0.749020 0.749020
vn -2.038379 -0.544167 0.003026
v -0.364306 -0.124226 0.289598 0.749020 0.749020 0.749020
vn 0.200378 -0.735347 1.374699
v -0.367728 -0.111275 0.312750 0.749020 0.749020 0.749020
vn -2.041787 -0.544975 0.003229
v -0.367728 -0.111275 0.312750 0.749020 0.749020 0.749020
vn -0.200231 0.756557 1.360170
v -0.367728 -0.111275 0.312750 0.749020 0.749020 0.749020
vn 0.607752 -2.252851 1.348187
v -0.213268 -0.083945 0.304855 0.749020 0.749020 0.749020
vn -0.607185 2.250663 -1.346361
v -0.228824 -0.025868 0.270264 0.749020 0.749020 0.749020
vn -0.607826 2.252980 -1.348148
v -0.379772 -0.066398 0.270588 0.749020 0.749020 0.749020
vn -1.990574 -0.531323 0.003150
v -0.379772 -0.066398 0.270588 0.749020 0.749020 0.749020
vn 0.607143 -2.250581 1.346430
v -0.364217 -0.124474 0.305178 0.749020 0.749020 0.749020
vn -1.990463 -0.531337 0.003018
v -0.364217 -0.124474 0.305178 0.749020 0.749020 0.749020
vn -0.010347 -0.023643 -2.735764
v -0.216836 0.079880 0.262528 0.749020 0.749020 0.749020
vn 0.613650 2.274039 1.387138
v -0.213326 0.092829 0.285668 0.749020 0.749020 0.749020
vn -0.613571 -2.273710 -1.384501
v -0.228714 0.035255 0.289153 0.749020 0.749020 0.749020
vn 0.205433 0.756473 1.359445
v -0.225205 0.048204 0.312295 0.749020 0.749020 0.749020
vn -0.195820 -0.735419 1.375363
v -0.225205 0.048204 0.312295 0.749020 0.749020 0.749020
vn -0.009686 -0.021191 -2.734862
v -0.367767 0.120475 0.262748 0.749020 0.749020 0.749020
vn -2.041574 0.545884 0.004142
v -0.367767 0.120475 0.262748 0.749020 0.749020 0.749020
vn 0.613576 2.273667 1.384434
v -0.364257 0.133425 0.285889 0.749020 0.749020 0.749020
vn -2.038049 0.544993 0.004182
v -0.364257 0.133425 0.285889 0.749020 0.749020 0.749020
vn -0.613670 -2.274091 -1.387105
v -0.379645 0.075850 0.289373 0.749020 0.749020 0.749020
vn -2.038104 0.544933 0.004066
v -0.379645 0.075850 0.289373 0.749020 0.749020 0.749020
vn -0.195500 -0.734289 1.373605
v -0.376136 0.088800 0.312513 0.749020 0.749020 0.749020
vn -2.041587 0.545910 0.004103
v -0.376136 0.088800 0.312513 0.749020 0.749020 0.749020
vn 0.205844 0.757908 1.362155
v -0.376136 0.088800 0.312513 0.749020 0.749020 0.749020
vn -0.603361 -2.250477 1.348444
v -0.228748 0.035007 0.304734 0.749020 0.749020 0.749020
vn 0.603878 2.252520 -1.350359
v -0.213292 0.093077 0.270087 0.749020 0.749020 0.749020
vn -1.990275 0.532192 0.004058
v -0.364223 0.133672 0.270307 0.749020 0.749020 0.749020
vn 0.603315 2.250383 -1.348682
v -0.364223 0.133672 0.270307 0.749020 0.749020 0.749020
vn -1.990264 0.532166 0.003991
v -0.379680 0.075603 0.304954 0.749020 0.749020 0.749020
vn -0.603862 -2.252445 1.350430
v -0.379680 0.075603 0.304954 0.749020 0.749020 0.749020
vn -0.020785 -0.019235 -2.735645
v -0.150196 0.178640 0.262283 0.749020 0.749020 0.749020
vn 1.669757 1.663379 1.386023
v -0.140685 0.188111 0.285419 0.749020 0.749020 0.749020
vn -1.669662 -1.663305 -1.380326
v -0.182712 0.145969 0.288932 0.749020 0.749020 0.749020
vn 0.556069 0.553456 1.357034
v -0.173200 0.155443 0.312066 0.749020 0.749020 0.749020
vn -0.538741 -0.537690 1.376218
v -0.173200 0.155443 0.312066 0.749020 0.749020 0.749020
vn -1.495391 1.491649 0.003999
v -0.260668 0.289483 0.262343 0.749020 0.749020 0.749020
vn -0.017311 -0.015791 -2.733171
v -0.260668 0.289483 0.262343 0.749020 0.749020 0.749020
vn -1.493806 1.490173 0.004151
v -0.251157 0.298954 0.285478 0.749020 0.749020 0.749020
vn 1.669723 1.663399 1.380551
v -0.251157 0.298954 0.285478 0.749020 0.749020 0.749020
vn -1.493731 1.490029 0.004073
v -0.293184 0.256814 0.288992 0.749020 0.749020 0.749020
vn -1.669768 -1.663399 -1.386004
v -0.293184 0.256814 0.288992 0.749020 0.749020 0.749020
vn -1.495330 1.491605 0.003960
v -0.283672 0.266287 0.312127 0.749020 0.749020 0.749020
vn -0.537542 -0.536478 1.372898
v -0.283672 0.266287 0.312127 0.749020 0.749020 0.749020
vn 0.558418 0.555817 1.362698
v -0.283672 0.266287 0.312127 0.749020 0.749020 0.749020
vn -1.648800 -1.643999 1.349633
v -0.182854 0.145784 0.304513 0.749020 0.749020 0.749020
vn 1.652461 1.647631 -1.352711
v -0.140543 0.188296 0.269837 0.749020 0.749020 0.749020
vn 1.648804 1.643987 -1.349464
v -0.251014 0.299141 0.269896 0.749020 0.749020 0.749020
vn -1.459171 1.455580 0.003999
v -0.251014 0.299141 0.269896 0.749020 0.749020 0.749020
vn -1.652415 -1.647587 1.352796
v -0.293326 0.256629 0.304573 0.749020 0.749020 0.749020
vn -1.459317 1.455703 0.003949
v -0.293326 0.256629 0.304573 0.749020 0.749020 0.749020
vn -0.026106 -0.009083 -2.735362
v -0.043249 0.230751 0.262026 0.749020 0.749020 0.749020
vn 2.276747 0.608812 1.383313
v -0.030273 0.234201 0.285163 0.749020 0.749020 0.749020
vn -2.278721 -0.609342 -1.379210
v -0.087676 0.218784 0.288670 0.749020 0.749020 0.749020
vn -0.735489 -0.195262 1.374450
v -0.074700 0.222235 0.311805 0.749020 0.749020 0.749020
vn 0.759113 0.203679 1.357342
v -0.074700 0.222235 0.311805 0.749020 0.749020 0.749020
vn -0.547444 2.038857 0.003015
v -0.083661 0.382142 0.261909 0.749020 0.749020 0.749020
vn -0.023700 -0.008443 -2.731735
v -0.083661 0.382142 0.261909 0.749020 0.749020 0.749020
vn -0.547053 2.037423 0.002895
v -0.070684 0.385593 0.285046 0.749020 0.749020 0.749020
vn 2.278692 0.609316 1.379241
v -0.070684 0.385593 0.285046 0.749020 0.749020 0.749020
vn -0.547156 2.037483 0.002767
v -0.128087 0.370174 0.288553 0.749020 0.749020 0.749020
vn -2.276935 -0.608858 -1.383278
v -0.128087 0.370174 0.288553 0.749020 0.749020 0.749020
vn -0.547468 2.038838 0.002791
v -0.115111 0.373627 0.311688 0.749020 0.749020 0.749020
vn -0.735256 -0.195197 1.373961
v -0.115111 0.373627 0.311688 0.749020 0.749020 0.749020
vn 0.761359 0.204281 1.361359
v -0.115111 0.373627 0.311688 0.749020 0.749020 0.749020
vn -2.250687 -0.599743 1.352181
v -0.087880 0.218707 0.304251 0.749020 0.749020 0.749020
vn 2.255127 0.600933 -1.352387
v -0.030068 0.234279 0.269581 0.749020 0.749020 0.749020
vn -0.534847 1.991925 0.002866
v -0.070480 0.385670 0.269463 0.749020 0.749020 0.749020
vn 2.250656 0.599720 -1.352215
v -0.070480 0.385670 0.269463 0.749020 0.749020 0.749020
vn -2.255037 -0.600894 1.352502
v -0.128292 0.370098 0.304133 0.749020 0.749020 0.749020
vn -0.534894 1.991915 0.002714
v -0.128292 0.370098 0.304133 0.749020 0.749020 0.749020
vn -1.204553 0.108526 -0.760078
v -0.023258 -0.252584 0.014262 0.749020 0.749020 0.749020
vn 0.010716 -0.071078 -1.706426
v -0.023258 -0.252584 0.014262 0.749020 0.749020 0.749020
vn 1.149259 -0.251035 -2.636702
v 0.020589 -0.252596 0.015630 0.749020 0.749020 0.749020
vn 2.544888 -0.229060 -1.070350
v 0.050394 -0.252628 0.043359 0.749020 0.749020 0.749020
vn 2.872147 0.026734 0.957063
v 0.048108 -0.252656 0.074289 0.749020 0.749020 0.749020
vn -0.419031 -0.267959 1.622588
v 0.020705 -0.252686 0.112443 0.749020 0.749020 0.749020
vn 1.082384 0.067251 0.777444
v 0.020705 -0.252686 0.112443 0.749020 0.749020 0.749020
vn -1.302770 -0.454952 2.715059
v -0.014354 -0.252668 0.102295 0.749020 0.749020 0.749020
vn -2.368661 -0.243271 1.445240
v -0.039947 -0.252645 0.083771 0.749020 0.749020 0.749020
vn -2.931003 0.101537 -0.649956
v -0.042769 -0.252609 0.045179 0.749020 0.749020 0.749020
vn -0.580617 -0.578560 2.717769
v -0.058379 -1.582643 0.083124 0.749020 0.749020 0.749020
vn -0.627547 -0.324285 -2.708939
v -0.058379 -1.582643 0.083124 0.749020 0.749020 0.749020
vn 0.210423 -0.471426 -2.820460
v 0.061740 -1.582650 0.060499 0.749020 0.749020 0.749020
vn 0.708396 -0.294158 2.740936
v 0.061740 -1.582650 0.060499 0.749020 0.749020 0.749020
vn -0.287848 -0.585482 -2.727044
v 0.022422 -1.621848 0.066454 0.749020 0.749020 0.749020
vn 1.022971 -0.609230 2.492818
v 0.022422 -1.621848 0.066454 0.749020 0.749020 0.749020
vn -0.584935 -0.598720 -2.171702
v -0.000148 -1.632258 0.073157 0.749020 0.749020 0.749020
vn 0.619503 -0.452164 2.193555
v -0.000148 -1.632258 0.073157 0.749020 0.749020 0.749020
vn -1.098645 -0.877555 -2.299722
v -0.023101 -1.621850 0.079645 0.749020 0.749020 0.749020
vn 0.306686 -0.486570 2.676510
v -0.023101 -1.621850 0.079645 0.749020 0.749020 0.749020
vn 0.199717 -0.226406 -6.017472
v -0.023875 -0.419940 0.021229 0.749020 0.749020 0.749020
vn -0.876622 0.011267 -3.052117
v -0.046817 -0.419941 0.027702 0.749020 0.749020 0.749020
vn -3.114357 0.262791 0.653374
v -0.046817 -0.419941 0.027702 0.749020 0.749020 0.749020
vn 3.351539 -0.461095 -5.149148
v 0.014331 -0.419961 0.035180 0.749020 0.749020 0.749020
vn 5.170316 -0.062245 -3.396814
v 0.043296 -0.419996 0.065041 0.749020 0.749020 0.749020
vn 3.139666 0.192720 -1.171540
v 0.051180 -0.420015 0.084489 0.749020 0.749020 0.749020
vn 0.395717 -0.125138 3.177439
v 0.051180 -0.420015 0.084489 0.749020 0.749020 0.749020
vn -0.359003 -0.376419 6.189414
v 0.030362 -0.420013 0.087304 0.749020 0.749020 0.749020
vn -2.835836 -0.414975 5.473066
v -0.009968 -0.419993 0.077010 0.749020 0.749020 0.749020
vn -5.126628 0.068402 3.197188
v -0.041057 -0.419964 0.050808 0.749020 0.749020 0.749020
vn -1.889478 -0.873079 -2.160433
v -0.072572 -1.549196 0.082408 0.749020 0.749020 0.749020
vn -1.286809 -0.368846 2.723241
v -0.072572 -1.549196 0.082408 0.749020 0.749020 0.749020
vn -2.753978 -1.527930 -5.076213
v -0.056113 -1.549186 0.067010 0.749020 0.749020 0.749020
vn -0.798442 -0.904975 -6.076453
v -0.003215 -1.549185 0.053795 0.749020 0.749020 0.749020
vn 0.530327 -0.684907 -6.179087
v 0.048908 -1.549196 0.053950 0.749020 0.749020 0.749020
vn 1.161920 -0.479225 2.788221
v 0.080053 -1.549208 0.059355 0.749020 0.749020 0.749020
vn 0.515270 -0.245876 -3.026169
v 0.080053 -1.549208 0.059355 0.749020 0.749020 0.749020
vn 2.226352 -0.937917 5.752183
v 0.051793 -1.549213 0.072419 0.749020 0.749020 0.749020
vn 1.174377 -0.633787 6.041925
v 0.002204 -1.549219 0.088492 0.749020 0.749020 0.749020
vn -1.050890 -0.666794 5.928104
v -0.052281 -1.549210 0.091544 0.749020 0.749020 0.749020
vn -1.296113 -0.157369 -5.897094
v -0.102113 -1.005923 0.033918 0.749020 0.749020 0.749020
vn 0.989584 -0.049038 -6.172559
v 0.002561 -1.005953 0.040397 0.749020 0.749020 0.749020
vn 1.708709 0.181036 -6.040599
v 0.091657 -1.005992 0.063397 0.749020 0.749020 0.749020
vn 0.098247 -0.103720 2.968901
v 0.167848 -1.006030 0.086290 0.749020 0.749020 0.749020
vn 0.855198 0.122202 -2.846012
v 0.167848 -1.006030 0.086290 0.749020 0.749020 0.749020
vn 0.098797 -0.153544 6.278402
v 0.088327 -1.006016 0.088922 0.749020 0.749020 0.749020
vn -0.636296 0.066971 6.218543
v -0.003695 -1.005994 0.088352 0.749020 0.749020 0.749020
vn -2.758982 0.298867 5.360165
v -0.106536 -1.005953 0.067827 0.749020 0.749020 0.749020
vn -3.473263 0.116489 -0.451298
v -0.128636 -1.005929 0.047709 0.749020 0.749020 0.749020
vn -0.930484 0.021104 -5.931275
v -0.078613 -0.712927 0.025446 0.749020 0.749020 0.749020
vn 1.716994 -0.046107 -5.998578
v 0.005549 -0.712957 0.038374 0.749020 0.749020 0.749020
vn 2.516314 0.254614 -5.740240
v 0.078852 -0.712999 0.067607 0.749020 0.749020 0.749020
vn 1.228672 0.179850 -2.687817
v 0.135551 -0.713036 0.094463 0.749020 0.749020 0.749020
vn -0.069682 0.006475 2.968001
v 0.135551 -0.713036 0.094463 0.749020 0.749020 0.749020
vn -0.336019 0.038499 6.269316
v 0.072827 -0.713021 0.092636 0.749020 0.749020 0.749020
vn -1.339592 0.143760 6.086489
v -0.005770 -0.712998 0.085393 0.749020 0.749020 0.749020
vn -3.440788 0.522632 4.832041
v -0.086617 -0.712954 0.058695 0.749020 0.749020 0.749020
vn -2.397227 0.368191 1.883116
v -0.103395 -0.712931 0.037080 0.749020 0.749020 0.749020
vn -1.298486 0.086535 -2.756207
v -0.103395 -0.712931 0.037080 0.749020 0.749020 0.749020
vn -3.723427 -0.329403 -0.215783
v -0.126555 -1.298935 0.060387 0.749020 0.749020 0.749020
vn -1.938904 -0.480166 -5.565276
v -0.104389 -1.298926 0.044329 0.749020 0.749020 0.749020
vn 0.408027 -0.104793 -6.229634
v 0.000380 -1.298947 0.042244 0.749020 0.749020 0.749020
vn 1.295485 0.116548 -6.145537
v 0.083038 -1.298979 0.057515 0.749020 0.749020 0.749020
vn 0.723000 0.092278 -2.953063
v 0.150247 -1.299009 0.073612 0.749020 0.749020 0.749020
vn 0.395812 -0.195583 3.022126
v 0.150247 -1.299009 0.073612 0.749020 0.749020 0.749020
vn 0.737595 -0.258589 6.224034
v 0.081807 -1.299004 0.083227 0.749020 0.749020 0.749020
vn 0.013873 0.055718 6.248892
v -0.001934 -1.298992 0.090548 0.749020 0.749020 0.749020
vn -2.543079 0.069483 5.420498
v -0.106024 -1.298958 0.078485 0.749020 0.749020 0.749020
vn -1.878494 -0.213627 2.445950
v -0.100236 -1.445453 0.074945 0.749020 0.749020 0.749020
vn -2.078752 -0.607045 -2.165033
v -0.100236 -1.445453 0.074945 0.749020 0.749020 0.749020
vn -2.551795 -0.893787 -5.262366
v -0.081529 -1.445439 0.056661 0.749020 0.749020 0.749020
vn -0.249920 -0.319460 -6.198760
v -0.002287 -1.445446 0.044671 0.749020 0.749020 0.749020
vn 0.844803 -0.127472 -6.216395
v 0.068377 -1.445469 0.051640 0.749020 0.749020 0.749020
vn 0.478302 -0.010784 -2.834714
v 0.127744 -1.445490 0.060869 0.749020 0.749020 0.749020
vn 0.717678 -0.285267 2.746916
v 0.127744 -1.445490 0.060869 0.749020 0.749020 0.749020
vn 1.523113 -0.446716 6.063306
v 0.069967 -1.445492 0.077331 0.749020 0.749020 0.749020
vn 0.684837 -0.072776 6.177861
v 0.000701 -1.445491 0.092940 0.749020 0.749020 0.749020
vn -2.009024 -0.184376 5.593861
v -0.079417 -1.445473 0.090791 0.749020 0.749020 0.749020
vn -2.901913 0.000623 0.003645
v -0.071604 -0.147595 0.062835 0.749020 0.749020 0.749020
vn -2.053566 -0.002142 -2.049524
v -0.050230 -0.147551 0.011035 0.749020 0.749020 0.749020
vn -0.005222 -0.003653 -2.901471
v 0.001558 -0.147544 -0.010499 0.749020 0.749020 0.749020
vn 2.046191 -0.003025 -2.056906
v 0.053424 -0.147574 0.010849 0.749020 0.749020 0.749020
vn 2.901895 -0.000626 -0.006771
v 0.074984 -0.147627 0.062572 0.749020 0.749020 0.749020
vn 2.056719 0.002141 2.049592
v 0.053610 -0.147672 0.114372 0.749020 0.749020 0.749020
vn 0.603403 0.001699 1.451150
v 0.001822 -0.147679 0.135906 0.749020 0.749020 0.749020
vn -0.598160 0.001959 1.453330
v 0.001822 -0.147679 0.135906 0.749020 0.749020 0.749020
vn -2.049309 0.003026 2.056956
v -0.050044 -0.147649 0.114559 0.749020 0.749020 0.749020
vn -2.901897 0.000634 0.006741
v -0.071629 -0.264305 0.062981 0.749020 0.749020 0.749020
vn -0.000443 -2.355321 -0.002229
v -0.071629 -0.264305 0.062981 0.749020 0.749020 0.749020
vn -0.000513 -2.356206 -0.002197
v -0.050255 -0.264260 0.011182 0.749020 0.749020 0.749020
vn -2.056716 -0.002137 -2.049599
v -0.050255 -0.264260 0.011182 0.749020 0.749020 0.749020
vn -0.005219 -0.003657 -2.904469
v 0.001533 -0.264253 -0.010352 0.749020 0.749020 0.749020
vn -0.000527 -2.357064 -0.002032
v 0.001533 -0.264253 -0.010352 0.749020 0.749020 0.749020
vn 2.049323 -0.003030 -2.056969
v 0.053399 -0.264283 0.010996 0.749020 0.749020 0.749020
vn -0.000531 -2.356203 -0.002197
v 0.053399 -0.264283 0.010996 0.749020 0.749020 0.749020
vn -0.000553 -2.355314 -0.002229
v 0.074959 -0.264337 0.062718 0.749020 0.749020 0.749020
vn 2.901911 -0.000630 -0.003675
v 0.074959 -0.264337 0.062718 0.749020 0.749020 0.749020
vn -0.000531 -2.356192 -0.002197
v 0.053585 -0.264381 0.114519 0.749020 0.749020 0.749020
vn 2.053569 0.002138 2.049517
v 0.053585 -0.264381 0.114519 0.749020 0.749020 0.749020
vn 0.602784 0.001697 1.449661
v 0.001797 -0.264388 0.136053 0.749020 0.749020 0.749020
vn -0.000527 -2.357081 -0.002032
v 0.001797 -0.264388 0.136053 0.749020 0.749020 0.749020
vn -0.597539 0.001957 1.451820
v 0.001797 -0.264388 0.136053 0.749020 0.749020 0.749020
vn -0.000513 -2.356166 -0.002197
v -0.050069 -0.264358 0.114706 0.749020 0.749020 0.749020
vn -2.046176 0.003029 2.056892
v -0.050069 -0.264358 0.114706 0.749020 0.749020 0.749020
vn 0.506686 -1.098009 -0.766573
v 0.233593 0.113534 0.013341 0.749020 0.749020 0.749020
vn 0.049981 0.044035 -1.705102
v 0.233593 0.113534 0.013341 0.749020 0.749020 0.749020
vn -0.367648 1.120160 -2.638150
v 0.211681 0.151618 0.014781 0.749020 0.749020 0.749020
vn -1.081213 2.319174 -1.063488
v 0.196859 0.177440 0.042557 0.749020 0.749020 0.749020
vn -1.457997 2.470571 0.969757
v 0.198085 0.175378 0.073483 0.749020 0.749020 0.749020
vn 0.448986 -0.227597 1.623199
v 0.211884 0.151478 0.111593 0.749020 0.749020 0.749020
vn -0.594763 0.898395 0.778767
v 0.211884 0.151478 0.111593 0.749020 0.749020 0.749020
vn 1.057066 -0.897078 2.710191
v 0.229379 0.121050 0.101388 0.749020 0.749020 0.749020
vn 1.401571 -1.923682 1.437994
v 0.242121 0.098863 0.082823 0.749020 0.749020 0.749020
vn 1.377335 -2.585655 -0.657949
v 0.243427 0.096509 0.044227 0.749020 0.749020 0.749020
vn 0.802948 -0.211653 2.714664
v 1.399776 0.747858 0.077581 0.749020 0.749020 0.749020
vn 0.585123 -0.380560 -2.711231
v 1.399776 0.747858 0.077581 0.749020 0.749020 0.749020
vn -0.088149 0.759531 2.740330
v 1.339678 0.852258 0.055148 0.749020 0.749020 0.749020
vn 0.293194 0.416814 -2.820434
v 1.339678 0.852258 0.055148 0.749020 0.749020 0.749020
vn 0.641398 0.044065 -2.728521
v 1.393196 0.837691 0.060907 0.749020 0.749020 0.749020
vn 0.027072 1.187287 2.493482
v 1.393196 0.837691 0.060907 0.749020 0.749020 0.749020
vn 0.091164 0.762591 2.196926
v 1.413483 0.823272 0.067537 0.749020 0.749020 0.749020
vn 0.805021 -0.206358 -2.177818
v 1.413483 0.823272 0.067537 0.749020 0.749020 0.749020
vn 1.304028 -0.511125 -2.305434
v 1.415985 0.798114 0.074025 0.749020 0.749020 0.749020
vn 0.279328 0.508879 2.677492
v 1.415985 0.798114 0.074025 0.749020 0.749020 0.749020
vn 0.073465 0.284794 -6.019051
v 0.378422 0.196656 0.019733 0.749020 0.749020 0.749020
vn 0.417063 -0.763401 -3.054203
v 0.389907 0.176710 0.026170 0.749020 0.749020 0.749020
vn 1.334596 -2.828363 0.643987
v 0.389907 0.176710 0.026170 0.749020 0.749020 0.749020
vn -1.297541 3.128994 -5.146146
v 0.359365 0.229810 0.033746 0.749020 0.749020 0.749020
vn -2.550030 4.505103 -3.386868
v 0.344969 0.254896 0.063653 0.749020 0.749020 0.749020
vn -1.745544 2.620672 -1.163320
v 0.341080 0.261697 0.083113 0.749020 0.749020 0.749020
vn -0.077647 0.404643 3.177916
v 0.341080 0.261697 0.083113 0.749020 0.749020 0.749020
vn 0.530128 -0.119996 6.187803
v 0.351493 0.243605 0.085894 0.749020 0.749020 0.749020
vn 1.801134 -2.241976 5.468025
v 0.371622 0.208597 0.075536 0.749020 0.749020 0.749020
vn 2.521834 -4.470433 3.185667
v 0.387090 0.181655 0.049285 0.749020 0.749020 0.749020
vn 0.974616 -0.926649 2.719956
v 1.377988 0.718811 0.076956 0.749020 0.749020 0.749020
vn 1.694132 -1.196258 -2.167325
v 1.377988 0.718811 0.076956 0.749020 0.749020 0.749020
vn 2.685202 -1.615212 -5.086101
v 1.369721 0.733147 0.061585 0.749020 0.749020 0.749020
vn 1.162749 -0.238826 -6.080419
v 1.343246 0.779129 0.048455 0.749020 0.749020 0.749020
vn 0.306604 0.798779 -6.180540
v 1.317196 0.824407 0.048695 0.749020 0.749020 0.749020
vn -0.153721 1.242397 2.789925
v 1.301643 0.851448 0.054149 0.749020 0.749020 0.749020
vn -0.055514 0.567045 -3.025850
v 1.301643 0.851448 0.054149 0.749020 0.749020 0.749020
vn -0.276449 2.391729 5.755784
v 1.315804 0.826867 0.067168 0.749020 0.749020 0.749020
vn -0.014143 1.332189 6.042769
v 1.340632 0.783751 0.083161 0.749020 0.749020 0.749020
vn 1.127062 -0.572910 5.924389
v 1.367873 0.736413 0.086125 0.749020 0.749020 0.749020
vn 0.762459 -1.042151 -5.901479
v 0.923556 0.421658 0.030285 0.749020 0.749020 0.749020
vn -0.475832 0.877396 -6.171432
v 0.871257 0.512568 0.036933 0.749020 0.749020 0.749020
vn -1.035043 1.383773 -6.037801
v 0.826788 0.589905 0.060074 0.749020 0.749020 0.749020
vn -0.544643 0.676713 -2.843860
v 0.788769 0.656034 0.083091 0.749020 0.749020 0.749020
vn 0.052210 0.137663 2.968019
v 0.788769 0.656034 0.083091 0.749020 0.749020 0.749020
vn 0.107622 0.164133 6.277997
v 0.828521 0.586950 0.085596 0.749020 0.749020 0.749020
vn 0.283679 -0.581237 6.217946
v 0.874513 0.507015 0.084878 0.749020 0.749020 0.749020
vn 1.142356 -2.534778 5.357169
v 0.925858 0.417730 0.064187 0.749020 0.749020 0.749020
vn 1.635154 -3.061000 -0.457680
v 0.936850 0.398584 0.044034 0.749020 0.749020 0.749020
vn 0.424505 -0.815496 -5.934558
v 0.658791 0.295593 0.022855 0.749020 0.749020 0.749020
vn -0.842057 1.505116 -5.996588
v 0.616760 0.368671 0.035918 0.749020 0.749020 0.749020
vn -1.502365 2.045395 -5.736357
v 0.580202 0.432273 0.065269 0.749020 0.749020 0.749020
vn -0.781101 0.970728 -2.685370
v 0.551936 0.481461 0.092216 0.749020 0.749020 0.749020
vn 0.040497 -0.062271 2.967445
v 0.551936 0.481461 0.092216 0.749020 0.749020 0.749020
vn 0.158119 -0.307287 6.268922
v 0.583281 0.426978 0.090289 0.749020 0.749020 0.749020
vn 0.568615 -1.227790 6.085308
v 0.622545 0.358721 0.082919 0.749020 0.749020 0.749020
vn 1.287275 -3.238083 4.827673
v 0.662881 0.288559 0.056092 0.749020 0.749020 0.749020
vn 0.888263 -2.259160 1.879735
v 0.671208 0.274036 0.034449 0.749020 0.749020 0.749020
vn 0.563214 -1.164813 -2.759162
v 0.671208 0.274036 0.034449 0.749020 0.749020 0.749020
vn 2.147731 -3.053300 -0.224321
v 1.188841 0.546857 0.055710 0.749020 0.749020 0.749020
vn 1.365987 -1.435962 -5.572059
v 1.177720 0.566153 0.039686 0.749020 0.749020 0.749020
vn -0.136374 0.402523 -6.229447
v 1.125350 0.657166 0.037769 0.749020 0.749020 0.749020
vn -0.772558 1.058789 -6.143422
v 1.084078 0.728932 0.053173 0.749020 0.749020 0.749020
vn -0.453065 0.577432 -2.951424
v 1.050529 0.787275 0.069379 0.749020 0.749020 0.749020
vn -0.016273 0.440319 3.021878
v 1.050529 0.787275 0.069379 0.749020 0.749020 0.749020
vn -0.120698 0.767989 6.224595
v 1.084763 0.727798 0.078883 0.749020 0.749020 0.749020
vn -0.031987 -0.013819 6.249228
v 1.126637 0.655036 0.086070 0.749020 0.749020 0.749020
vn 1.234020 -2.232652 5.417224
v 1.178629 0.564647 0.073838 0.749020 0.749020 0.749020
vn 1.135584 -1.516594 2.442518
v 1.302226 0.642932 0.069804 0.749020 0.749020 0.749020
vn 1.558217 -1.492382 -2.172541
v 1.302226 0.642932 0.069804 0.749020 0.749020 0.749020
vn 2.032513 -1.758162 -5.271695
v 1.292827 0.659226 0.051551 0.749020 0.749020 0.749020
vn 0.379343 -0.058190 -6.200285
v 1.253188 0.728092 0.039689 0.749020 0.749020 0.749020
vn -0.335504 0.791561 -6.215631
v 1.217888 0.789459 0.046770 0.749020 0.749020 0.749020
vn -0.240554 0.417575 -2.832580
v 1.188242 0.841005 0.056095 0.749020 0.749020 0.749020
vn -0.100227 0.762288 2.746315
v 1.188242 0.841005 0.056095 0.749020 0.749020 0.749020
vn -0.350318 1.539825 6.065486
v 1.217163 0.790776 0.072464 0.749020 0.749020 0.749020
vn -0.256083 0.629645 6.179176
v 1.251826 0.730569 0.087961 0.749020 0.749020 0.749020
vn 1.187434 -1.643152 5.590375
v 1.291862 0.660977 0.085685 0.749020 0.749020 0.749020
vn 1.452205 -2.509284 -0.003417
v 0.167200 0.018904 0.062196 0.749020 0.749020 0.749020
vn 1.022777 -1.776204 -2.055221
v 0.156377 0.037601 0.010431 0.749020 0.749020 0.749020
vn -0.004714 -0.004523 -2.904662
v 0.130435 0.082640 -0.011019 0.749020 0.749020 0.749020
vn -1.031537 1.773423 -2.054516
v 0.104570 0.127642 0.010411 0.749020 0.749020 0.749020
vn -1.453989 2.512353 0.004937
v 0.093933 0.146241 0.062169 0.749020 0.749020 0.749020
vn -1.022004 1.774887 2.058745
v 0.104756 0.127545 0.113935 0.749020 0.749020 0.749020
vn 0.303417 -0.517900 1.453684
v 0.130698 0.082504 0.135386 0.749020 0.749020 0.749020
vn -0.296886 0.519308 1.449440
v 0.130698 0.082504 0.135386 0.749020 0.749020 0.749020
vn 1.030767 -1.772079 2.050893
v 0.156563 0.037503 0.113955 0.749020 0.749020 0.749020
vn 2.040130 1.173819 -0.002577
v 0.267990 0.077235 0.061943 0.749020 0.749020 0.749020
vn 1.454004 -2.512346 -0.004911
v 0.267990 0.077235 0.061943 0.749020 0.749020 0.749020
vn 1.021998 -1.774866 -2.058776
v 0.257167 0.095932 0.010177 0.749020 0.749020 0.749020
vn 2.043452 1.175730 -0.002571
v 0.257167 0.095932 0.010177 0.749020 0.749020 0.749020
vn -0.006542 -0.001389 -2.903109
v 0.231225 0.140974 -0.011274 0.749020 0.749020 0.749020
vn 2.044378 1.176263 -0.002521
v 0.231225 0.140974 -0.011274 0.749020 0.749020 0.749020
vn -1.030785 1.772101 -2.050895
v 0.205360 0.185974 0.010157 0.749020 0.749020 0.749020
vn 2.041110 1.174384 -0.002557
v 0.205360 0.185974 0.010157 0.749020 0.749020 0.749020
vn -1.452208 2.509254 0.003391
v 0.194724 0.204573 0.061915 0.749020 0.749020 0.749020
vn 2.040193 1.173810 -0.002555
v 0.194724 0.204573 0.061915 0.749020 0.749020 0.749020
vn 2.043440 1.175737 -0.002570
v 0.205546 0.185876 0.113681 0.749020 0.749020 0.749020
vn -1.022793 1.776223 2.055202
v 0.205546 0.185876 0.113681 0.749020 0.749020 0.749020
vn 0.302671 -0.516627 1.450109
v 0.231488 0.140837 0.135131 0.749020 0.749020 0.749020
vn 2.044371 1.176284 -0.002628
v 0.231488 0.140837 0.135131 0.749020 0.749020 0.749020
vn -0.297932 0.521132 1.454551
v 0.231488 0.140837 0.135131 0.749020 0.749020 0.749020
vn 2.041137 1.174411 -0.002578
v 0.257353 0.095836 0.113700 0.749020 0.749020 0.749020
vn 1.031567 -1.773400 2.054547
v 0.257353 0.095836 0.113700 0.749020 0.749020 0.749020
vn 0.697307 0.986066 -0.764856
v -0.210974 0.153567 0.014091 0.749020 0.749020 0.749020
vn -0.069927 0.020551 -1.709505
v -0.210974 0.153567 0.014091 0.749020 0.749020 0.749020
vn -0.798859 -0.878383 -2.634193
v -0.232902 0.115487 0.015625 0.749020 0.749020 0.749020
vn -1.474681 -2.089727 -1.061595
v -0.247734 0.089622 0.043467 0.749020 0.749020 0.749020
vn -1.413493 -2.494391 0.965084
v -0.246508 0.091626 0.074387 0.749020 0.749020 0.749020
vn -0.020704 0.499948 1.618719
v -0.232699 0.115449 0.112439 0.749020 0.749020 0.749020
vn -0.482136 -0.966805 0.780248
v -0.232699 0.115449 0.112439 0.749020 0.749020 0.749020
vn 0.259820 1.359895 2.712431
v -0.215190 0.145890 0.102157 0.749020 0.749020 0.749020
vn 0.975557 2.173283 1.444284
v -0.202439 0.168104 0.083536 0.749020 0.749020 0.749020
vn 1.556936 2.485180 -0.656047
v -0.201131 0.170531 0.044935 0.749020 0.749020 0.749020
vn -0.206916 0.799769 2.714667
v -1.341674 0.849112 0.082382 0.749020 0.749020 0.749020
vn 0.027782 0.694608 -2.710761
v -1.341674 0.849112 0.082382 0.749020 0.749020 0.749020
vn -0.519474 0.043963 -2.819913
v -1.401816 0.744781 0.060212 0.749020 0.749020 0.749020
vn -0.605836 -0.455524 2.743804
v -1.401816 0.744781 0.060212 0.749020 0.749020 0.749020
vn -0.369544 0.532095 -2.729157
v -1.415985 0.798531 0.066007 0.749020 0.749020 0.749020
vn -1.036918 -0.570266 2.497273
v -1.415985 0.798531 0.066007 0.749020 0.749020 0.749020
vn -0.699449 -0.301430 2.198390
v -1.413666 0.823341 0.072620 0.749020 0.749020 0.749020
vn -0.231635 0.799018 -2.176770
v -1.413666 0.823341 0.072620 0.749020 0.749020 0.749020
vn -0.571052 -0.011751 2.677755
v -1.393180 0.838075 0.079026 0.749020 0.749020 0.749020
vn -0.216976 1.382682 -2.303983
v -1.393180 0.838075 0.079026 0.749020 0.749020 0.749020
vn -0.305680 -0.079518 -6.017871
v -0.355152 0.237781 0.021001 0.749020 0.749020 0.749020
vn 0.443583 0.741223 -3.056028
v -0.343659 0.257709 0.027386 0.749020 0.749020 0.749020
vn 1.789888 2.563890 0.647436
v -0.343659 0.257709 0.027386 0.749020 0.749020 0.749020
vn -2.084698 -2.681477 -5.141208
v -0.374224 0.204609 0.035098 0.749020 0.749020 0.749020
vn -2.646413 -4.448514 -3.389240
v -0.388630 0.179475 0.065066 0.749020 0.749020 0.749020
vn -0.301647 -0.268187 3.179817
v -0.392522 0.172638 0.084543 0.749020 0.749020 0.749020
vn -1.406872 -2.815747 -1.168201
v -0.392522 0.172638 0.084543 0.749020 0.749020 0.749020
vn -0.137687 0.519147 6.188410
v -0.382101 0.190721 0.087280 0.749020 0.749020 0.749020
vn 1.066128 2.674385 5.467070
v -0.361957 0.225739 0.076833 0.749020 0.749020 0.749020
vn 2.630409 4.407197 3.188615
v -0.346477 0.252721 0.050514 0.749020 0.749020 0.749020
vn 0.183664 2.065601 -2.167078
v -1.305699 0.844715 0.081624 0.749020 0.749020 0.749020
vn 0.327214 1.304317 2.719587
v -1.305699 0.844715 0.081624 0.749020 0.749020 0.749020
vn 0.041492 3.132024 -5.085344
v -1.313973 0.830412 0.066289 0.749020 0.749020 0.749020
vn -0.396684 1.122583 -6.079635
v -1.340467 0.784465 0.053274 0.749020 0.749020 0.749020
vn -0.870031 -0.136365 -6.177127
v -1.366537 0.739199 0.053626 0.749020 0.749020 0.749020
vn -0.475678 -0.332398 -3.024256
v -1.382102 0.712153 0.059148 0.749020 0.749020 0.749020
vn -0.992766 -0.754417 2.792565
v -1.382102 0.712153 0.059148 0.749020 0.749020 0.749020
vn -1.918919 -1.434009 5.760533
v -1.367931 0.736705 0.072107 0.749020 0.749020 0.749020
vn -1.128040 -0.676814 6.046205
v -1.343084 0.779781 0.087991 0.749020 0.749020 0.749020
vn -0.044328 1.260260 5.925727
v -1.315824 0.827101 0.090837 0.749020 0.749020 0.749020
vn 0.502971 1.179580 -5.902608
v -0.821984 0.598729 0.033201 0.749020 0.749020 0.749020
vn -0.547272 -0.850975 -6.169351
v -0.874322 0.507829 0.040076 0.749020 0.749020 0.749020
vn -0.706683 -1.586076 -6.035437
v -0.918823 0.430469 0.063415 0.749020 0.749020 0.749020
vn -0.325679 -0.808747 -2.842762
v -0.956872 0.364313 0.086595 0.749020 0.749020 0.749020
vn -0.134325 -0.022772 2.968436
v -0.956872 0.364313 0.086595 0.749020 0.749020 0.749020
vn -0.172695 0.012948 6.278670
v -0.917090 0.433376 0.088925 0.749020 0.749020 0.749020
vn 0.386223 0.537206 6.216341
v -0.871063 0.513293 0.088008 0.749020 0.749020 0.749020
vn 1.648014 2.251457 5.353615
v -0.819679 0.602591 0.067094 0.749020 0.749020 0.749020
vn 1.837616 2.940997 -0.461447
v -0.808680 0.621771 0.046893 0.749020 0.749020 0.749020
vn 0.475086 0.773844 -5.935446
v -0.580761 0.431818 0.024912 0.749020 0.749020 0.749020
vn -0.908356 -1.479865 -5.993460
v -0.622823 0.358734 0.038161 0.749020 0.749020 0.749020
vn -1.045858 -2.318955 -5.733774
v -0.659408 0.295093 0.067670 0.749020 0.749020 0.749020
vn 0.045246 0.067026 2.966719
v -0.687696 0.245870 0.094741 0.749020 0.749020 0.749020
vn -0.461850 -1.159129 -2.683943
v -0.687696 0.245870 0.094741 0.749020 0.749020 0.749020
vn 0.211337 0.292311 6.268073
v -0.656327 0.300342 0.092676 0.749020 0.749020 0.749020
vn 0.804616 1.105654 6.082176
v -0.617033 0.368596 0.085135 0.749020 0.749020 0.749020
vn 2.182846 2.726800 4.823995
v -0.576667 0.438790 0.058132 0.749020 0.749020 0.749020
vn 0.720541 1.069493 -2.761326
v -0.568333 0.453349 0.036453 0.749020 0.749020 0.749020
vn 1.521422 1.893031 1.878158
v -0.568333 0.453349 0.036453 0.749020 0.749020 0.749020
vn 1.575724 3.381493 -0.226805
v -1.062685 0.766470 0.059482 0.749020 0.749020 0.749020
vn 0.544658 1.899334 -5.572877
v -1.073817 0.747210 0.043508 0.749020 0.749020 0.749020
vn -0.304553 -0.321001 -6.228371
v -1.126225 0.656220 0.041820 0.749020 0.749020 0.749020
vn -0.556154 -1.197593 -6.141339
v -1.167528 0.584446 0.057403 0.749020 0.749020 0.749020
vn -0.286084 -0.680253 -2.950403
v -1.201102 0.526088 0.073755 0.749020 0.749020 0.749020
vn -0.362614 -0.233509 3.023192
v -1.201102 0.526088 0.073755 0.749020 0.749020 0.749020
vn -0.583493 -0.486336 6.226735
v -1.166843 0.585531 0.083109 0.749020 0.749020 0.749020
vn 0.051081 -0.018697 6.249012
v -1.124938 0.658262 0.090114 0.749020 0.749020 0.749020
vn 1.341193 2.180045 5.415051
v -1.072906 0.748652 0.077656 0.749020 0.749020 0.749020
vn 0.509997 2.096366 -2.172591
v -1.202311 0.816872 0.074091 0.749020 0.749020 0.749020
vn 0.757272 1.736877 2.442194
v -1.202311 0.816872 0.074091 0.749020 0.749020 0.749020
vn 0.492096 2.638428 -5.271685
v -1.211717 0.800614 0.055876 0.749020 0.749020 0.749020
vn -0.162160 0.354847 -6.199955
v -1.251385 0.731788 0.044188 0.749020 0.749020 0.749020
vn -0.543193 -0.687107 -6.213408
v -1.286711 0.670424 0.051424 0.749020 0.749020 0.749020
vn -0.602000 -0.467550 2.749212
v -1.316380 0.618873 0.060877 0.749020 0.749020 0.749020
vn -0.252712 -0.417501 -2.832567
v -1.316380 0.618873 0.060877 0.749020 0.749020 0.749020
vn -1.140088 -1.071187 6.069188
v -1.287437 0.669058 0.077121 0.749020 0.749020 0.749020
vn -0.396116 -0.534201 6.180593
v -1.252749 0.729224 0.092466 0.749020 0.749020 0.749020
vn 0.853445 1.845778 5.590026
v -1.212682 0.798802 0.090016 0.749020 0.749020 0.749020
vn 1.455135 2.511747 -0.000354
v -0.095973 0.143071 0.062514 0.749020 0.749020 0.749020
vn 1.024902 1.772957 -2.058192
v -0.106803 0.124476 0.010796 0.749020 0.749020 0.749020
vn -0.005722 -0.004500 -2.904674
v -0.132765 0.079487 -0.010541 0.749020 0.749020 0.749020
vn -1.030937 -1.775776 -2.051528
v -0.158650 0.034458 0.011003 0.749020 0.749020 0.749020
vn -1.453303 -2.508626 0.001823
v -0.169294 0.015766 0.062805 0.749020 0.749020 0.749020
vn -1.024175 -1.771627 2.054574
v -0.158463 0.034361 0.114527 0.749020 0.749020 0.749020
vn -0.298407 -0.517764 1.454780
v -0.132502 0.079350 0.135864 0.749020 0.749020 0.749020
vn 0.302326 0.519171 1.448368
v -0.132502 0.079350 0.135864 0.749020 0.749020 0.749020
vn 1.030183 1.774419 2.055027
v -0.106617 0.124380 0.114320 0.749020 0.749020 0.749020
vn 1.453327 2.508636 -0.001881
v -0.196737 0.201447 0.062623 0.749020 0.749020 0.749020
vn -2.039613 1.174788 0.004754
v -0.196737 0.201447 0.062623 0.749020 0.749020 0.749020
vn -2.040591 1.175310 0.004769
v -0.207568 0.182852 0.010905 0.749020 0.749020 0.749020
vn 1.024150 1.771651 -2.054632
v -0.207568 0.182852 0.010905 0.749020 0.749020 0.749020
vn -0.003943 -0.001427 -2.903118
v -0.233531 0.137862 -0.010433 0.749020 0.749020 0.749020
vn -2.043848 1.177178 0.004836
v -0.233531 0.137862 -0.010433 0.749020 0.749020 0.749020
vn -1.030160 -1.774429 -2.055082
v -0.259415 0.092833 0.011111 0.749020 0.749020 0.749020
vn -2.042936 1.176649 0.004768
v -0.259415 0.092833 0.011111 0.749020 0.749020 0.749020
vn -2.039616 1.174696 0.004743
v -0.270060 0.074141 0.062914 0.749020 0.749020 0.749020
vn -1.455072 -2.511722 0.000326
v -0.270060 0.074141 0.062914 0.749020 0.749020 0.749020
vn -2.040609 1.175316 0.004738
v -0.259229 0.092738 0.114634 0.749020 0.749020 0.749020
vn -1.024925 -1.772966 2.058213
v -0.259229 0.092738 0.114634 0.749020 0.749020 0.749020
vn -0.297677 -0.516491 1.451187
v -0.233267 0.137728 0.135972 0.749020 0.749020 0.749020
vn -2.043838 1.177185 0.004712
v -0.233267 0.137728 0.135972 0.749020 0.749020 0.749020
vn 0.303401 0.521006 1.453462
v -0.233267 0.137728 0.135972 0.749020 0.749020 0.749020
vn -2.042907 1.176650 0.004750
v -0.207382 0.182756 0.114428 0.749020 0.749020 0.749020
vn 1.030958 1.775766 2.051481
v -0.207382 0.182756 0.114428 0.749020 0.749020 0.749020
vn -3.035151 -0.000449 0.005475
v -0.242874 0.004590 0.337455 0.749020 0.749020 0.749020
vn -2.630525 1.514569 0.006126
v -0.210259 0.126562 0.337244 0.749020 0.749020 0.749020
vn -1.520383 2.626915 0.005185
v -0.121208 0.215837 0.336973 0.749020 0.749020 0.749020
vn 0.000681 3.035056 0.002784
v 0.000420 0.248494 0.336712 0.749020 0.749020 0.749020
vn 1.521516 2.626280 -0.000292
v 0.122034 0.215784 0.336535 0.749020 0.749020 0.749020
vn 2.631176 1.513410 -0.003325
v 0.211047 0.126471 0.336487 0.749020 0.749020 0.749020
vn 3.035161 -0.001772 -0.005475
v 0.243609 0.004484 0.336580 0.749020 0.749020 0.749020
vn 2.628613 -1.515627 -0.006132
v 0.210995 -0.117484 0.336794 0.749020 0.749020 0.749020
vn 1.518505 -2.625874 -0.005167
v 0.121943 -0.206759 0.337064 0.749020 0.749020 0.749020
vn -0.407850 -1.516315 -0.000688
v 0.000315 -0.239417 0.337325 0.749020 0.749020 0.749020
vn 0.407181 -1.516508 -0.002152
v 0.000315 -0.239417 0.337325 0.749020 0.749020 0.749020
vn -1.519660 -2.625206 0.000285
v -0.121299 -0.206706 0.337501 0.749020 0.749020 0.749020
vn -2.629283 -1.514498 0.003334
v -0.210312 -0.117392 0.337551 0.749020 0.749020 0.749020
vn -5.950647 0.000778 -0.478000
v -0.243404 0.004865 0.042852 0.749020 0.749020 0.749020
vn -5.155739 2.969801 -0.477125
v -0.210789 0.126835 0.042640 0.749020 0.749020 0.749020
vn -2.979293 5.148124 -0.479693
v -0.121738 0.216111 0.042369 0.749020 0.749020 0.749020
vn 0.000432 5.946899 -0.484616
v -0.000110 0.248767 0.042109 0.749020 0.749020 0.749020
vn 2.979760 5.146848 -0.490411
v 0.121504 0.216058 0.041931 0.749020 0.749020 0.749020
vn 5.155280 2.967535 -0.495661
v 0.210518 0.126743 0.041883 0.749020 0.749020 0.749020
vn 5.948905 -0.001826 -0.499389
v 0.243079 0.004759 0.041977 0.749020 0.749020 0.749020
vn 5.153282 -2.970410 -0.500825
v 0.210465 -0.117210 0.042189 0.749020 0.749020 0.749020
vn 2.976851 -5.147947 -0.499361
v 0.121413 -0.206486 0.042460 0.749020 0.749020 0.749020
vn 0.797818 -2.973313 -0.248914
v -0.000215 -0.239144 0.042721 0.749020 0.749020 0.749020
vn -0.800006 -2.972964 -0.246037
v -0.000215 -0.239144 0.042721 0.749020 0.749020 0.749020
vn -2.980857 -5.146660 -0.488636
v -0.121829 -0.206433 0.042897 0.749020 0.749020 0.749020
vn -5.156316 -2.968206 -0.482280
v -0.210841 -0.117121 0.042947 0.749020 0.749020 0.749020
vn -5.589431 -0.000665 -1.805306
v -0.217220 0.005005 -0.115053 0.749020 0.749020 0.749020
vn -4.843448 2.787186 -1.805576
v -0.188154 0.113703 -0.115241 0.749020 0.749020 0.749020
vn -2.799775 4.832363 -1.809496
v -0.108792 0.193264 -0.115483 0.749020 0.749020 0.749020
vn -0.002037 5.582114 -1.814809
v -0.000399 0.222368 -0.115715 0.749020 0.749020 0.749020
vn 2.795346 4.831159 -1.819540
v 0.107981 0.193217 -0.115872 0.749020 0.749020 0.749020
vn 4.838140 2.785085 -1.822982
v 0.187309 0.113622 -0.115914 0.749020 0.749020 0.749020
vn 5.582912 -0.003094 -1.825385
v 0.216328 0.004910 -0.115832 0.749020 0.749020 0.749020
vn 4.834836 -2.789730 -1.826690
v 0.187262 -0.103788 -0.115643 0.749020 0.749020 0.749020
vn 2.791155 -4.832520 -1.825992
v 0.107900 -0.183348 -0.115401 0.749020 0.749020 0.749020
vn 0.747369 -2.790692 -0.912487
v -0.000493 -0.212452 -0.115170 0.749020 0.749020 0.749020
vn -0.751859 -2.790371 -0.909795
v -0.000493 -0.212452 -0.115170 0.749020 0.749020 0.749020
vn -2.799802 -4.831300 -1.815960
v -0.108873 -0.183301 -0.115011 0.749020 0.749020 0.749020
vn -4.842580 -2.787636 -1.809322
v -0.188200 -0.103707 -0.114968 0.749020 0.749020 0.749020
vn -4.671781 -0.002807 -3.570095
v -0.147867 0.005115 -0.249545 0.749020 0.749020 0.749020
vn -4.048916 2.325248 -3.571730
v -0.128133 0.078917 -0.249673 0.749020 0.749020 0.749020
vn -2.341932 4.032878 -3.576488
v -0.074250 0.132935 -0.249837 0.749020 0.749020 0.749020
vn -0.005449 4.658720 -3.581606
v -0.000656 0.152695 -0.249995 0.749020 0.749020 0.749020
vn 2.330823 4.031828 -3.584872
v 0.072931 0.132903 -0.250102 0.749020 0.749020 0.749020
vn 4.037104 2.323501 -3.586247
v 0.126790 0.078861 -0.250131 0.749020 0.749020 0.749020
vn 4.658923 -0.004822 -3.586826
v 0.146493 0.005051 -0.250074 0.749020 0.749020 0.749020
vn 4.033408 -2.331309 -3.587284
v 0.126758 -0.068750 -0.249945 0.749020 0.749020 0.749020
vn 2.326376 -4.035815 -3.586650
v 0.072876 -0.122768 -0.249780 0.749020 0.749020 0.749020
vn -0.629300 -2.329924 -1.790699
v -0.000719 -0.142528 -0.249623 0.749020 0.749020 0.749020
vn 0.621836 -2.330219 -1.792953
v -0.000719 -0.142528 -0.249623 0.749020 0.749020 0.749020
vn -2.341019 -4.034807 -3.578269
v -0.074305 -0.122736 -0.249515 0.749020 0.749020 0.749020
vn -4.047304 -2.329550 -3.572745
v -0.128165 -0.068694 -0.249486 0.749020 0.749020 0.749020
vn -2.829568 -0.005294 -5.223855
v -0.059555 0.005166 -0.324424 0.749020 0.749020 0.749020
vn -2.453111 1.401473 -5.225761
v -0.051679 0.034617 -0.324474 0.749020 0.749020 0.749020
vn -1.421306 2.433198 -5.229287
v -0.030177 0.056171 -0.324540 0.749020 0.749020 0.749020
vn -0.008780 2.811406 -5.232544
v -0.000809 0.064057 -0.324603 0.749020 0.749020 0.749020
vn 1.403576 2.432591 -5.234355
v 0.028556 0.056159 -0.324645 0.749020 0.749020 0.749020
vn 2.434926 1.400483 -5.234591
v 0.050049 0.034595 -0.324656 0.749020 0.749020 0.749020
vn 2.810663 -0.006493 -5.234034
v 0.057911 0.005140 -0.324636 0.749020 0.749020 0.749020
vn 2.432742 -1.412530 -5.233366
v 0.050037 -0.024312 -0.324583 0.749020 0.749020 0.749020
vn 1.400868 -2.442498 -5.232360
v 0.028534 -0.045867 -0.324517 0.749020 0.749020 0.749020
vn 0.372988 -1.409984 -2.615795
v -0.000835 -0.053753 -0.324454 0.749020 0.749020 0.749020
vn -0.383078 -1.409831 -2.614448
v -0.000835 -0.053753 -0.324454 0.749020 0.749020 0.749020
vn -1.420754 -2.441900 -5.227314
v -0.030199 -0.045854 -0.324411 0.749020 0.749020 0.749020
vn -2.452121 -1.411451 -5.224624
v -0.051692 -0.024290 -0.324400 0.749020 0.749020 0.749020
vn 0.080159 0.080150 -0.498299
v -0.000845 0.005164 -0.337577 0.749020 0.749020 0.749020
vn 0.109999 0.029021 -0.499376
v -0.000845 0.005164 -0.337577 0.749020 0.749020 0.749020
vn 0.028742 0.109510 -0.497182
v -0.000845 0.005164 -0.337577 0.749020 0.749020 0.749020
vn -0.081907 0.080185 -0.498004
v -0.000845 0.005164 -0.337577 0.749020 0.749020 0.749020
vn -0.030476 0.109523 -0.497076
v -0.000845 0.005164 -0.337577 0.749020 0.749020 0.749020
vn 0.028629 -0.110585 -0.496507
v -0.000845 0.005164 -0.337577 0.749020 0.749020 0.749020
vn -0.030470 -0.110566 -0.496376
v -0.000845 0.005164 -0.337577 0.749020 0.749020 0.749020
vn -0.081830 -0.081307 -0.497508
v -0.000845 0.005164 -0.337577 0.749020 0.749020 0.749020
vn -0.111751 -0.030237 -0.498810
v -0.000845 0.005164 -0.337577 0.749020 0.749020 0.749020
vn 0.109935 -0.030290 -0.499195
v -0.000845 0.005164 -0.337577 0.749020 0.749020 0.749020
vn 0.080008 -0.081339 -0.497810
v -0.000845 0.005164 -0.337577 0.749020 0.749020 0.749020
vn -0.111785 0.029047 -0.498971
v -0.000845 0.005164 -0.337577 0.749020 0.749020 0.749020
vn -5.259173 3.030236 0.012262
v -0.210404 0.126637 0.256300 0.749020 0.749020 0.749020
vn -6.070253 0.001340 0.010925
v -0.243020 0.004667 0.256511 0.749020 0.749020 0.749020
vn -3.038848 5.252778 0.010351
v -0.121353 0.215913 0.256029 0.749020 0.749020 0.749020
vn 0.001341 6.067926 0.005605
v 0.000274 0.248568 0.255769 0.749020 0.749020 0.749020
vn 3.041112 5.251478 -0.000582
v 0.121888 0.215860 0.255592 0.749020 0.749020 0.749020
vn 5.260507 3.027893 -0.006653
v 0.210902 0.126545 0.255543 0.749020 0.749020 0.749020
vn 6.070277 -0.001321 -0.010928
v 0.243463 0.004561 0.255637 0.749020 0.749020 0.749020
vn 5.259152 -3.030212 -0.012271
v 0.210849 -0.117410 0.255850 0.749020 0.749020 0.749020
vn 3.038853 -5.252807 -0.010341
v 0.121797 -0.206684 0.256121 0.749020 0.749020 0.749020
vn -0.816000 -3.033779 -0.001352
v 0.000169 -0.239341 0.256381 0.749020 0.749020 0.749020
vn 0.814651 -3.034125 -0.004290
v 0.000169 -0.239341 0.256381 0.749020 0.749020 0.749020
vn -3.041159 -5.251479 0.000604
v -0.121444 -0.206631 0.256558 0.749020 0.749020 0.749020
vn -5.260460 -3.027966 0.006670
v -0.210457 -0.117319 0.256607 0.749020 0.749020 0.749020
vn -2.951815 -0.956399 0.004440
v 0.376479 0.127175 0.250667 0.749020 0.749020 0.749020
vn -3.103104 -0.000011 0.005572
v 0.395815 0.004565 0.250785 0.749020 0.749020 0.749020
vn -2.952214 0.956596 0.006196
v 0.376427 -0.118037 0.250976 0.749020 0.749020 0.749020
vn -2.512994 1.820883 0.006200
v 0.320212 -0.228630 0.251214 0.749020 0.749020 0.749020
vn -1.827228 2.508467 0.005606
v 0.232673 -0.316388 0.251483 0.749020 0.749020 0.749020
vn -0.960942 2.950819 0.004461
v 0.122380 -0.372719 0.251750 0.749020 0.749020 0.749020
vn -0.962267 -2.950420 -0.001035
v 0.122696 0.381886 0.336017 0.749020 0.749020 0.749020
vn -0.005082 -0.003544 -2.826705
v 0.122696 0.381886 0.336017 0.749020 0.749020 0.749020
vn -0.005071 -0.003523 -2.827708
v 0.320466 0.237711 0.335842 0.749020 0.749020 0.749020
vn -2.513800 -1.819811 0.002835
v 0.320466 0.237711 0.335842 0.749020 0.749020 0.749020
vn -0.005079 -0.003549 -2.828341
v 0.395968 0.004486 0.335997 0.749020 0.749020 0.749020
vn -3.103160 0.001341 0.005579
v 0.395968 0.004486 0.335997 0.749020 0.749020 0.749020
vn -2.951365 0.957678 0.006197
v 0.376580 -0.118117 0.336188 0.749020 0.749020 0.749020
vn -0.004873 -0.003635 -2.828151
v 0.376580 -0.118117 0.336188 0.749020 0.749020 0.749020
vn -0.005045 -0.003581 -2.827711
v 0.320365 -0.228709 0.336427 0.749020 0.749020 0.749020
vn -2.511743 1.821326 0.006202
v 0.320365 -0.228709 0.336427 0.749020 0.749020 0.749020
vn -1.825921 2.508021 0.005603
v 0.232826 -0.316467 0.336695 0.749020 0.749020 0.749020
vn -0.005016 -0.003629 -2.827142
v 0.232826 -0.316467 0.336695 0.749020 0.749020 0.749020
vn -0.005092 -0.003550 -2.826697
v 0.122533 -0.372798 0.336963 0.749020 0.749020 0.749020
vn -0.960159 2.949770 0.004459
v 0.122533 -0.372798 0.336963 0.749020 0.749020 0.749020
vn -0.961474 -2.949349 -0.001039
v 0.122543 0.381966 0.250805 0.749020 0.749020 0.749020
vn -1.827019 -2.507219 0.000949
v 0.232811 0.325586 0.250676 0.749020 0.749020 0.749020
vn -2.512535 -1.820251 0.002836
v 0.320312 0.237791 0.250630 0.749020 0.749020 0.749020
vn -0.005114 -0.003583 -2.827152
v 0.232965 0.325506 0.335889 0.749020 0.749020 0.749020
vn -1.828325 -2.507651 0.000947
v 0.232965 0.325506 0.335889 0.749020 0.749020 0.749020
vn -0.005073 -0.003522 -2.828149
v 0.376633 0.127096 0.335879 0.749020 0.749020 0.749020
vn -2.952593 -0.955305 0.004447
v 0.376633 0.127096 0.335879 0.749020 0.749020 0.749020
vn 3.103094 -0.001353 -0.005573
v -0.395387 0.004737 0.252207 0.749020 0.749020 0.749020
vn 2.951406 -0.957690 -0.006197
v -0.375998 0.127339 0.252020 0.749020 0.749020 0.749020
vn 2.952635 0.955323 -0.004419
v -0.376051 -0.117874 0.252329 0.749020 0.749020 0.749020
vn 1.402299 0.712032 -0.001866
v -0.319884 -0.228491 0.252365 0.749020 0.749020 0.749020
vn 1.111497 1.107755 -0.000977
v -0.319884 -0.228491 0.252365 0.749020 0.749020 0.749020
vn 1.828319 2.507669 -0.000952
v -0.232383 -0.316287 0.252319 0.749020 0.749020 0.749020
vn 0.962233 2.950416 0.001035
v -0.122114 -0.372665 0.252190 0.749020 0.749020 0.749020
vn 0.000692 3.103392 0.002876
v 0.000128 -0.392111 0.251996 0.749020 0.749020 0.749020
vn -0.005087 -0.003547 -2.826502
v 0.000452 0.401333 0.336212 0.749020 0.749020 0.749020
vn -0.000686 -3.103372 -0.002875
v 0.000452 0.401333 0.336212 0.749020 0.749020 0.749020
vn 0.960966 -2.950830 -0.004488
v -0.121799 0.381940 0.336457 0.749020 0.749020 0.749020
vn -0.005087 -0.003547 -2.826699
v -0.121799 0.381940 0.336457 0.749020 0.749020 0.749020
vn 1.827241 -2.508440 -0.005612
v -0.232092 0.325608 0.336725 0.749020 0.749020 0.749020
vn -0.005014 -0.003633 -2.827143
v -0.232092 0.325608 0.336725 0.749020 0.749020 0.749020
vn -0.005087 -0.003533 -2.827720
v -0.319630 0.237850 0.336993 0.749020 0.749020 0.749020
vn 2.513004 -1.820909 -0.006257
v -0.319630 0.237850 0.336993 0.749020 0.749020 0.749020
vn 2.952181 -0.956600 -0.006208
v -0.375845 0.127259 0.337232 0.749020 0.749020 0.749020
vn -0.005069 -0.003535 -2.828157
v -0.375845 0.127259 0.337232 0.749020 0.749020 0.749020
vn -0.005094 -0.003545 -2.828323
v -0.395234 0.004658 0.337420 0.749020 0.749020 0.749020
vn 3.103150 -0.000006 -0.005573
v -0.395234 0.004658 0.337420 0.749020 0.749020 0.749020
vn -0.005347 -0.003635 -2.828158
v -0.375898 -0.117953 0.337541 0.749020 0.749020 0.749020
vn 2.951780 0.956394 -0.004414
v -0.375898 -0.117953 0.337541 0.749020 0.749020 0.749020
vn -0.005112 -0.003565 -2.827716
v -0.319731 -0.228569 0.337577 0.749020 0.749020 0.749020
vn 1.398875 0.710296 -0.001858
v -0.319731 -0.228569 0.337577 0.749020 0.749020 0.749020
vn 1.113688 1.109934 -0.000984
v -0.319731 -0.228569 0.337577 0.749020 0.749020 0.749020
vn -0.005201 -0.003702 -2.827134
v -0.232230 -0.316366 0.337531 0.749020 0.749020 0.749020
vn 1.827016 2.507215 -0.000961
v -0.232230 -0.316366 0.337531 0.749020 0.749020 0.749020
vn -0.005067 -0.003549 -2.826698
v -0.121961 -0.372745 0.337402 0.749020 0.749020 0.749020
vn 0.961447 2.949360 0.001036
v -0.121961 -0.372745 0.337402 0.749020 0.749020 0.749020
vn 0.000688 3.101996 0.002882
v 0.000281 -0.392190 0.337208 0.749020 0.749020 0.749020
vn -0.005077 -0.003541 -2.826527
v 0.000281 -0.392190 0.337208 0.749020 0.749020 0.749020
vn 0.960173 -2.949760 -0.004487
v -0.121952 0.382020 0.251244 0.749020 0.749020 0.749020
vn -0.000687 -3.101994 -0.002888
v 0.000299 0.401412 0.250999 0.749020 0.749020 0.749020
vn 1.825940 -2.508012 -0.005618
v -0.232245 0.325687 0.251512 0.749020 0.749020 0.749020
vn 2.511714 -1.821337 -0.006261
v -0.319784 0.237931 0.251780 0.749020 0.749020 0.749020
# 704 vertices, 0 vertices normals


usemtl material_0
vt 0.607107 0.708622
vt 0.605672 0.707767
vt 0.605672 0.702087
f 18/1/18 6/2/6 10/3/10
vt 0.607107 0.701231
f 10/3/10 19/4/19 18/1/18
vt 0.589005 0.709431
vt 0.589005 0.707767
f 16/5/16 1/6/1 7/2/7
vt 0.605672 0.709431
f 7/2/7 17/7/17 16/5/16
vt 0.589005 0.711096
vt 0.605672 0.711096
vt 0.605672 0.716760
f 2/8/2 8/9/8 12/10/12
vt 0.589005 0.716760
f 12/10/12 4/11/4 2/8/2
vt 0.589005 0.700422
vt 0.589005 0.698758
vt 0.605672 0.698758
f 15/12/15 5/13/5 14/14/14
vt 0.605672 0.700422
f 14/14/14 20/15/20 15/12/15
vt 0.589005 0.702087
f 3/16/3 11/3/11 7/2/7
f 7/2/7 1/6/1 3/16/3
vt 0.608541 0.707767
f 9/17/9 18/1/18 19/4/19
vt 0.608541 0.702087
f 19/4/19 13/18/13 9/17/9
f 2/8/2 16/5/16 17/7/17
f 17/7/17 8/9/8 2/8/2
f 3/16/3 15/12/15 20/15/20
f 20/15/20 11/3/11 3/16/3
f 37/1/37 26/2/26 30/3/30
f 30/3/30 39/4/39 37/1/37
f 36/5/36 21/6/21 27/2/27
f 27/2/27 38/7/38 36/5/36
f 22/8/22 29/9/29 32/10/32
f 32/10/32 24/11/24 22/8/22
f 35/12/35 25/13/25 34/14/34
f 34/14/34 40/15/40 35/12/35
f 23/16/23 31/3/31 27/2/27
f 27/2/27 21/6/21 23/16/23
f 28/17/28 37/1/37 39/4/39
f 39/4/39 33/18/33 28/17/28
f 22/8/22 36/5/36 38/7/38
f 38/7/38 29/9/29 22/8/22
f 23/16/23 35/12/35 40/15/40
f 40/15/40 31/3/31 23/16/23
f 57/1/57 47/2/47 51/3/51
f 51/3/51 59/4/59 57/1/57
f 56/5/56 41/6/41 46/2/46
f 46/2/46 58/7/58 56/5/56
f 42/8/42 49/9/49 54/10/54
f 54/10/54 45/11/45 42/8/42
f 55/12/55 44/13/44 52/14/52
f 52/14/52 60/15/60 55/12/55
f 43/16/43 50/3/50 46/2/46
f 46/2/46 41/6/41 43/16/43
f 48/17/48 57/1/57 59/4/59
f 59/4/59 53/18/53 48/17/48
f 42/8/42 56/5/56 58/7/58
f 58/7/58 49/9/49 42/8/42
f 43/16/43 55/12/55 60/15/60
f 60/15/60 50/3/50 43/16/43
f 78/1/78 67/2/67 70/3/70
f 70/3/70 80/4/80 78/1/78
f 76/5/76 61/6/61 66/2/66
f 66/2/66 77/7/77 76/5/76
f 62/8/62 68/9/68 74/10/74
f 74/10/74 64/11/64 62/8/62
f 75/12/75 65/13/65 73/14/73
f 73/14/73 79/15/79 75/12/75
f 63/16/63 71/3/71 66/2/66
f 66/2/66 61/6/61 63/16/63
f 69/17/69 78/1/78 80/4/80
f 80/4/80 72/18/72 69/17/69
f 62/8/62 76/5/76 77/7/77
f 77/7/77 68/9/68 62/8/62
f 63/16/63 75/12/75 79/15/79
f 79/15/79 71/3/71 63/16/63
f 97/1/97 86/2/86 91/3/91
f 91/3/91 99/4/99 97/1/97
f 96/5/96 81/6/81 87/2/87
f 87/2/87 98/7/98 96/5/96
f 82/8/82 89/9/89 94/10/94
f 94/10/94 84/11/84 82/8/82
f 95/12/95 85/13/85 92/14/92
f 92/14/92 100/15/100 95/12/95
f 83/16/83 90/3/90 87/2/87
f 87/2/87 81/6/81 83/16/83
f 88/17/88 97/1/97 99/4/99
f 99/4/99 93/18/93 88/17/88
f 82/8/82 96/5/96 98/7/98
f 98/7/98 89/9/89 82/8/82
f 83/16/83 95/12/95 100/15/100
f 100/15/100 90/3/90 83/16/83
f 117/1/117 106/2/106 110/3/110
f 110/3/110 119/4/119 117/1/117
f 116/5/116 101/6/101 107/2/107
f 107/2/107 118/7/118 116/5/116
f 102/8/102 108/9/108 112/10/112
f 112/10/112 105/11/105 102/8/102
f 115/12/115 104/13/104 113/14/113
f 113/14/113 120/15/120 115/12/115
f 103/16/103 111/3/111 107/2/107
f 107/2/107 101/6/101 103/16/103
f 109/17/109 117/1/117 119/4/119
f 119/4/119 114/18/114 109/17/109
f 102/8/102 116/5/116 118/7/118
f 118/7/118 108/9/108 102/8/102
f 103/16/103 115/12/115 120/15/120
f 120/15/120 111/3/111 103/16/103
f 138/1/138 126/2/126 130/3/130
f 130/3/130 140/4/140 138/1/138
f 136/5/136 121/6/121 127/2/127
f 127/2/127 137/7/137 136/5/136
f 122/8/122 129/9/129 134/10/134
f 134/10/134 125/11/125 122/8/122
f 135/12/135 124/13/124 132/14/132
f 132/14/132 139/15/139 135/12/135
f 121/6/121 123/16/123 131/3/131
f 131/3/131 127/2/127 121/6/121
f 128/17/128 138/1/138 140/4/140
f 140/4/140 133/18/133 128/17/128
f 122/8/122 136/5/136 137/7/137
f 137/7/137 129/9/129 122/8/122
f 123/16/123 135/12/135 139/15/139
f 139/15/139 131/3/131 123/16/123
f 158/1/158 147/2/147 150/3/150
f 150/3/150 159/4/159 158/1/158
f 156/5/156 141/6/141 146/2/146
f 146/2/146 157/7/157 156/5/156
f 142/8/142 148/9/148 152/10/152
f 152/10/152 145/11/145 142/8/142
f 155/12/155 144/13/144 153/14/153
f 153/14/153 160/15/160 155/12/155
f 143/16/143 151/3/151 146/2/146
f 146/2/146 141/6/141 143/16/143
f 149/17/149 158/1/158 159/4/159
f 159/4/159 154/18/154 149/17/149
f 142/8/142 156/5/156 157/7/157
f 157/7/157 148/9/148 142/8/142
f 143/16/143 155/12/155 160/15/160
f 160/15/160 151/3/151 143/16/143
f 178/1/178 167/2/167 171/3/171
f 171/3/171 180/4/180 178/1/178
f 176/5/176 161/6/161 166/2/166
f 166/2/166 177/7/177 176/5/176
f 162/8/162 169/9/169 174/10/174
f 174/10/174 164/11/164 162/8/162
f 175/12/175 165/13/165 172/14/172
f 172/14/172 179/15/179 175/12/175
f 163/16/163 170/3/170 166/2/166
f 166/2/166 161/6/161 163/16/163
f 168/17/168 178/1/178 180/4/180
f 180/4/180 173/18/173 168/17/168
f 162/8/162 176/5/176 177/7/177
f 177/7/177 169/9/169 162/8/162
f 163/16/163 175/12/175 179/15/179
f 179/15/179 170/3/170 163/16/163
f 197/1/197 187/2/187 191/3/191
f 191/3/191 199/4/199 197/1/197
f 196/5/196 181/6/181 186/2/186
f 186/2/186 198/7/198 196/5/196
f 182/8/182 188/9/188 194/10/194
f 194/10/194 184/11/184 182/8/182
f 195/12/195 185/13/185 192/14/192
f 192/14/192 200/15/200 195/12/195
f 183/16/183 190/3/190 186/2/186
f 186/2/186 181/6/181 183/16/183
f 189/17/189 197/1/197 199/4/199
f 199/4/199 193/18/193 189/17/189
f 182/8/182 196/5/196 198/7/198
f 198/7/198 188/9/188 182/8/182
f 183/16/183 195/12/195 200/15/200
f 200/15/200 190/3/190 183/16/183
f 218/1/218 206/2/206 210/3/210
f 210/3/210 220/4/220 218/1/218
f 216/5/216 201/6/201 207/2/207
f 207/2/207 217/7/217 216/5/216
f 202/8/202 209/9/209 214/10/214
f 214/10/214 204/11/204 202/8/202
f 215/12/215 205/13/205 213/14/213
f 213/14/213 219/15/219 215/12/215
f 203/16/203 211/3/211 207/2/207
f 207/2/207 201/6/201 203/16/203
f 208/17/208 218/1/218 220/4/220
f 220/4/220 212/18/212 208/17/208
f 202/8/202 216/5/216 217/7/217
f 217/7/217 209/9/209 202/8/202
f 203/16/203 215/12/215 219/15/219
f 219/15/219 211/3/211 203/16/203
f 237/1/237 226/2/226 230/3/230
f 230/3/230 240/4/240 237/1/237
f 236/5/236 221/6/221 227/2/227
f 227/2/227 238/7/238 236/5/236
f 222/8/222 229/9/229 234/10/234
f 234/10/234 225/11/225 222/8/222
f 235/12/235 224/13/224 233/14/233
f 233/14/233 239/15/239 235/12/235
f 223/16/223 231/3/231 227/2/227
f 227/2/227 221/6/221 223/16/223
f 228/17/228 237/1/237 240/4/240
f 240/4/240 232/18/232 228/17/228
f 222/8/222 236/5/236 238/7/238
f 238/7/238 229/9/229 222/8/222
f 223/16/223 235/12/235 239/15/239
f 239/15/239 231/3/231 223/16/223
vt 0.466674 0.868309
vt 0.466674 0.863728
vt 0.484058 0.867912
f 242/19/242 243/20/243 261/21/261
vt 0.484058 0.870371
f 261/21/261 262/22/262 242/19/242
vt 0.466674 0.859545
vt 0.484058 0.863698
f 243/20/243 244/23/244 264/24/264
f 264/24/264 261/21/261 243/20/243
vt 0.466674 0.856689
vt 0.484058 0.859590
f 244/23/244 245/25/245 265/26/265
f 265/26/265 264/24/264 244/23/244
vt 0.466674 0.851986
vt 0.484058 0.857941
f 245/25/245 247/27/247 266/28/266
f 266/28/266 265/26/265 245/25/245
vt 0.467590 0.895947
vt 0.467590 0.892160
vt 0.484837 0.897184
f 246/29/246 248/30/248 268/31/268
vt 0.484837 0.899306
f 268/31/268 267/32/267 246/29/246
vt 0.467590 0.888938
vt 0.484837 0.892847
f 248/30/248 249/33/249 269/34/269
f 269/34/269 268/31/268 248/30/248
vt 0.467590 0.885273
vt 0.484837 0.888862
f 249/33/249 250/35/250 270/36/270
f 270/36/270 269/34/269 249/33/249
vt 0.467590 0.881670
vt 0.484837 0.886617
f 250/35/250 241/37/241 263/38/263
f 263/38/263 270/36/270 250/35/250
vt 0.514584 0.873363
vt 0.514584 0.876234
f 290/39/290 299/40/299 262/22/262
f 262/22/262 261/21/261 290/39/290
vt 0.514584 0.864477
f 291/41/291 290/39/290 261/21/261
f 261/21/261 264/24/264 291/41/291
vt 0.514584 0.856231
f 265/26/265 292/42/292 291/41/291
f 291/41/291 264/24/264 265/26/265
vt 0.514584 0.849726
f 266/28/266 293/43/293 292/42/292
f 292/42/292 265/26/265 266/28/266
vt 0.514996 0.901169
vt 0.514996 0.907735
f 295/44/295 294/45/294 267/32/267
f 267/32/267 268/31/268 295/44/295
vt 0.514996 0.892923
f 296/46/296 295/44/295 268/31/268
f 268/31/268 269/34/269 296/46/296
vt 0.514996 0.884052
f 270/36/270 297/47/297 296/46/296
f 296/46/296 269/34/269 270/36/270
vt 0.514996 0.881258
f 263/38/263 298/48/298 297/47/297
f 297/47/297 270/36/270 263/38/263
vt 0.610190 0.867256
vt 0.606206 0.871119
vt 0.602329 0.872829
f 259/49/259 252/50/252 271/51/271
vt 0.602329 0.870493
f 271/51/271 273/52/273 259/49/259
vt 0.611212 0.864385
f 257/53/257 259/49/259 273/52/273
vt 0.602329 0.864736
f 273/52/273 274/54/274 257/53/257
vt 0.609976 0.861697
f 255/55/255 257/53/257 274/54/274
vt 0.602329 0.859193
f 274/54/274 275/56/275 255/55/255
vt 0.605687 0.857712
f 253/57/253 255/55/255 275/56/275
vt 0.602329 0.855880
f 275/56/275 277/58/277 253/57/253
vt 0.610266 0.895015
vt 0.606191 0.899214
vt 0.602528 0.901154
f 256/59/256 254/60/254 276/61/276
vt 0.602528 0.897901
f 276/61/276 278/62/278 256/59/256
vt 0.611304 0.892420
f 258/63/258 256/59/256 278/62/278
vt 0.602528 0.892511
f 278/62/278 279/64/279 258/63/258
vt 0.610098 0.889885
f 260/65/260 258/63/258 279/64/279
vt 0.602528 0.886877
f 279/64/279 280/66/280 260/65/260
vt 0.605992 0.886190
f 251/67/251 260/65/260 280/66/280
vt 0.602528 0.884586
f 280/66/280 272/68/272 251/67/251
vt 0.545476 0.875577
vt 0.576138 0.875577
vt 0.576138 0.878585
f 281/69/281 301/70/301 300/71/300
vt 0.545476 0.878585
f 300/71/300 289/72/289 281/69/281
vt 0.545476 0.864568
vt 0.576138 0.864583
f 282/73/282 302/74/302 301/70/301
f 301/70/301 281/69/281 282/73/282
vt 0.576138 0.855758
f 303/75/303 302/74/302 282/73/282
vt 0.545476 0.854903
f 282/73/282 283/76/283 303/75/303
vt 0.576138 0.848490
f 304/77/304 303/75/303 283/76/283
vt 0.545476 0.846550
f 283/76/283 285/78/285 304/77/304
vt 0.545476 0.902345
vt 0.576138 0.901230
vt 0.576138 0.908452
f 286/79/286 306/80/306 305/81/305
vt 0.545476 0.910682
f 305/81/305 284/82/284 286/79/286
vt 0.545476 0.892694
vt 0.576138 0.892420
f 287/83/287 307/84/307 306/80/306
f 306/80/306 286/79/286 287/83/287
vt 0.576138 0.881456
f 308/85/308 307/84/307 287/83/287
vt 0.545476 0.881716
f 287/83/287 288/86/288 308/85/308
f 300/71/300 308/85/308 288/86/288
f 288/86/288 289/72/289 300/71/300
f 281/69/281 289/72/289 299/40/299
f 299/40/299 290/39/290 281/69/281
f 282/73/282 281/69/281 290/39/290
f 290/39/290 291/41/291 282/73/282
f 292/42/292 283/76/283 282/73/282
f 282/73/282 291/41/291 292/42/292
f 293/43/293 285/78/285 283/76/283
f 283/76/283 292/42/292 293/43/293
f 286/79/286 284/82/284 294/45/294
f 294/45/294 295/44/295 286/79/286
f 287/83/287 286/79/286 295/44/295
f 295/44/295 296/46/296 287/83/287
f 297/47/297 288/86/288 287/83/287
f 287/83/287 296/46/296 297/47/297
f 298/48/298 289/72/289 288/86/288
f 288/86/288 297/47/297 298/48/298
vt 0.591416 0.873119
vt 0.591416 0.875837
f 301/70/301 311/87/311 310/88/310
f 310/88/310 300/71/300 301/70/301
vt 0.591416 0.864721
f 302/74/302 312/89/312 311/87/311
f 311/87/311 301/70/301 302/74/302
vt 0.591416 0.857300
f 313/90/313 312/89/312 302/74/302
f 302/74/302 303/75/303 313/90/313
vt 0.591416 0.851009
f 314/91/314 313/90/313 303/75/303
f 303/75/303 304/77/304 314/91/314
vt 0.591645 0.899825
vt 0.591645 0.906116
f 306/80/306 316/92/316 315/93/315
f 315/93/315 305/81/305 306/80/306
vt 0.591645 0.892450
f 307/84/307 317/94/317 316/92/316
f 316/92/316 306/80/306 307/84/307
vt 0.591645 0.884174
f 318/95/318 317/94/317 307/84/307
f 307/84/307 308/85/308 318/95/318
vt 0.591645 0.881441
f 309/96/309 318/95/318 308/85/308
f 308/85/308 300/71/300 309/96/309
f 311/87/311 273/52/273 271/51/271
f 271/51/271 310/88/310 311/87/311
f 312/89/312 274/54/274 273/52/273
f 273/52/273 311/87/311 312/89/312
f 275/56/275 274/54/274 312/89/312
f 312/89/312 313/90/313 275/56/275
f 277/58/277 275/56/275 313/90/313
f 313/90/313 314/91/314 277/58/277
f 316/92/316 278/62/278 276/61/276
f 276/61/276 315/93/315 316/92/316
f 317/94/317 279/64/279 278/62/278
f 278/62/278 316/92/316 317/94/317
f 280/66/280 279/64/279 317/94/317
f 317/94/317 318/95/318 280/66/280
f 272/68/272 280/66/280 318/95/318
f 318/95/318 309/96/309 272/68/272
vt 0.494498 0.698452
vt 0.500588 0.698452
vt 0.500588 0.711080
f 319/97/319 320/98/320 331/99/331
vt 0.494498 0.711080
f 331/99/331 328/100/328 319/97/319
vt 0.506693 0.698452
vt 0.506693 0.711080
f 320/98/320 321/101/321 332/102/332
f 332/102/332 331/99/331 320/98/320
vt 0.512783 0.698452
vt 0.512783 0.711080
f 321/101/321 322/103/322 334/104/334
f 334/104/334 332/102/332 321/101/321
vt 0.518873 0.698452
vt 0.518873 0.711080
f 322/103/322 323/105/323 337/106/337
f 337/106/337 334/104/334 322/103/322
vt 0.524962 0.698452
vt 0.524962 0.711080
f 323/105/323 324/107/324 339/108/339
f 339/108/339 337/106/337 323/105/323
vt 0.531052 0.698452
vt 0.531052 0.711080
f 324/107/324 325/109/325 340/110/340
f 340/110/340 339/108/339 324/107/324
vt 0.482318 0.698452
vt 0.488408 0.698452
vt 0.488408 0.711080
f 326/111/326 327/112/327 344/113/344
vt 0.482318 0.711080
f 344/113/344 342/114/342 326/111/326
f 327/112/327 319/97/319 328/100/328
f 328/100/328 344/113/344 327/112/327
vt 0.492712 0.721479
vt 0.488408 0.725800
vt 0.482318 0.725800
f 330/115/330 333/116/333 335/117/335
vt 0.478014 0.721479
vt 0.478014 0.715401
f 335/117/335 336/118/336 338/119/338
f 338/119/338 341/114/341 343/113/343
f 335/117/335 338/119/338 343/113/343
f 330/115/330 335/117/335 343/113/343
vt 0.492712 0.715401
f 329/120/329 330/115/330 343/113/343
vt 0.466705 0.739848
vt 0.466705 0.735267
vt 0.484074 0.739435
f 346/121/346 347/122/347 365/123/365
vt 0.484074 0.741894
f 365/123/365 366/124/366 346/121/346
vt 0.466705 0.731083
vt 0.484074 0.735221
f 347/122/347 348/125/348 368/126/368
f 368/126/368 365/123/365 347/122/347
vt 0.466705 0.728228
vt 0.484074 0.731129
f 348/125/348 349/127/349 369/128/369
f 369/128/369 368/126/368 348/125/348
vt 0.466705 0.723540
vt 0.484074 0.729480
f 349/127/349 351/129/351 370/130/370
f 370/130/370 369/128/369 349/127/349
vt 0.467376 0.767516
vt 0.467376 0.763729
vt 0.484669 0.768753
f 350/131/350 352/132/352 372/133/372
vt 0.484669 0.770890
f 372/133/372 371/134/371 350/131/350
vt 0.467376 0.760492
vt 0.484669 0.764416
f 352/132/352 353/135/353 373/136/373
f 373/136/373 372/133/372 352/132/352
vt 0.467376 0.756827
vt 0.484669 0.760416
f 353/135/353 354/137/354 374/138/374
f 374/138/374 373/136/373 353/135/353
vt 0.467376 0.753209
vt 0.484669 0.758171
f 354/137/354 345/139/345 367/140/367
f 367/140/367 374/138/374 354/137/354
vt 0.514599 0.744902
vt 0.514599 0.747773
f 394/141/394 403/142/403 366/124/366
f 366/124/366 365/123/365 394/141/394
vt 0.514599 0.736000
f 395/143/395 394/141/394 365/123/365
f 365/123/365 368/126/368 395/143/395
vt 0.514599 0.727770
f 369/128/369 396/144/396 395/143/395
f 395/143/395 368/126/368 369/128/369
vt 0.514599 0.721265
f 370/130/370 397/145/397 396/144/396
f 396/144/396 369/128/369 370/130/370
vt 0.514920 0.772769
vt 0.514920 0.779350
f 399/146/399 398/147/398 371/134/371
f 371/134/371 372/133/372 399/146/399
vt 0.514920 0.764493
f 400/148/400 399/146/399 372/133/372
f 372/133/372 373/136/373 400/148/400
vt 0.514920 0.755590
f 374/138/374 401/149/401 400/148/400
f 400/148/400 373/136/373 374/138/374
vt 0.514920 0.752796
f 367/140/367 402/150/402 401/149/401
f 401/149/401 374/138/374 367/140/367
vt 0.610144 0.738794
vt 0.606176 0.742657
vt 0.602284 0.744352
f 363/151/363 356/152/356 376/153/376
vt 0.602284 0.742031
f 376/153/376 377/154/377 363/151/363
vt 0.611166 0.735924
f 362/155/362 363/151/363 377/154/377
vt 0.602284 0.736275
f 377/154/377 378/156/378 362/155/362
vt 0.609930 0.733236
f 359/157/359 362/155/362 378/156/378
vt 0.602284 0.730732
f 378/156/378 379/158/379 359/157/359
vt 0.605641 0.729251
f 358/159/358 359/157/359 379/158/379
vt 0.602284 0.727418
f 379/158/379 381/160/381 358/159/358
vt 0.610449 0.766600
vt 0.606374 0.770799
vt 0.602696 0.772738
f 360/161/360 357/162/357 380/163/380
vt 0.602696 0.769486
f 380/163/380 382/164/382 360/161/360
vt 0.611487 0.763989
f 361/165/361 360/161/360 382/164/382
vt 0.602696 0.764080
f 382/164/382 383/166/383 361/165/361
vt 0.610296 0.761439
f 364/167/364 361/165/361 383/166/383
vt 0.602696 0.758431
f 383/166/383 384/168/384 364/167/364
vt 0.606176 0.757743
f 355/169/355 364/167/364 384/168/384
vt 0.602696 0.756125
f 384/168/384 375/170/375 355/169/355
vt 0.545476 0.747101
vt 0.576184 0.747101
vt 0.576184 0.750109
f 385/171/385 405/172/405 404/173/404
vt 0.545476 0.750109
f 404/173/404 393/174/393 385/171/385
vt 0.545476 0.736091
vt 0.576184 0.736107
f 386/175/386 406/176/406 405/172/405
f 405/172/405 385/171/385 386/175/386
vt 0.576184 0.727296
f 407/177/407 406/176/406 386/175/386
vt 0.545476 0.726441
f 386/175/386 387/178/387 407/177/407
vt 0.576184 0.720043
f 408/179/408 407/177/407 387/178/387
vt 0.545476 0.718104
f 387/178/387 388/180/388 408/179/408
vt 0.545476 0.773944
vt 0.576184 0.772814
vt 0.576184 0.780067
f 390/181/390 410/182/410 409/183/409
vt 0.545476 0.782297
f 409/183/409 389/184/389 390/181/390
vt 0.545476 0.764264
vt 0.576184 0.763989
f 391/185/391 411/186/411 410/182/410
f 410/182/410 390/181/390 391/185/391
vt 0.576184 0.752995
f 412/187/412 411/186/411 391/185/391
vt 0.545476 0.753239
f 391/185/391 392/188/392 412/187/412
f 404/173/404 412/187/412 392/188/392
f 392/188/392 393/174/393 404/173/404
f 385/171/385 393/174/393 403/142/403
f 403/142/403 394/141/394 385/171/385
f 386/175/386 385/171/385 394/141/394
f 394/141/394 395/143/395 386/175/386
f 396/144/396 387/178/387 386/175/386
f 386/175/386 395/143/395 396/144/396
f 397/145/397 388/180/388 387/178/387
f 387/178/387 396/144/396 397/145/397
f 390/181/390 389/184/389 398/147/398
f 398/147/398 399/146/399 390/181/390
f 391/185/391 390/181/390 399/146/399
f 399/146/399 400/148/400 391/185/391
f 401/149/401 392/188/392 391/185/391
f 391/185/391 400/148/400 401/149/401
f 402/150/402 393/174/393 392/188/392
f 392/188/392 401/149/401 402/150/402
vt 0.591386 0.744642
vt 0.591386 0.747376
f 405/172/405 415/189/415 414/190/414
f 414/190/414 404/173/404 405/172/405
vt 0.591386 0.736259
f 406/176/406 416/191/416 415/189/415
f 415/189/415 405/172/405 406/176/406
vt 0.591386 0.728839
f 417/192/417 416/191/416 406/176/406
f 406/176/406 407/177/407 417/192/417
vt 0.591386 0.722548
f 418/193/418 417/192/417 407/177/407
f 407/177/407 408/179/408 418/193/418
vt 0.591783 0.771410
vt 0.591783 0.777716
f 410/182/410 420/194/420 419/195/419
f 419/195/419 409/183/409 410/182/410
vt 0.591783 0.764019
f 411/186/411 421/196/421 420/194/420
f 420/194/420 410/182/410 411/186/411
vt 0.591783 0.755713
f 422/197/422 421/196/421 411/186/411
f 411/186/411 412/187/412 422/197/422
vt 0.591783 0.752964
f 413/198/413 422/197/422 412/187/412
f 412/187/412 404/173/404 413/198/413
f 415/189/415 377/154/377 376/153/376
f 376/153/376 414/190/414 415/189/415
f 416/191/416 378/156/378 377/154/377
f 377/154/377 415/189/415 416/191/416
f 379/158/379 378/156/378 416/191/416
f 416/191/416 417/192/417 379/158/379
f 381/160/381 379/158/379 417/192/417
f 417/192/417 418/193/418 381/160/381
f 420/194/420 382/164/382 380/163/380
f 380/163/380 419/195/419 420/194/420
f 421/196/421 383/166/383 382/164/382
f 382/164/382 420/194/420 421/196/421
f 384/168/384 383/166/383 421/196/421
f 421/196/421 422/197/422 384/168/384
f 375/170/375 384/168/384 422/197/422
f 422/197/422 413/198/413 375/170/375
f 423/97/423 424/98/424 434/99/434
f 434/99/434 433/100/433 423/97/423
f 424/98/424 425/101/425 436/102/436
f 436/102/436 434/99/434 424/98/424
f 425/101/425 426/103/426 438/104/438
f 438/104/438 436/102/436 425/101/425
f 426/103/426 427/105/427 440/106/440
f 440/106/440 438/104/438 426/103/426
f 427/105/427 428/107/428 443/108/443
f 443/108/443 440/106/440 427/105/427
f 428/107/428 430/109/430 446/110/446
f 446/110/446 443/108/443 428/107/428
f 429/111/429 431/112/431 448/113/448
f 448/113/448 444/114/444 429/111/429
f 431/112/431 423/97/423 433/100/433
f 433/100/433 448/113/448 431/112/431
f 435/115/435 437/116/437 439/117/439
f 439/117/439 441/118/441 442/119/442
f 442/119/442 445/114/445 447/113/447
f 439/117/439 442/119/442 447/113/447
f 435/115/435 439/117/439 447/113/447
f 432/120/432 435/115/435 447/113/447
vt 0.466750 0.804056
vt 0.466750 0.799475
vt 0.484135 0.803659
f 450/199/450 451/200/451 469/201/469
vt 0.484135 0.806117
f 469/201/469 470/202/470 450/199/450
vt 0.466750 0.795291
vt 0.484135 0.799444
f 451/200/451 452/203/452 472/204/472
f 472/204/472 469/201/469 451/200/451
vt 0.466750 0.792436
vt 0.484135 0.795337
f 452/203/452 453/205/453 473/206/473
f 473/206/473 472/204/472 452/203/452
vt 0.466750 0.787733
vt 0.484135 0.793688
f 453/205/453 455/207/455 475/208/475
f 475/208/475 473/206/473 453/205/453
vt 0.467498 0.831815
vt 0.467498 0.828044
vt 0.484745 0.833052
f 454/209/454 456/210/456 476/211/476
vt 0.484745 0.835190
f 476/211/476 474/212/474 454/209/454
vt 0.467498 0.824822
vt 0.484745 0.828731
f 456/210/456 457/213/457 477/214/477
f 477/214/477 476/211/476 456/210/456
vt 0.467498 0.821157
vt 0.484745 0.824730
f 457/213/457 458/215/458 478/216/478
f 478/216/478 477/214/477 457/213/457
vt 0.467498 0.817538
vt 0.484745 0.822501
f 458/215/458 449/217/449 471/218/471
f 471/218/471 478/216/478 458/215/458
vt 0.514660 0.809110
vt 0.514660 0.811980
f 498/219/498 506/220/506 470/202/470
f 470/202/470 469/201/469 498/219/498
vt 0.514660 0.800223
f 499/221/499 498/219/498 469/201/469
f 469/201/469 472/204/472 499/221/499
vt 0.514660 0.791977
f 473/206/473 500/222/500 499/221/499
f 499/221/499 472/204/472 473/206/473
vt 0.514660 0.785473
f 475/208/475 502/223/502 500/222/500
f 500/222/500 473/206/473 475/208/475
vt 0.514904 0.837053
vt 0.514904 0.843603
f 503/224/503 501/225/501 474/212/474
f 474/212/474 476/211/476 503/224/503
vt 0.514904 0.828807
f 504/226/504 503/224/503 476/211/476
f 476/211/476 477/214/477 504/226/504
vt 0.514904 0.819920
f 478/216/478 505/227/505 504/226/504
f 504/226/504 477/214/477 478/216/478
vt 0.514904 0.817141
f 471/218/471 507/228/507 505/227/505
f 505/227/505 478/216/478 471/218/471
vt 0.610266 0.803002
vt 0.606282 0.806865
vt 0.602406 0.808575
f 468/229/468 460/230/460 479/231/479
vt 0.602406 0.806239
f 479/231/479 481/232/481 468/229/468
vt 0.611289 0.800131
f 466/233/466 468/229/468 481/232/481
vt 0.602406 0.800483
f 481/232/481 482/234/482 466/233/466
vt 0.610052 0.797444
f 463/235/463 466/233/466 482/234/482
vt 0.602406 0.794940
f 482/234/482 483/236/483 463/235/463
vt 0.605763 0.793459
f 461/237/461 463/235/463 483/236/483
vt 0.602406 0.791626
f 483/236/483 484/238/484 461/237/461
vt 0.610174 0.830899
vt 0.606099 0.835083
vt 0.602421 0.837022
f 464/239/464 462/240/462 485/241/485
vt 0.602421 0.833770
f 485/241/485 486/242/486 464/239/464
vt 0.611197 0.828303
f 465/243/465 464/239/464 486/242/486
vt 0.602421 0.828319
f 486/242/486 487/244/487 465/243/465
vt 0.610006 0.825753
f 467/245/467 465/243/465 487/244/487
vt 0.602421 0.822745
f 487/244/487 488/246/488 467/245/467
vt 0.605901 0.822073
f 459/247/459 467/245/467 488/246/488
vt 0.602421 0.820455
f 488/246/488 480/248/480 459/247/459
vt 0.545476 0.811324
vt 0.576138 0.811324
vt 0.576138 0.814332
f 489/249/489 509/250/509 508/251/508
vt 0.545476 0.814332
f 508/251/508 497/252/497 489/249/489
vt 0.545476 0.800315
vt 0.576138 0.800330
f 490/253/490 510/254/510 509/250/509
f 509/250/509 489/249/489 490/253/490
vt 0.576138 0.791504
f 511/255/511 510/254/510 490/253/490
vt 0.545476 0.790649
f 490/253/490 491/256/491 511/255/511
vt 0.576138 0.784236
f 512/257/512 511/255/511 491/256/491
f 491/256/491 492/184/492 512/257/512
vt 0.545476 0.838213
vt 0.576138 0.837098
vt 0.576138 0.844336
f 494/258/494 514/259/514 513/260/513
f 513/260/513 493/78/493 494/258/494
vt 0.545476 0.828563
vt 0.576138 0.828303
f 495/261/495 515/262/515 514/259/514
f 514/259/514 494/258/494 495/261/495
vt 0.576138 0.817325
f 516/263/516 515/262/515 495/261/495
vt 0.545476 0.817584
f 495/261/495 496/264/496 516/263/516
f 508/251/508 516/263/516 496/264/496
f 496/264/496 497/252/497 508/251/508
f 489/249/489 497/252/497 506/220/506
f 506/220/506 498/219/498 489/249/489
f 490/253/490 489/249/489 498/219/498
f 498/219/498 499/221/499 490/253/490
f 500/222/500 491/256/491 490/253/490
f 490/253/490 499/221/499 500/222/500
f 502/223/502 492/184/492 491/256/491
f 491/256/491 500/222/500 502/223/502
f 494/258/494 493/78/493 501/225/501
f 501/225/501 503/224/503 494/258/494
f 495/261/495 494/258/494 503/224/503
f 503/224/503 504/226/504 495/261/495
f 505/227/505 496/264/496 495/261/495
f 495/261/495 504/226/504 505/227/505
f 507/228/507 497/252/497 496/264/496
f 496/264/496 505/227/505 507/228/507
vt 0.591493 0.808865
vt 0.591493 0.811583
f 509/250/509 519/265/519 517/266/517
f 517/266/517 508/251/508 509/250/509
vt 0.591493 0.800467
f 510/254/510 520/267/520 519/265/519
f 519/265/519 509/250/509 510/254/510
vt 0.591493 0.793046
f 521/268/521 520/267/520 510/254/510
f 510/254/510 511/255/511 521/268/521
vt 0.591493 0.786755
f 523/269/523 521/268/521 511/255/511
f 511/255/511 512/257/512 523/269/523
vt 0.591554 0.835709
vt 0.591554 0.841985
f 514/259/514 524/270/524 522/271/522
f 522/271/522 513/260/513 514/259/514
vt 0.591554 0.828319
f 515/262/515 525/272/525 524/270/524
f 524/270/524 514/259/514 515/262/515
vt 0.591554 0.820043
f 526/273/526 525/272/525 515/262/515
f 515/262/515 516/263/516 526/273/526
vt 0.591554 0.817309
f 518/274/518 526/273/526 516/263/516
f 516/263/516 508/251/508 518/274/518
f 519/265/519 481/232/481 479/231/479
f 479/231/479 517/266/517 519/265/519
f 520/267/520 482/234/482 481/232/481
f 481/232/481 519/265/519 520/267/520
f 483/236/483 482/234/482 520/267/520
f 520/267/520 521/268/521 483/236/483
f 484/238/484 483/236/483 521/268/521
f 521/268/521 523/269/523 484/238/484
f 524/270/524 486/242/486 485/241/485
f 485/241/485 522/271/522 524/270/524
f 525/272/525 487/244/487 486/242/486
f 486/242/486 524/270/524 525/272/525
f 488/246/488 487/244/487 525/272/525
f 525/272/525 526/273/526 488/246/488
f 480/248/480 488/246/488 526/273/526
f 526/273/526 518/274/518 480/248/480
f 527/97/527 528/98/528 539/99/539
f 539/99/539 536/100/536 527/97/527
f 528/98/528 529/101/529 540/102/540
f 540/102/540 539/99/539 528/98/528
f 529/101/529 530/103/530 542/104/542
f 542/104/542 540/102/540 529/101/529
f 530/103/530 531/105/531 545/106/545
f 545/106/545 542/104/542 530/103/530
f 531/105/531 532/107/532 547/108/547
f 547/108/547 545/106/545 531/105/531
f 532/107/532 533/109/533 548/110/548
f 548/110/548 547/108/547 532/107/532
f 534/111/534 535/112/535 552/113/552
f 552/113/552 550/114/550 534/111/534
f 535/112/535 527/97/527 536/100/536
f 536/100/536 552/113/552 535/112/535
f 538/115/538 541/116/541 543/117/543
f 543/117/543 544/118/544 546/119/546
f 546/119/546 549/114/549 551/113/551
f 543/117/543 546/119/546 551/113/551
f 538/115/538 543/117/543 551/113/551
f 537/120/537 538/115/538 551/113/551
vt 0.564768 0.990189
vt 0.564768 0.982631
vt 0.576505 0.982631
f 554/275/554 630/276/630 631/277/631
vt 0.576505 0.990189
f 631/277/631 553/278/553 554/275/554
vt 0.553031 0.990189
vt 0.553031 0.982631
f 555/279/555 632/280/632 630/276/630
f 630/276/630 554/275/554 555/279/555
vt 0.541294 0.990189
vt 0.541294 0.982631
f 556/281/556 633/282/633 632/280/632
f 632/280/632 555/279/555 556/281/556
vt 0.529557 0.990189
vt 0.529557 0.982631
f 557/283/557 634/284/634 633/282/633
f 633/282/633 556/281/556 557/283/557
vt 0.517804 0.990189
vt 0.517804 0.982631
f 558/285/558 635/286/635 634/284/634
f 634/284/634 557/283/557 558/285/558
vt 0.506067 0.990189
vt 0.506067 0.982631
f 559/287/559 636/288/636 635/286/635
f 635/286/635 558/285/558 559/287/559
vt 0.494330 0.990189
vt 0.494330 0.982631
f 560/289/560 637/290/637 636/288/636
f 636/288/636 559/287/559 560/289/560
vt 0.482593 0.990189
vt 0.482593 0.982631
f 561/291/561 638/292/638 637/290/637
f 637/290/637 560/289/560 561/291/561
vt 0.470856 0.990189
vt 0.470856 0.982631
f 563/293/563 640/294/640 638/292/638
f 638/292/638 561/291/561 563/293/563
vt 0.599994 0.990189
vt 0.599994 0.982631
vt 0.611731 0.982631
f 564/295/564 641/296/641 639/297/639
vt 0.611731 0.990189
f 639/297/639 562/298/562 564/295/564
vt 0.588242 0.990189
vt 0.588242 0.982631
f 565/299/565 642/300/642 641/296/641
f 641/296/641 564/295/564 565/299/565
f 553/278/553 631/277/631 642/300/642
f 642/300/642 565/299/565 553/278/553
vt 0.576505 0.962689
vt 0.564768 0.962689
vt 0.564768 0.947756
f 566/301/566 567/302/567 580/303/580
vt 0.576505 0.947756
f 580/303/580 579/304/579 566/301/566
vt 0.553031 0.962689
vt 0.553031 0.947756
f 567/302/567 568/305/568 581/306/581
f 581/306/581 580/303/580 567/302/567
vt 0.541294 0.962689
vt 0.541294 0.947756
f 568/305/568 569/307/569 582/308/582
f 582/308/582 581/306/581 568/305/568
vt 0.529557 0.962689
vt 0.529557 0.947756
f 569/307/569 570/309/570 583/310/583
f 583/310/583 582/308/582 569/307/569
vt 0.517804 0.962689
vt 0.517804 0.947756
f 570/309/570 571/311/571 584/312/584
f 584/312/584 583/310/583 570/309/570
vt 0.506067 0.962689
vt 0.506067 0.947756
f 571/311/571 572/313/572 585/314/585
f 585/314/585 584/312/584 571/311/571
vt 0.494330 0.962689
vt 0.494330 0.947756
f 572/313/572 573/315/573 586/316/586
f 586/316/586 585/314/585 572/313/572
vt 0.482593 0.962689
vt 0.482593 0.947756
f 573/315/573 574/317/574 587/318/587
f 587/318/587 586/316/586 573/315/573
vt 0.470856 0.962689
vt 0.470856 0.947756
f 574/317/574 575/319/575 588/320/588
f 588/320/588 587/318/587 574/317/574
vt 0.611731 0.962689
vt 0.599994 0.962689
vt 0.599994 0.947756
f 576/321/576 577/322/577 590/323/590
vt 0.611731 0.947756
f 590/323/590 589/324/589 576/321/576
vt 0.588242 0.962689
vt 0.588242 0.947756
f 577/322/577 578/325/578 591/326/591
f 591/326/591 590/323/590 577/322/577
f 578/325/578 566/301/566 579/304/579
f 579/304/579 591/326/591 578/325/578
vt 0.564768 0.933738
f 579/304/579 580/303/580 593/327/593
vt 0.576505 0.933738
f 593/327/593 592/328/592 579/304/579
vt 0.553031 0.933738
f 580/303/580 581/306/581 594/329/594
f 594/329/594 593/327/593 580/303/580
vt 0.541294 0.933738
f 581/306/581 582/308/582 595/330/595
f 595/330/595 594/329/594 581/306/581
vt 0.529557 0.933738
f 582/308/582 583/310/583 596/331/596
f 596/331/596 595/330/595 582/308/582
vt 0.517804 0.933738
f 583/310/583 584/312/584 597/332/597
f 597/332/597 596/331/596 583/310/583
vt 0.506067 0.933738
f 584/312/584 585/314/585 598/333/598
f 598/333/598 597/332/597 584/312/584
vt 0.494330 0.933738
f 585/314/585 586/316/586 599/334/599
f 599/334/599 598/333/598 585/314/585
vt 0.482593 0.933738
f 586/316/586 587/318/587 600/335/600
f 600/335/600 599/334/599 586/316/586
vt 0.470856 0.933738
f 587/318/587 588/320/588 602/336/602
f 602/336/602 600/335/600 587/318/587
vt 0.599994 0.933738
f 589/324/589 590/323/590 603/337/603
vt 0.611731 0.933738
f 603/337/603 601/338/601 589/324/589
vt 0.588242 0.933738
f 590/323/590 591/326/591 604/339/604
f 604/339/604 603/337/603 590/323/590
f 591/326/591 579/304/579 592/328/592
f 592/328/592 604/339/604 591/326/591
vt 0.564768 0.923142
f 592/328/592 593/327/593 606/340/606
vt 0.576505 0.923142
f 606/340/606 605/341/605 592/328/592
vt 0.553031 0.923142
f 593/327/593 594/329/594 607/342/607
f 607/342/607 606/340/606 593/327/593
vt 0.541294 0.923142
f 594/329/594 595/330/595 608/343/608
f 608/343/608 607/342/607 594/329/594
vt 0.529557 0.923142
f 595/330/595 596/331/596 609/344/609
f 609/344/609 608/343/608 595/330/595
vt 0.517804 0.923142
f 596/331/596 597/332/597 610/345/610
f 610/345/610 609/344/609 596/331/596
vt 0.506067 0.923142
f 597/332/597 598/333/598 611/346/611
f 611/346/611 610/345/610 597/332/597
vt 0.494330 0.923142
f 598/333/598 599/334/599 612/347/612
f 612/347/612 611/346/611 598/333/598
vt 0.482593 0.923142
f 599/334/599 600/335/600 613/348/613
f 613/348/613 612/347/612 599/334/599
vt 0.470856 0.923142
f 600/335/600 602/336/602 614/349/614
f 614/349/614 613/348/613 600/335/600
vt 0.599994 0.923142
f 601/338/601 603/337/603 616/350/616
vt 0.611731 0.923142
f 616/350/616 615/351/615 601/338/601
vt 0.588242 0.923142
f 603/337/603 604/339/604 617/352/617
f 617/352/617 616/350/616 603/337/603
f 604/339/604 592/328/592 605/341/605
f 605/341/605 617/352/617 604/339/604
vt 0.570644 0.917721
f 605/341/605 606/340/606 629/353/629
vt 0.558907 0.917721
f 606/340/606 607/342/607 621/354/621
vt 0.547154 0.917721
f 607/342/607 608/343/608 622/355/622
vt 0.535417 0.917721
f 608/343/608 609/344/609 620/356/620
vt 0.523680 0.917721
f 609/344/609 610/345/610 618/357/618
vt 0.511943 0.917721
f 610/345/610 611/346/611 619/358/619
vt 0.500206 0.917721
f 611/346/611 612/347/612 627/359/627
vt 0.488469 0.917721
f 612/347/612 613/348/613 628/360/628
vt 0.476717 0.917721
f 613/348/613 614/349/614 623/361/623
vt 0.605855 0.917721
f 615/351/615 616/350/616 624/362/624
vt 0.594118 0.917721
f 616/350/616 617/352/617 625/363/625
vt 0.582381 0.917721
f 617/352/617 605/341/605 626/364/626
f 567/302/567 566/301/566 631/277/631
f 631/277/631 630/276/630 567/302/567
f 568/305/568 567/302/567 630/276/630
f 630/276/630 632/280/632 568/305/568
f 569/307/569 568/305/568 632/280/632
f 632/280/632 633/282/633 569/307/569
f 570/309/570 569/307/569 633/282/633
f 633/282/633 634/284/634 570/309/570
f 571/311/571 570/309/570 634/284/634
f 634/284/634 635/286/635 571/311/571
f 572/313/572 571/311/571 635/286/635
f 635/286/635 636/288/636 572/313/572
f 573/315/573 572/313/572 636/288/636
f 636/288/636 637/290/637 573/315/573
f 574/317/574 573/315/573 637/290/637
f 637/290/637 638/292/638 574/317/574
f 575/319/575 574/317/574 638/292/638
f 638/292/638 640/294/640 575/319/575
f 577/322/577 576/321/576 639/297/639
f 639/297/639 641/296/641 577/322/577
f 578/325/578 577/322/577 641/296/641
f 641/296/641 642/300/642 578/325/578
f 566/301/566 578/325/578 642/300/642
f 642/300/642 631/277/631 566/301/566
vt 0.210428 0.412426
vt 0.199546 0.406883
vt 0.190922 0.398256
f 650/365/650 666/366/666 651/367/651
vt 0.185366 0.387369
vt 0.183459 0.375306
f 651/367/651 668/368/668 653/369/653
f 650/365/650 651/367/651 653/369/653
vt 0.185366 0.363244
vt 0.190922 0.352356
f 653/369/653 656/370/656 657/371/657
vt 0.199546 0.343729
vt 0.210428 0.338187
f 657/371/657 660/372/660 661/373/661
f 653/369/653 657/371/657 661/373/661
f 650/365/650 653/369/653 661/373/661
vt 0.222501 0.336278
f 650/365/650 661/373/661 700/374/700
vt 0.222501 0.414350
f 678/375/678 650/365/650 700/374/700
vt 0.858789 0.578481
vt 0.858789 0.592926
vt 0.848838 0.592926
f 643/376/643 644/377/644 654/378/654
vt 0.848838 0.578481
f 654/378/654 669/379/669 643/376/643
vt 0.858789 0.607355
vt 0.848838 0.607355
f 644/377/644 645/380/645 655/381/655
f 655/381/655 654/378/654 644/377/644
vt 0.858789 0.621800
vt 0.848838 0.621800
f 645/380/645 646/382/646 658/383/658
f 658/383/658 655/381/655 645/380/645
vt 0.858789 0.636230
vt 0.848838 0.636230
f 646/382/646 647/384/647 659/385/659
f 659/385/659 658/383/658 646/382/646
vt 0.858789 0.650675
vt 0.848838 0.650675
f 647/384/647 648/386/648 662/387/662
f 662/387/662 659/385/659 647/384/647
vt 0.858789 0.665104
vt 0.848838 0.665104
f 648/386/648 677/388/677 699/389/699
f 699/389/699 662/387/662 648/386/648
vt 0.858789 0.520747
vt 0.858789 0.535177
vt 0.848838 0.535177
f 702/390/702 663/391/663 649/392/649
vt 0.848838 0.520747
f 649/392/649 679/393/679 702/390/702
vt 0.858789 0.549622
vt 0.848838 0.549622
f 663/391/663 664/394/664 667/395/667
f 667/395/667 649/392/649 663/391/663
vt 0.858789 0.564051
vt 0.848838 0.564051
f 664/394/664 665/396/665 652/397/652
f 652/397/652 667/395/667 664/394/664
f 665/396/665 643/376/643 669/379/669
f 669/379/669 652/397/652 665/396/665
vt 0.234558 0.338187
vt 0.245441 0.343729
vt 0.254079 0.352356
f 697/398/697 695/399/695 692/400/692
vt 0.259620 0.363244
vt 0.261528 0.375306
f 692/400/692 690/401/690 688/402/688
f 697/398/697 692/400/692 688/402/688
vt 0.259620 0.387369
vt 0.254079 0.398256
f 688/402/688 687/403/687 684/404/684
vt 0.245441 0.406883
vt 0.234558 0.412426
f 684/404/684 683/405/683 681/406/681
f 688/402/688 684/404/684 681/406/681
f 697/398/697 688/402/688 681/406/681
f 700/374/700 697/398/697 681/406/681
f 678/375/678 700/374/700 681/406/681
vt 0.858789 0.462999
vt 0.848838 0.462999
vt 0.848838 0.448569
f 671/407/671 686/408/686 689/409/689
vt 0.858789 0.448569
f 689/409/689 670/410/670 671/407/671
vt 0.848838 0.434124
f 670/410/670 689/409/689 691/411/691
vt 0.858789 0.434124
f 691/411/691 672/412/672 670/410/670
vt 0.848838 0.419695
f 672/412/672 691/411/691 693/413/693
vt 0.858789 0.419695
f 693/413/693 673/414/673 672/412/672
vt 0.858789 0.708408
vt 0.848838 0.708408
vt 0.848838 0.693979
f 674/415/674 694/416/694 696/417/696
vt 0.858789 0.693979
f 696/417/696 675/418/675 674/415/674
vt 0.848838 0.679534
f 675/418/675 696/417/696 698/419/698
vt 0.858789 0.679534
f 698/419/698 676/420/676 675/418/675
f 676/420/676 698/419/698 699/389/699
f 699/389/699 677/388/677 676/420/676
vt 0.848838 0.506302
f 702/390/702 679/393/679 680/421/680
vt 0.858789 0.506302
f 680/421/680 701/422/701 702/390/702
vt 0.848838 0.491873
f 701/422/701 680/421/680 682/423/682
vt 0.858789 0.491873
f 682/423/682 703/424/703 701/422/701
vt 0.848838 0.477428
f 703/424/703 682/423/682 685/425/685
vt 0.858789 0.477428
f 685/425/685 704/426/704 703/424/703
f 704/426/704 685/425/685 686/408/686
f 686/408/686 671/407/671 704/426/704
# 784 faces, 426 coords texture

# End of File